{
  "outputs": [
    {
      "args": [
        "\"--faked-system-time=1671553073!\"",
        "\"--list-keys\""
      ],
      "stderr": "gpg: WARNING: unsafe permissions on homedir '/HOMEDIR'\\ngpg: WARNING: running with faked system time: 2022-12-20 16:17:53\\ngpg: keybox '/HOMEDIR/pubring.kbx' created\\ngpg: /HOMEDIR/trustdb.gpg: trustdb created\\n",
      "stdout": "",
      "statusfd": "",
      "status": "exit status: 0",
      "files": {}
    },
    {
      "args": [
        "\"--faked-system-time=1671553073!\"",
        "\"--verify\"",
        "\"/EXPERIMENT/sig\"",
        "\"/EXPERIMENT/msg\""
      ],
      "stderr": "gpg: WARNING: unsafe permissions on homedir '/HOMEDIR'\\ngpg: WARNING: running with faked system time: 2022-12-20 16:17:53\\ngpg: Signature made Tue Dec 20 19:17:53 2022 EAT\\ngpg:                using RSA key 75F7995888C7B8F349F631652866510FA6B2B069\\ngpg: Can't check signature: No public key\\n",
      "stdout": "",
      "statusfd": "[GNUPG:] NEWSIG\\n[GNUPG:] ERRSIG 2866510FA6B2B069 1 10 00 1671553073 9 75F7995888C7B8F349F631652866510FA6B2B069\\n[GNUPG:] NO_PUBKEY 2866510FA6B2B069\\n",
      "status": "exit status: 2",
      "files": {}
    },
    {
      "args": [
        "\"--faked-system-time=1671553073!\"",
        "\"--verify\"",
        "\"/EXPERIMENT/sig\"",
        "\"/EXPERIMENT/msg_bad\""
      ],
      "stderr": "gpg: WARNING: unsafe permissions on homedir '/HOMEDIR'\\ngpg: WARNING: running with faked system time: 2022-12-20 16:17:53\\ngpg: Signature made Tue Dec 20 19:17:53 2022 EAT\\ngpg:                using RSA key 75F7995888C7B8F349F631652866510FA6B2B069\\ngpg: Can't check signature: No public key\\n",
      "stdout": "",
      "statusfd": "[GNUPG:] NEWSIG\\n[GNUPG:] ERRSIG 2866510FA6B2B069 1 10 00 1671553073 9 75F7995888C7B8F349F631652866510FA6B2B069\\n[GNUPG:] NO_PUBKEY 2866510FA6B2B069\\n",
      "status": "exit status: 2",
      "files": {}
    },
    {
      "args": [
        "\"gpgv\"",
        "\"--keyring\"",
        "\"/EXPERIMENT/empty\"",
        "\"/EXPERIMENT/sig\"",
        "\"/EXPERIMENT/msg\""
      ],
      "stderr": "gpgv: Signature made Tue Dec 20 19:17:53 2022 EAT\\ngpgv:                using RSA key 75F7995888C7B8F349F631652866510FA6B2B069\\ngpgv: Can't check signature: No public key\\n",
      "stdout": "",
      "statusfd": "[GNUPG:] NEWSIG\\n[GNUPG:] ERRSIG 2866510FA6B2B069 1 10 00 1671553073 9 75F7995888C7B8F349F631652866510FA6B2B069\\n[GNUPG:] NO_PUBKEY 2866510FA6B2B069\\n",
      "status": "exit status: 2",
      "files": {}
    },
    {
      "args": [
        "\"gpgv\"",
        "\"--keyring\"",
        "\"/EXPERIMENT/empty\"",
        "\"/EXPERIMENT/sig\"",
        "\"/EXPERIMENT/msg_bad\""
      ],
      "stderr": "gpgv: Signature made Tue Dec 20 19:17:53 2022 EAT\\ngpgv:                using RSA key 75F7995888C7B8F349F631652866510FA6B2B069\\ngpgv: Can't check signature: No public key\\n",
      "stdout": "",
      "statusfd": "[GNUPG:] NEWSIG\\n[GNUPG:] ERRSIG 2866510FA6B2B069 1 10 00 1671553073 9 75F7995888C7B8F349F631652866510FA6B2B069\\n[GNUPG:] NO_PUBKEY 2866510FA6B2B069\\n",
      "status": "exit status: 2",
      "files": {}
    },
    {
      "args": [
        "\"--faked-system-time=1671553073!\"",
        "\"--import\"",
        "\"/EXPERIMENT/cert\""
      ],
      "stderr": "gpg: WARNING: unsafe permissions on homedir '/HOMEDIR'\\ngpg: WARNING: running with faked system time: 2022-12-20 16:17:53\\ngpg: key F22EE530AB6FFF9A: public key \"Alice Lovelace <alice@lovelace.name>\" imported\\ngpg: Total number processed: 1\\ngpg:               imported: 1\\n",
      "stdout": "",
      "statusfd": "[GNUPG:] KEY_CONSIDERED 64A93F6BAD08F8BE7EF1244BF22EE530AB6FFF9A 0\\n[GNUPG:] IMPORTED F22EE530AB6FFF9A Alice Lovelace <alice@lovelace.name>\\n[GNUPG:] IMPORT_OK 1 64A93F6BAD08F8BE7EF1244BF22EE530AB6FFF9A\\n[GNUPG:] IMPORT_RES 1 0 1 0 0 0 0 0 0 0 0 0 0 0 0\\n",
      "status": "exit status: 0",
      "files": {}
    },
    {
      "args": [
        "\"--faked-system-time=1671553073!\"",
        "\"--verify\"",
        "\"/EXPERIMENT/sig\"",
        "\"/EXPERIMENT/msg\""
      ],
      "stderr": "gpg: WARNING: unsafe permissions on homedir '/HOMEDIR'\\ngpg: WARNING: running with faked system time: 2022-12-20 16:17:53\\ngpg: Signature made Tue Dec 20 19:17:53 2022 EAT\\ngpg:                using RSA key 75F7995888C7B8F349F631652866510FA6B2B069\\ngpg: Good signature from \"Alice Lovelace <alice@lovelace.name>\" [unknown]\\ngpg: WARNING: This key is not certified with a trusted signature!\\ngpg:          There is no indication that the signature belongs to the owner.\\nPrimary key fingerprint: 64A9 3F6B AD08 F8BE 7EF1  244B F22E E530 AB6F FF9A\\n     Subkey fingerprint: 75F7 9958 88C7 B8F3 49F6  3165 2866 510F A6B2 B069\\n",
      "stdout": "",
      "statusfd": "[GNUPG:] NEWSIG\\n[GNUPG:] KEY_CONSIDERED 64A93F6BAD08F8BE7EF1244BF22EE530AB6FFF9A 0\\n[GNUPG:] SIG_ID xxE4ews+BC6nltZrb6VwTw4zHtU 2022-12-20 1671553073\\n[GNUPG:] KEY_CONSIDERED 64A93F6BAD08F8BE7EF1244BF22EE530AB6FFF9A 0\\n[GNUPG:] GOODSIG 2866510FA6B2B069 Alice Lovelace <alice@lovelace.name>\\n[GNUPG:] NOTATION_NAME salt@notations.sequoia-pgp.org\\n[GNUPG:] NOTATION_DATA %04D1(\\xE9\\xFE\\xC0։\\xA6\\x95\\xF3%06%0C\\x8F\\x9F\\x98y9޺Y~\\xC6\\xD5\\xDC%1E\\xCD&\\x9BL%7F\\n[GNUPG:] VALIDSIG 75F7995888C7B8F349F631652866510FA6B2B069 2022-12-20 1671553073 0 4 0 1 10 00 64A93F6BAD08F8BE7EF1244BF22EE530AB6FFF9A\\n[GNUPG:] KEY_CONSIDERED 64A93F6BAD08F8BE7EF1244BF22EE530AB6FFF9A 0\\n[GNUPG:] KEY_CONSIDERED 64A93F6BAD08F8BE7EF1244BF22EE530AB6FFF9A 0\\n[GNUPG:] TRUST_UNDEFINED 0 pgp\\n",
      "status": "exit status: 0",
      "files": {}
    },
    {
      "args": [
        "\"--faked-system-time=1671553073!\"",
        "\"--verify\"",
        "\"/EXPERIMENT/sig\"",
        "\"/EXPERIMENT/msg_bad\""
      ],
      "stderr": "gpg: WARNING: unsafe permissions on homedir '/HOMEDIR'\\ngpg: WARNING: running with faked system time: 2022-12-20 16:17:53\\ngpg: Signature made Tue Dec 20 19:17:53 2022 EAT\\ngpg:                using RSA key 75F7995888C7B8F349F631652866510FA6B2B069\\ngpg: BAD signature from \"Alice Lovelace <alice@lovelace.name>\" [unknown]\\n",
      "stdout": "",
      "statusfd": "[GNUPG:] NEWSIG\\n[GNUPG:] KEY_CONSIDERED 64A93F6BAD08F8BE7EF1244BF22EE530AB6FFF9A 0\\n[GNUPG:] KEY_CONSIDERED 64A93F6BAD08F8BE7EF1244BF22EE530AB6FFF9A 0\\n[GNUPG:] BADSIG 2866510FA6B2B069 Alice Lovelace <alice@lovelace.name>\\n",
      "status": "exit status: 1",
      "files": {}
    },
    {
      "args": [
        "\"gpgv\"",
        "\"--keyring\"",
        "\"/EXPERIMENT/cert\"",
        "\"/EXPERIMENT/sig\"",
        "\"/EXPERIMENT/msg\""
      ],
      "stderr": "gpgv: Signature made Tue Dec 20 19:17:53 2022 EAT\\ngpgv:                using RSA key 75F7995888C7B8F349F631652866510FA6B2B069\\ngpgv: Good signature from \"Alice Lovelace <alice@lovelace.name>\"\\n",
      "stdout": "",
      "statusfd": "[GNUPG:] NEWSIG\\n[GNUPG:] KEY_CONSIDERED 64A93F6BAD08F8BE7EF1244BF22EE530AB6FFF9A 0\\n[GNUPG:] SIG_ID xxE4ews+BC6nltZrb6VwTw4zHtU 2022-12-20 1671553073\\n[GNUPG:] KEY_CONSIDERED 64A93F6BAD08F8BE7EF1244BF22EE530AB6FFF9A 0\\n[GNUPG:] GOODSIG 2866510FA6B2B069 Alice Lovelace <alice@lovelace.name>\\n[GNUPG:] NOTATION_NAME salt@notations.sequoia-pgp.org\\n[GNUPG:] NOTATION_DATA %04D1(\\xE9\\xFE\\xC0։\\xA6\\x95\\xF3%06%0C\\x8F\\x9F\\x98y9޺Y~\\xC6\\xD5\\xDC%1E\\xCD&\\x9BL%7F\\n[GNUPG:] VALIDSIG 75F7995888C7B8F349F631652866510FA6B2B069 2022-12-20 1671553073 0 4 0 1 10 00 64A93F6BAD08F8BE7EF1244BF22EE530AB6FFF9A\\n",
      "status": "exit status: 0",
      "files": {}
    },
    {
      "args": [
        "\"gpgv\"",
        "\"--keyring\"",
        "\"/EXPERIMENT/cert\"",
        "\"/EXPERIMENT/sig\"",
        "\"/EXPERIMENT/msg_bad\""
      ],
      "stderr": "gpgv: Signature made Tue Dec 20 19:17:53 2022 EAT\\ngpgv:                using RSA key 75F7995888C7B8F349F631652866510FA6B2B069\\ngpgv: BAD signature from \"Alice Lovelace <alice@lovelace.name>\"\\n",
      "stdout": "",
      "statusfd": "[GNUPG:] NEWSIG\\n[GNUPG:] KEY_CONSIDERED 64A93F6BAD08F8BE7EF1244BF22EE530AB6FFF9A 0\\n[GNUPG:] KEY_CONSIDERED 64A93F6BAD08F8BE7EF1244BF22EE530AB6FFF9A 0\\n[GNUPG:] BADSIG 2866510FA6B2B069 Alice Lovelace <alice@lovelace.name>\\n",
      "status": "exit status: 1",
      "files": {}
    }
  ],
  "former_us_outputs": [
    {
      "args": [
        "\"--faked-system-time=1671553073!\"",
        "\"--list-keys\""
      ],
      "stderr": "gpg: WARNING: unsafe permissions on homedir '/HOMEDIR'\\ngpg: WARNING: running with faked system time: 2022-12-20 16:17:53\\n",
      "stdout": "",
      "statusfd": "",
      "status": "exit status: 0",
      "files": {}
    },
    {
      "args": [
        "\"--faked-system-time=1671553073!\"",
        "\"--verify\"",
        "\"/EXPERIMENT/sig\"",
        "\"/EXPERIMENT/msg\""
      ],
      "stderr": "gpg: WARNING: unsafe permissions on homedir '/HOMEDIR'\\ngpg: WARNING: running with faked system time: 2022-12-20 16:17:53\\ngpg: Signature made Tue Dec 20 19:17:53 2022 +03:00\\ngpg:                using RSA key 75F7995888C7B8F349F631652866510FA6B2B069\\ngpg: Can't check signature: No public key\\n",
      "stdout": "",
      "statusfd": "[GNUPG:] NEWSIG\\n[GNUPG:] ERRSIG 2866510FA6B2B069 1 10 00 1671553073 9 75F7995888C7B8F349F631652866510FA6B2B069\\n[GNUPG:] NO_PUBKEY 2866510FA6B2B069\\n",
      "status": "exit status: 2",
      "files": {}
    },
    {
      "args": [
        "\"--faked-system-time=1671553073!\"",
        "\"--verify\"",
        "\"/EXPERIMENT/sig\"",
        "\"/EXPERIMENT/msg_bad\""
      ],
      "stderr": "gpg: WARNING: unsafe permissions on homedir '/HOMEDIR'\\ngpg: WARNING: running with faked system time: 2022-12-20 16:17:53\\ngpg: Signature made Tue Dec 20 19:17:53 2022 +03:00\\ngpg:                using RSA key 75F7995888C7B8F349F631652866510FA6B2B069\\ngpg: Can't check signature: No public key\\n",
      "stdout": "",
      "statusfd": "[GNUPG:] NEWSIG\\n[GNUPG:] ERRSIG 2866510FA6B2B069 1 10 00 1671553073 9 75F7995888C7B8F349F631652866510FA6B2B069\\n[GNUPG:] NO_PUBKEY 2866510FA6B2B069\\n",
      "status": "exit status: 2",
      "files": {}
    },
    {
      "args": [
        "\"gpgv\"",
        "\"--keyring\"",
        "\"/EXPERIMENT/empty\"",
        "\"/EXPERIMENT/sig\"",
        "\"/EXPERIMENT/msg\""
      ],
      "stderr": "gpgv: Signature made Tue Dec 20 19:17:53 2022 +03:00\\ngpgv:                using RSA key 75F7995888C7B8F349F631652866510FA6B2B069\\ngpgv: Can't check signature: No public key\\n",
      "stdout": "",
      "statusfd": "[GNUPG:] NEWSIG\\n[GNUPG:] ERRSIG 2866510FA6B2B069 1 10 00 1671553073 9 75F7995888C7B8F349F631652866510FA6B2B069\\n[GNUPG:] NO_PUBKEY 2866510FA6B2B069\\n",
      "status": "exit status: 2",
      "files": {}
    },
    {
      "args": [
        "\"gpgv\"",
        "\"--keyring\"",
        "\"/EXPERIMENT/empty\"",
        "\"/EXPERIMENT/sig\"",
        "\"/EXPERIMENT/msg_bad\""
      ],
      "stderr": "gpgv: Signature made Tue Dec 20 19:17:53 2022 +03:00\\ngpgv:                using RSA key 75F7995888C7B8F349F631652866510FA6B2B069\\ngpgv: Can't check signature: No public key\\n",
      "stdout": "",
      "statusfd": "[GNUPG:] NEWSIG\\n[GNUPG:] ERRSIG 2866510FA6B2B069 1 10 00 1671553073 9 75F7995888C7B8F349F631652866510FA6B2B069\\n[GNUPG:] NO_PUBKEY 2866510FA6B2B069\\n",
      "status": "exit status: 2",
      "files": {}
    },
    {
      "args": [
        "\"--faked-system-time=1671553073!\"",
        "\"--import\"",
        "\"/EXPERIMENT/cert\""
      ],
      "stderr": "gpg: WARNING: unsafe permissions on homedir '/HOMEDIR'\\ngpg: WARNING: running with faked system time: 2022-12-20 16:17:53\\ngpg: key F22EE530AB6FFF9A: public key \"Alice Lovelace <alice@lovelace.name>\" imported\\ngpg: Total number processed: 1\\ngpg:               imported: 1\\n",
      "stdout": "",
      "statusfd": "[GNUPG:] KEY_CONSIDERED 64A93F6BAD08F8BE7EF1244BF22EE530AB6FFF9A 0\\n[GNUPG:] IMPORTED F22EE530AB6FFF9A Alice Lovelace <alice@lovelace.name>\\n[GNUPG:] IMPORT_OK 1 64A93F6BAD08F8BE7EF1244BF22EE530AB6FFF9A\\n[GNUPG:] IMPORT_RES 1 0 1 0 0 0 0 0 0 0 0 0 0 0 0\\n",
      "status": "exit status: 0",
      "files": {}
    },
    {
      "args": [
        "\"--faked-system-time=1671553073!\"",
        "\"--verify\"",
        "\"/EXPERIMENT/sig\"",
        "\"/EXPERIMENT/msg\""
      ],
      "stderr": "gpg: WARNING: unsafe permissions on homedir '/HOMEDIR'\\ngpg: WARNING: running with faked system time: 2022-12-20 16:17:53\\ngpg: Signature made Tue Dec 20 19:17:53 2022 +03:00\\ngpg:                using RSA key 75F7995888C7B8F349F631652866510FA6B2B069\\ngpg: Good signature from \"Alice Lovelace <alice@lovelace.name>\" [unknown]\\ngpg: WARNING: This key is not certified with a trusted signature!\\ngpg:          There is no indication that the signature belongs to the owner.\\nPrimary key fingerprint: 64A9 3F6B AD08 F8BE 7EF1  244B F22E E530 AB6F FF9A\\n     Subkey fingerprint: 75F7 9958 88C7 B8F3 49F6  3165 2866 510F A6B2 B069\\n",
      "stdout": "",
      "statusfd": "[GNUPG:] NEWSIG\\n[GNUPG:] KEY_CONSIDERED 64A93F6BAD08F8BE7EF1244BF22EE530AB6FFF9A 0\\n[GNUPG:] SIG_ID xxE4ews+BC6nltZrb6VwTw4zHtU 2022-12-20 1671553073\\n[GNUPG:] KEY_CONSIDERED 64A93F6BAD08F8BE7EF1244BF22EE530AB6FFF9A 0\\n[GNUPG:] GOODSIG 2866510FA6B2B069 Alice Lovelace <alice@lovelace.name>\\n[GNUPG:] NOTATION_NAME salt@notations.sequoia-pgp.org\\n[GNUPG:] NOTATION_DATA %04D1(\\xE9\\xFE\\xC0։\\xA6\\x95\\xF3%06%0C\\x8F\\x9F\\x98y9޺Y~\\xC6\\xD5\\xDC%1E\\xCD&\\x9BL%7F\\n[GNUPG:] VALIDSIG 75F7995888C7B8F349F631652866510FA6B2B069 2022-12-20 1671553073 0 4 0 1 10 00 64A93F6BAD08F8BE7EF1244BF22EE530AB6FFF9A\\n[GNUPG:] KEY_CONSIDERED 64A93F6BAD08F8BE7EF1244BF22EE530AB6FFF9A 0\\n[GNUPG:] KEY_CONSIDERED 64A93F6BAD08F8BE7EF1244BF22EE530AB6FFF9A 0\\n[GNUPG:] TRUST_UNDEFINED 0 pgp\\n",
      "status": "exit status: 0",
      "files": {}
    },
    {
      "args": [
        "\"--faked-system-time=1671553073!\"",
        "\"--verify\"",
        "\"/EXPERIMENT/sig\"",
        "\"/EXPERIMENT/msg_bad\""
      ],
      "stderr": "gpg: WARNING: unsafe permissions on homedir '/HOMEDIR'\\ngpg: WARNING: running with faked system time: 2022-12-20 16:17:53\\ngpg: Signature made Tue Dec 20 19:17:53 2022 +03:00\\ngpg:                using RSA key 75F7995888C7B8F349F631652866510FA6B2B069\\ngpg: BAD signature from \"Alice Lovelace <alice@lovelace.name>\" [unknown]\\n",
      "stdout": "",
      "statusfd": "[GNUPG:] NEWSIG\\n[GNUPG:] KEY_CONSIDERED 64A93F6BAD08F8BE7EF1244BF22EE530AB6FFF9A 0\\n[GNUPG:] KEY_CONSIDERED 64A93F6BAD08F8BE7EF1244BF22EE530AB6FFF9A 0\\n[GNUPG:] BADSIG 2866510FA6B2B069 Alice Lovelace <alice@lovelace.name>\\n",
      "status": "exit status: 1",
      "files": {}
    },
    {
      "args": [
        "\"gpgv\"",
        "\"--keyring\"",
        "\"/EXPERIMENT/cert\"",
        "\"/EXPERIMENT/sig\"",
        "\"/EXPERIMENT/msg\""
      ],
      "stderr": "gpgv: Signature made Tue Dec 20 19:17:53 2022 +03:00\\ngpgv:                using RSA key 75F7995888C7B8F349F631652866510FA6B2B069\\ngpgv: Good signature from \"Alice Lovelace <alice@lovelace.name>\"\\n",
      "stdout": "",
      "statusfd": "[GNUPG:] NEWSIG\\n[GNUPG:] KEY_CONSIDERED 64A93F6BAD08F8BE7EF1244BF22EE530AB6FFF9A 0\\n[GNUPG:] SIG_ID xxE4ews+BC6nltZrb6VwTw4zHtU 2022-12-20 1671553073\\n[GNUPG:] KEY_CONSIDERED 64A93F6BAD08F8BE7EF1244BF22EE530AB6FFF9A 0\\n[GNUPG:] GOODSIG 2866510FA6B2B069 Alice Lovelace <alice@lovelace.name>\\n[GNUPG:] NOTATION_NAME salt@notations.sequoia-pgp.org\\n[GNUPG:] NOTATION_DATA %04D1(\\xE9\\xFE\\xC0։\\xA6\\x95\\xF3%06%0C\\x8F\\x9F\\x98y9޺Y~\\xC6\\xD5\\xDC%1E\\xCD&\\x9BL%7F\\n[GNUPG:] VALIDSIG 75F7995888C7B8F349F631652866510FA6B2B069 2022-12-20 1671553073 0 4 0 1 10 00 64A93F6BAD08F8BE7EF1244BF22EE530AB6FFF9A\\n",
      "status": "exit status: 0",
      "files": {}
    },
    {
      "args": [
        "\"gpgv\"",
        "\"--keyring\"",
        "\"/EXPERIMENT/cert\"",
        "\"/EXPERIMENT/sig\"",
        "\"/EXPERIMENT/msg_bad\""
      ],
      "stderr": "gpgv: Signature made Tue Dec 20 19:17:53 2022 +03:00\\ngpgv:                using RSA key 75F7995888C7B8F349F631652866510FA6B2B069\\ngpgv: BAD signature from \"Alice Lovelace <alice@lovelace.name>\"\\n",
      "stdout": "",
      "statusfd": "[GNUPG:] NEWSIG\\n[GNUPG:] KEY_CONSIDERED 64A93F6BAD08F8BE7EF1244BF22EE530AB6FFF9A 0\\n[GNUPG:] BADSIG 2866510FA6B2B069 Alice Lovelace <alice@lovelace.name>\\n",
      "status": "exit status: 1",
      "files": {}
    }
  ],
  "artifacts": {
    "cert": "\\xC5\\xC2\\xD8\\x04c\\xA1\\xE01\\x01\\x08\\x00\\xCEC\\xFF7\\xF2\\xCC:4j\\x90\\xD61\\xDCQ\\xA1i\\xF6\\x9DP#\\x89\\xBEk\\x89w\\xFDJx\\xA2.\\x98\\x16\\x97\\x07Nv:¡\\xCB[\\x8B\\xEE[\\xF2\\xD5\\xDBR\\xC3\\to\\xEC\\xE7\\xD3\\xC5\\x14\\xB8\\xCA`\\xCF\\rCp\\t\\xA06\\x1Ao\\xAE\\xEB\\xC5\\x81\\xB2\\x86\\xDF9t\\xF2-\\xD2\\xFD\\xEB\\xD7Y\\x8B#\\x82?:Kp\\xA9\\xF0P\\t\\xDB(aw\\x96\\x83u5}\\xFB\\x9C\\x0BTl\\xCC\\xD0\\xB9q\\xAF\\xB2\\x1A}S$\\x9D\\xCD^G\\xE5\\x1EFKj憋\\xE1\\x8C\\x11\\x81\\xF8\\x14|\\x95:\\xBDv\\xBB\\x12\\xA6\\xA3\\x19\\x8D\\xFC\\x89*\\xF3\\x1D\\xEEYT\\x00\"\\xF5\\x88\\xBF\\xE9\\xCCl\\x99\\x19L5\\xEF\\xFC\\x14\\xE3\\xD8\\x9B\\x9B\\xA7,\\xDD\\x15\\xE1l\\xB8f\\xB0/VOH\\xB66d9\\xE0\\xC3\\x9E#\\r\\x92g\\xDF\\xF4\\x97\\x9D\\xAE\\xE4JG7\\t3է\\x1F!\\xE9\\xFAL\\xBB\\x8Esu\\xE5\\xED\\xCB4w\\xFC\\xBA^\\xCB\\\\I\\x96\\x19\\xAEMg\\x17\\xD7\\xD8\\xEC\\xD1\\x0E\\xB9u\\xF7\\x88\\x97#aO+\\x7F\\x00\\x11\\x01\\x00\\x01\\x00\\x07\\xFE+*Y\\xB7Ȭ\\xEA\\xA5[\\x83\\xD1\\xFF\\x7F>\\xEA\\x0B\\xB5\\xDBx\\x10\\xE7\\xDB\\x9C\\xBF\\x99\\x07\\xBD\\xD4\\xFF\\x03\\xD9W\\x0CZçy\\x94\\xF6\\xF3\\x17\\x16*뎞$I\\xEEmF\\xA5\\xA0L\\xF7\\x04\\x10\\xF2V\\x82\\xD1\\x7Fn\\xF54\\x9E\\xB6\\xB4\\xFB}\\x8E\\xCF\\xC9q|\\xD1\\xF2\\x9D\\xB6u}\\xD5\\x0F)\\xAAxW\\xB9\\xE1\\x85y[滾$\\x97kh\\x9C\\xCB\\xC0\\xEE\\x13\\xB6\\xAC\\xAA\\x1Fĩ.Rҍ\\xFF\\xB1\\x05\\xF6\\xBC\\xCAkb\\xE7O:\"˔\\xA9\\n͎\\x17\\x95\\x0E2C\\xFB\\xAF\\x05}\\xED\\x89{\\x8A_\\xEC\\x9Bq\\xB0\\xC1\\xDAW\\x84bJ\\xCE\\xF9\\x82>\\x04j\\xB3_\\xA8[ ]\\xCD\\x18\\x0E\\x95\\x0B(6\\xE1\\xC5\\x16\\xD4\\xF7\\xDA\\x1C`\\xFD}\\x04#꾓\\x948\\x17\\xA61\\xEA)\\r~m\\x98!\\x99\\xA3\\xEA%\\x80p\\xB3>\\xE1\\xA6X.\\x8E)\\xEE\\xD9z\\x88\\x1E\\xCDO..W\\x94\\x8C\\xD0\\xF0\\x94,\\xE7\\xD1\\xA6\\xC70\\xE1\\xC1\\x1E\\xCA\\x13hx\\x17bm4c\\xBD<^.[\\x8E\\x91\\x04\\x00\\xD9\\xE75\\x84\\x072\\x92\"\\xD7l8\\xB9\\x01\\x05\\xA2\\x00\\xC5\\x0Cn<\\xAB\\x1C\\xEFR\\xBD\\\\\\x82\\xB5#\\xCBt\\xE7\\xEE\\xB6\\x0C\\xE5@\\xB1\\xF2X\\x19\\xB5\\x00W+im\\x83\\xE4\\xE7SN\\x1E\\x12\\x06\\x08\\xBC\\xBB\\x88\\xA2)\"2\\x07;\\xA0m\\x9E\\x1FJ\\xA6\\xE4\\xDE\\x06fCk\\x1F\\xA0t\\xB1\\x0BC\\xFF\\xE8\\x15\\xBA\\x88I$\\x18\\xF3o-]/af\\xA3\\x99\\xB1ns<v\\xEA\\xA2\\x1D\\x00\\xC7\\xC6\\xF1\\xDB\\xE4\\xD5\\xE4^\\x90_Z\\x8EL\\xDD\\x11D\\x810\\x89\\x04\\x00\\xF2S\\xEB\\xC0$\\x03Ή\\x7F\\x1C\\x94<\\x7F\\xA1'DRY\\n\\xAD(\\xDEUy%{D\\xB0\\xD11x\\xE3\\xDAjN\\x8B\\xBAwp\\x19\\xE2\\x9B\\x01)\\xC2Tg\\x9A\\x9E\\x04b:\\xDC!\\x15\\xE8\\xF5\\x16%\\xC2\\xFF\\xC6n\\\\\\xC7=\\xFD\\xDD\\xFAy\\x89\\x0E+\\x93\\x85\\xB8\\xCB\\x1B\\x0F\\xAEɭ\\xF1Uab\\x96\\xD9=\\x8A\\x97E\\xAC\\xAA\\xE49<\\x93~\\xA7k\\xFB\\x81\\xE2y\\x80\\xEE$\\xF0\\xA3\\xBDD\\xD9Zw2\\xEE\\xDF@\\xD6Ö\\x863\\x18\\xA9\\xC7\\x03\\xFD\\x19\\x8E\\\\N\\xF3*\\xAEe~\\x15\\x80\\xD9\\x07\\x93\\x81\\xA9M\\xFB\\xE2\\xD3\\xDC\\xFC\\xBBX\\xDA\\xCC\\xB7\\xC07(\\x06\\xB9݀\\x0Fբ{\\x9C(\\xBE\\xB6\\x06j\\x12R\\x8F\\x03\\x82\\xE4h\\x82l\\xE6\\x1Cr8S{c\\xB9{\\xD5\\\\-\\xD0\\x07\\xE5\\xB1y\\x1A6c\\xC8XpXg6\\xC8do\\xE0\\xCB\\x90J\\x1A\\xB5\\n\\x95\\x00\\x86!-\\xBFA\\x98oT\\xA0̞\\xC5N\\xD0\\xD68\\xF2\\x1EȈ\\x07\\xBD<EW\\xE6\\x83IE\\xBD<Ț\\xF6\\xC24\\xDCA\\xFE\\xC2\\xC0\\xC9\\x04\\x1F\\x01\\n\\x00}\\x05\\x82c\\xA1\\xE01\\x03\\x0B\\t\\x07\\t\\x10\\xF2.\\xE50\\xABo\\xFF\\x9AG\\x14\\x00\\x00\\x00\\x00\\x00\\x1E\\x00 salt@notations.sequoia-pgp.org\\x9E\\x8C\\xBE\\x11\\xEE\\xF9\\xD6\\xFFZ\\x14D\\x1B\\xFB\\xADd\\x95il\\x9DL\\x11\\xDD\\xDB\\x8F\\x96ӄ\\x84}z,#\\x03\\x15\\n\\x08\\x02\\x9B\\x01\\x02\\x1E\\x01\\x16!\\x04d\\xA9?k\\xAD\\x08\\xF8\\xBE~\\xF1$K\\xF2.\\xE50\\xABo\\xFF\\x9A\\x00\\x00K\\xD3\\x07\\xFD\\x16\\x07*\\x99\\xC7]I\\x86\\x14\\xA6\\xE1\\x88\\xD9\\xBF\\xCF=\\x95Α5KŤ\\xC1\\x07Uװ>l\\xCA\\xEF-]6\\x17\\x04\\x1B\\x190Xό\\xB1\\xFF;5\\x9Fۢ\\xA3yD\\xE3\\xC4\\x17\\x01:\\x16\\x13I\\x03\\xC2\\x19\\x8D\\x1E\\xC5`\\x99\\xA8\\xCFV\\x13\\xEB\\x01\\x91\\xB1\\xC4\\t\\xE6Q\\x87\\xCA\\xEF`N\\x86\\xD4^(\\xAA\\x1C\\x85E\\xB2\\xBC\\xB6\\xC4\\xC2\\x12\\xFC\\xFF\\x0BX\\xF9\"\\xE6h\\x17\\x87#y\\xB3\\xB8)\\xE5\\xC3<J\\xBB\\xDD\\x12h׈U\\xA9w\\xCB\\xCF\\xC1\\xBC\\x84\\x19+D/2\\xC6j.9;\\xED\\xC0$\\x83\\xAA\\xBE\\xCE\\xE2\\xD2w\\xE7\\x93\\xD3\\xA0\\x05\\x1A> ~$\\xD5\\xD9Z\\x8E\\xCB\\xE0\\x9D\\x90\\xE6\\nM\\xDC-\\xCF\\x1F\\x15\\x9D\\x12\\xA0d\\xBB\\x7F\\xD1\\xD2)#\\xB1\\x08\\xE6Vl1 \\x0C\\x02\\x05@\\xAC\\xB0\\x04\\x071\\xAFM)\\x1Db\\xD9\\xC3\\x85\\xEB\\xD7\\xD1I\\xD3K\\x871\\x9DV\\x1B\\xBE\\xF4\\x97\\xD7\\xF5\\xF7\\xA7\\xF3\\xF0\\x88\\xC9\\xE5\\xBC\\x1Cf׉Ň}\\xAD\\x19K\\x88\\x92\\x83~\\xE0ZQ\\n\\x06\\xCD$Alice Lovelace <alice@lovelace.name>\\xC2\\xC0\\xCC\\x04\\x13\\x01\\n\\x00\\x80\\x05\\x82c\\xA1\\xE01\\x03\\x0B\\t\\x07\\t\\x10\\xF2.\\xE50\\xABo\\xFF\\x9AG\\x14\\x00\\x00\\x00\\x00\\x00\\x1E\\x00 salt@notations.sequoia-pgp.orgF\\xFD\\x0F\\xC4\\xF1\\x1D\\xC4\\xE1\\xBA\\x92\\x95#X\\x91|\\rK\\x1D:խА\\t\\x13\\xEC\\x1CPg\\xB7\\x06\\xC5\\x03\\x15\\n\\x08\\x02\\x99\\x01\\x02\\x9B\\x01\\x02\\x1E\\x01\\x16!\\x04d\\xA9?k\\xAD\\x08\\xF8\\xBE~\\xF1$K\\xF2.\\xE50\\xABo\\xFF\\x9A\\x00\\x00\\xF0~\\x07\\xFE4\\xC3S\\x84\\x17踷ks%\\xB3\\x01b\\x9F\\x0F\\x8F]@A\\xDA\\xF4a\\xCB\\xE9ح\\xE5\\x84p\\xB0\\xA38\\x07\\xAED\"œWpA\\xF6\\x1A\\x97H\\x0F^Y4\\xB7)\\xD8\\x17\\xF1=\\x13s\\xB8\\xB7l>;\\xEF\\xB4\\xEF\\xE4\\nu\\xCDhm!'t\\x19\\x18H\\xC4Ig\\x10\\xA5\\x1E\\xCD\\xF9\\xCC9d\"\\xDA\\xD2e\\xCA\\nvp\"->\\xAC\\x94\\x0CR\\xFFC\\x14~\\xF7\\xF5I\\xF5.\\xCB\\xFE\\xA9\\xF3\\xF2l\\xA0\\x07\\xC0\\xC8G6\\x10\\x8B\\x89|&\\xEE\\x9E=\\xAD6\\x18\\xFCE\\x8D\"\\x8F\\xEDSR\\xD3:\\x88\\xB2t\\x03\\x81z\\xF3\\xA3\\xA9c\\xC6\\xF5\\xC9\\xC9\\xD4\\xC3.\\xC3\\x1AW3\\xA1\\xCB\\n\\x90V\\x9B0\\xC1\\x88X\\x9B\\xB5\\x88\\xFB\\x13\\n\\xE2\\xE0\\x03\\xF0\\xA9~:\\x04\\xA6`]\\x8A\\x02j\\xE2{\\x1E`\\xF6\\x1D\"\\xD1*\\xC2*\\xAD߱n8\\x84\\x8A.O~M\\x7F\\xF8\\xE3\\x1A=\\xA8݆\\xDB,\\xE6\\xEB:\\x1A\\xBFt\\x8EU\\x82\\x00\\xEAT\\xA7\\x07\\xD0}\\xA8ǂ\\xB3\\xF4\\xD10\\xDF\\xF4\\x8E\\x11\\xC7\\xC2\\xD8\\x04c\\xA1\\xE01\\x01\\x08\\x00\\xC8\\xFD\\xB6P\\xA1\\xD0\\xD5jv\\xF4\\xB2Bp\\xF2E\\xFE\\x92\\x82\\xB3\\x85\\x11\\xB7\\x94I\\x8A\\xCF\"\\xADN\\x0F\\xEE\\xA0-\\xF7\\xE8\\\\|\\xAF\\xBAŮ~\\xC01~<\\x1BL2\\t\\xABQ\\x08JFO\\x82xV[\\xD7\\xCAիV!\\xE9\\xEE\\xFAoǂ\\x93\\x04\\x12\\xD7|8\\x01\\x17X9\\\\~{C\\xB2\\xCA\\x0C8\\x9D\\x11\\xAFdO&a!yRoe\\t\\x00\\xA8Í\\x80H\\x86\\xE7\\x9D\\xD0[\\x0E٨\\xC3PwD7ͥ\\xFAqJ\\xFF-\\x9E〣yǈ8\\xC3\\xDF\\xEC/\\x97#\\x00D\\xE3Y_\\x0B\\x13&\\xAC\\xA2\\xBFM\\x99\\xCDe\\xEE\\x90\\x05g\\xD3MO\\xB6%]\\xA8\\xE7\\xDEW\\xDB^I\\xED\\x1B\\xE8\\x0E\\x95\\\\\\x8Bq\\xA6\\x8E7Z\\x13V\\xC6\\xFE6(\\x00\\xFA̴F\\x00Mn\\xF3a\\xE3\\x0Ey\\x9C\\xDE\\x00\\xE8!A\\x81#\\xA3\\x8F\\x0BU\\xEB\\x92j;\\xBA|4\\xA4\\x10\\xA0\\xF2)\\x0E\\x82\\xA9\\x92֛8\\xA0\\xA1k\\x1C\\xFD\\xEC\\xDF3g\\x9A\\xEE\\xA46\\xA7\\xEAj\\r\\xC1\\x00\\x11\\x01\\x00\\x01\\x00\\x07\\xFFeo}\\xFAu\\xA0\\x02\\x85'\\xA1\\xD8\\xF1%5pS\\xC97CH\\x8E'{$\\x1Et\\xE9HS\\x94@\\xD7\\x00<\\x14=\\xD1\\x03\\x93\\x1C?3b\\xE5\\xD7\\x92\\x98(=<\\x9A\\x04\\\\M\\xB7\\xECZ\\xA9F\\xD454\\xFD\\xDE\\xE9\\xAAU\\xF8\\xB0Ն\\xF8\\x04 S.\\x03W\\xF4]\\x06\\xBEtJ\\xB5\\x04\\xF6\\x8Fw\\xD9~\\x93\\xB5SǊT\\x0C\\xE3\\xC0\\xD1\\xCDH\\xDC\\xD7OQ\\xF3\\x83&\\xEAo\\xBF\\xFE\\xA4\\xA0\\xFE\\xC6\\x0B\\xAF\\x15s\\xA0J\\xFA\\xF9\\x00b\\xA0w\\xA5ky\\xB8!\\xE8#\\xE9\\xD5\\xA9\\xCC\\xD0\\xE9k\\x9B\\xD3\\x1A\\xE0'~\\xE9\\xC2\\xFF\\x1B\\x1C\\xF8@\\\\n\\x98\\xE7W%\\x8D\\xF3\"\\xD7g\\xC4\\xEF\\x17+\\xCA\\xD7\\xB0\\xAF\\xE8\\xA1\\xE6VL\\x96n\\xDDxA\\xEC\\xD9\\x0F\\\\1;M\\x89m\\x8F\\xC0\\xE3N\\x95\\xCCvz\\xD8\\xCCQ\\xF9\\xA5\\xD3U\\x85\\xA7KF\\xF0\\x96p\\x13\\x9D+\\xDB\\x1F\\xB3|\\x19\\xABmڮ\\x04\\x91\\xC0'@n\\x89\\xB3?\\x8F\\xE3\\x15\\x8C\\xE1$H\\xE3c\\x9A\\xE5\\xF2,\\x03sX\\x7F=\\x04\\x00\\xCEz2\\xBEv\\\\B讁\\xBC\\xB8S\\xCD)4\\xCA\\xF8fb\\xFF\\xFA\\x87{i[\\x9C\\xAA\\xBF\\xA3\\xB8\\xA2\\x0B\\xBF\\x1B\\x16\\x81s\\x18\\xEE\\x9B\\xDD\\xE0\\xFB\\xF7>b\\xEC\\x8C\\xEA\\xD0T\\x16B\\xF2\\xC8\\xF0\\xA5\\xDC\\x9C\\x11Iz\\xA9R\\x81\\x1CB-|\\x91\\xFF&8#\\x9AL\\x90\\xBF\\x14\\xA1\\xDET)3\\tAjjB\"%\\x8D\\xD4ZGN\\xD0\\xFE\\xBF\\xE3\\xFD)\\xA2\\x92I׮\\xC0#8\\x1F\\xC7+Z\\x8BG\\xDB\\nc\\x08R#'\\x08\\xD5\\x07\\x03\\x04\\x00\\xF92\\xA7~'\\xFA\\x9F\\x11\\x91!\\xB3׭\\xEA\\x93\"\\xA8T5 \\xE1\\xFF\\x0F\\xFA\\xE3\\xF8X?\\tC\\x9F\\x9F\\xCDG\\x10\\xA4\\x85\\xBBl\\xA3\\x17\\x8B\\x13\\x8A\\xEBM\\xB8\\r\\xF64\\x12\\xCF\\x14R\\xDB\\x1C\\x90Xj%\\xA2\\xDF\\ntH\\xD7\\xC3\\x88ﳭ\\x88m/Aj\\xB01\\xCE\\xE7v\\xE5\\xE1FE\\xFD_\\xFD\\n\\xB2\\\\\\x98\\xF0\\xAB\\x0B%\\xC2\\xC2U*\\xC0Rm\\xCB\\xC4\\x87\\xB7\\xAB\\xF2\\xB2@\\x0F[,?l\\xFF\\xEC1\\xAB\\xC5O\\x1C\\xB1\\x98\\x07\\x8A\\xEB\\x04\\x00\\xC8+A\\xE6\\x8Ei\\xBA\\x83f\\xBD\"\\xE1G[\\x05\\xBE-\\xDE\\x16|\\x11\\x9CĬ\\xEF\\xE8z;\\xA7\\x1F\\xCF\\xFE,C\\xEAD\\xC2\\xF7\\xCD/\\xFA\\xAF\\xC6\\xFA)\\xA0\\xEF,G\\\\\\x91\\n\\xE7Z\\x9A\\xB1\\xFE\\xCCD\\xC2X#\\xC5\\x00b\\xC7\\x00\\xA5\\x87\\xF0:\\xEC\\xBA\\xE8\\xC9h`\\xA1|~\\x07\\xE5\\r\\x11\\xAC\\x1D\\x1F\\x9D\\xDB\\xF3\\x90Oa\\xCA,\\x12\\x1D\\x1El\\x08Z\\x0F\\xC5L|\\xF8%WV\\xF2\\xCB\\x03\\xFC\\x97\\x1Cô\\x15\\xAF\\x1D\\x02{<\\tz\\xF0\\xC2fD\\xA8\\xC2\\xC2<\\x04\\x18\\x01\\n\\x01\\xF0\\x05\\x82c\\xA1\\xE01\\t\\x10\\xF2.\\xE50\\xABo\\xFF\\x9AG\\x14\\x00\\x00\\x00\\x00\\x00\\x1E\\x00 salt@notations.sequoia-pgp.org\\xA8W0-\\xD9h^\\x1E\\xA2\\x069\\x13\\x9FW6\\x02\\x9Cܘ\\x98(\\xA8\\xA6\\x95\\xF7CX\\xDF\\xD3xH\\xA4\\x02\\x9B\\x02\\xC0\\xBC\\xA0\\x04\\x19\\x01\\n\\x00o\\x05\\x82c\\xA1\\xE01\\t\\x10(fQ\\x0F\\xA6\\xB2\\xB0iG\\x14\\x00\\x00\\x00\\x00\\x00\\x1E\\x00 salt@notations.sequoia-pgp.org\\x8A\\xAFQ\\xB4\\xA3\\x13XWfǍ3\\x1Bw\\xCB\\xFC3\\xC8;\\xD9\\x17\\xFC2\\x9F\\xBF\\xBD\\xB1\\x19ҩ.\\x16\\x16!\\x04u\\xF7\\x99X\\x88Ǹ\\xF3I\\xF61e(fQ\\x0F\\xA6\\xB2\\xB0i\\x00\\x00c\\x84\\x07\\xFFn\\xE6F\\xA7ѵs\\x89\\xED\\xF1\\x07\\xECo\\xF0G\\xB8(\\x92\\x8F'폪\\xB9\\x86:\\xE0\\r\\x07\\xBE\\x96\\x08Φ\\xE3\\xEC\\x9Cl\\x8D\\x19\\t:<~z\\xAD\\xB3\\x92\\xC0\\xCA\\xC4\\xA7\\x8D\\xFC\\x0E\\xD8\\x12\\xFE\\xBA+\\xA9\\x86¬EbOt\\xA4/\\xB9\\x99I(6\\xA7\\xFF\\xE4\\x06g\\xFA\\xE0\\xE8\\x0FM\\x86\\x08 \\xB9\\xA7\\x96\\xFCC \\xA8\\x03\\xABܷ6D\\x11\\xB4\\x8C\\x9D\\xFF\\x8B\\r-\\xF01l\\x00\\xD0 \\x07|zEi\\x97\\xF1b29\\xB4\\x03\\xA5\\xA3\\x03`̊\\xA6\\x95y\\xCE\\x1D\\xAB8\\xD7\\x12\\xFE\\x92gr9\\xE3\\xAE\\x1C\\xE6'\\x19\\xAD0\\x06\\x14\\xF3\\tVΔ\\x1F\\x8Bf\\xB5\\xB6\\xDAa\\xCE\\x7F\\xB8\\xC8[)\\x9D\\x19\\xCC\\xE6\\xE4\\xB2\\r\\xD3\\x0B\\x83\\xC9~\\xD6xҾ\\xCA\\xD9\\x92\\x0F\\n\\xCD?\\x83\\xBD\\xAF\\x16\\xD0J\\xB1\\xDE\\xC9\\x08\\xDD\\xDE\\xEF\\xEE\\x9B\\x92tҏ\\x84Ot\\t\\x9A\\xA7h\\x01GZ\\xF3R\\xED\\x99\\x07Mp\\x9DR5 &\\x01\\x13\\x94\\x99jҊ\\xE3\\xEC\\xA2\\x03i\\x86\\x17\\x80\\xFF-\\x16!\\x04d\\xA9?k\\xAD\\x08\\xF8\\xBE~\\xF1$K\\xF2.\\xE50\\xABo\\xFF\\x9A\\x00\\x00@E\\x08\\x00\\x8C\\xE9Y_\\xE3\\t#\\xBD&X3E\\xAC\\xC7iX\\x88\\xEC\\xD5\\xF3\\x84A\\x05\\xCF1\\x03B\\xC2\\x0C\\xD3\\xE3@2ȇM\\x0B\\x12\\x9B6\\x84\\xDA\\x10j\\xD1G\\x994\\xAE@\\xE9\\xD4\\xD8$ۍ=\\x83g\\xBB\\x98\\x0F\\x066%0Rnðtu\\xEB\\xF7\\x18_|G\\xB94\\x13\\x8FV\\xA5,\\x99T\\xEED\\x8Dj\\xBF\\x1A)j\\xD7n0Ye\\xBD\\xA0M\\x04\\xD8[iD\\xA6\\x07\\x9A\\x8A!.\\xF5\\xF7W\\xA5X9\\x1D'\\xC6I\\x9A\\xAC\\xAA_׊\\x15\\xF5\\xDFj\\x87s{\\xAC\\x0C&=\\xB1\\x1D\\xE7aJ\\xF7\\xE1q4?\\x168\\xE6j\\x13CYn\\x8D\\x8B\\xDB5)\\xEE\\xF0\\x05_}泣\\xEC\\x80\\xE5\\xBD\\x06\\xC8\\xFB\\x86\\xF5\\xE7\\xC4%:Ӊ\\xB4G\\x92~\\xE3\\xDC$\\xD7t\\xDBb\"\\xFE|\\xEE\\x82\"\\xBE\\x8B\\xA5\\xA1\\xA7!\\x89\\xAA\\x1Bf\\x13\\xED\\x18\\x8C\\xEE;)\\n9\\xC3\\x7F\\xB7%\\x98\\xF7\\xE9\\x1B\\xC2R\\xF2\\xAF\\xDF\\xF1\\x0E\\x86c\\xDD\\tM\\x17\\xC8\\xFE\\xB4\\x9E?\\x0C\\x07kI,\\x045",
    "sig": "\\xC2\\xC0\\xBB\\x04\\x00\\x01\\n\\x00o\\x05\\x82c\\xA1\\xE01\\t\\x10(fQ\\x0F\\xA6\\xB2\\xB0iG\\x14\\x00\\x00\\x00\\x00\\x00\\x1E\\x00 salt@notations.sequoia-pgp.org\\x04D1(\\xE9\\xFE\\xC0։\\xA6\\x95\\xF3\\x06\\x0C\\x8F\\x9F\\x98y9޺Y~\\xC6\\xD5\\xDC\\x1E\\xCD&\\x9BL\\x7F\\x16!\\x04u\\xF7\\x99X\\x88Ǹ\\xF3I\\xF61e(fQ\\x0F\\xA6\\xB2\\xB0i\\x00\\x00\\xE1\\x16\\x08\\x00\\xA2Q85\\x0C\\xBE\\x84Q\\xA1FLM\\x15\\rB\\x8F\\x8EH{ۡw/\\x9Aū\\xF1\\xF8\\x12P\\xA6S/\\xAB\\xAA\\xFAJ\\x01\\x1E\\xFEmO(d\\x05\\x1A\\xD5y\\x85\\x04\\x92\\xB2\\xD1\\x1Dm\\x18\\x19=\\xE5\\x1C\\xB7f\\xE56\\xE6\\x80?\\xE54\\xD7d\\xB1k\\x8965\\x00E\\xFC\\x8B\\x9F\\xC0x\\xAE\\x08\\xAA\\x9F\\x04\\xFC9\\xF6\\xF6\\xD3yG5\\x10\\x80\\x97\\x17\\xF1\\xFE\\x12範9M\\t\\x8F\\xCAK`\\x90\\xDA\\xD0|\\xB3\\xBB\\x12s͏\\x16wGM\\xFB\\x90\\xF9N\\xE0\\xA5\\xFBM\\x8Am\\x1B\\xDCBJ\\xA8U\\x18\\x92\\x84\\xFB]\"f\\xDB\\xC8>k\\xD4\\xF7\\xD6\\x7Fo\\xFA!P\\x01\\xB0\\x05-pvD\\x9A\\xDE\\x061\\xB5\\xE8\\x9D\\xE5\\xFC[\\xFFS\\x003\\xAD\\x8A\\x8EB\\x98\\xDC\\t\\xEF\\x8D$02\\xDB_6\\xC4\\x0F\\x03$\\xFE\\xA7\\xE6]\\x9C\\xF9wc\\x87W\\x82\\x9Dt\\xE5\\xE8q\\x8C>\\xF3\\xC4\\xF4v\\xA6\\x1D\\xAE\\xF1\\xAF\\xFF\\xB3n<\\x17~קf\\x92O~\\x97\\x90\\xE4C\\x821\\xA1\\xD7F\\xF2\\xF1S\\x11\\xE8]"
  },
  "dynamic_upper_bounds": [
    [
      0,
      86,
      0
    ],
    [
      0,
      6,
      0
    ],
    [
      0,
      6,
      0
    ],
    [
      0,
      6,
      0
    ],
    [
      0,
      6,
      0
    ],
    [
      0,
      0,
      0
    ],
    [
      0,
      6,
      0
    ],
    [
      0,
      6,
      0
    ],
    [
      0,
      6,
      0
    ],
    [
      0,
      6,
      67
    ]
  ]
}