{
  "outputs": [
    {
      "args": [
        "\"--faked-system-time=1671553073!\"",
        "\"--list-keys\""
      ],
      "stderr": "gpg: WARNING: unsafe permissions on homedir '/HOMEDIR'\\ngpg: WARNING: running with faked system time: 2022-12-20 16:17:53\\ngpg: keybox '/HOMEDIR/pubring.kbx' created\\ngpg: /HOMEDIR/trustdb.gpg: trustdb created\\n",
      "stdout": "",
      "statusfd": "",
      "status": "exit status: 0",
      "files": {}
    },
    {
      "args": [
        "\"--faked-system-time=1671553073!\"",
        "\"--decrypt\"",
        "\"/EXPERIMENT/ciphertext\""
      ],
      "stderr": "gpg: WARNING: unsafe permissions on homedir '/HOMEDIR'\\ngpg: WARNING: running with faked system time: 2022-12-20 16:17:53\\ngpg: encrypted with ECDH key, ID 79DE085C13FFBEE8\\ngpg: decryption failed: No secret key\\n",
      "stdout": "",
      "statusfd": "[GNUPG:] ENC_TO 79DE085C13FFBEE8 18 0\\n[GNUPG:] NO_SECKEY 79DE085C13FFBEE8\\n[GNUPG:] BEGIN_DECRYPTION\\n[GNUPG:] DECRYPTION_FAILED\\n[GNUPG:] END_DECRYPTION\\n",
      "status": "exit status: 2",
      "files": {}
    },
    {
      "args": [
        "\"--faked-system-time=1671553073!\"",
        "\"--decrypt\"",
        "\"--verbose\"",
        "\"/EXPERIMENT/ciphertext\""
      ],
      "stderr": "gpg: WARNING: unsafe permissions on homedir '/HOMEDIR'\\ngpg: WARNING: running with faked system time: 2022-12-20 16:17:53\\ngpg: public key is 79DE085C13FFBEE8\\ngpg: encrypted with ECDH key, ID 79DE085C13FFBEE8\\ngpg: decryption failed: No secret key\\n",
      "stdout": "",
      "statusfd": "[GNUPG:] ENC_TO 79DE085C13FFBEE8 18 0\\n[GNUPG:] NO_SECKEY 79DE085C13FFBEE8\\n[GNUPG:] BEGIN_DECRYPTION\\n[GNUPG:] DECRYPTION_FAILED\\n[GNUPG:] END_DECRYPTION\\n",
      "status": "exit status: 2",
      "files": {}
    },
    {
      "args": [
        "\"--faked-system-time=1671553073!\"",
        "\"--decrypt\"",
        "\"--list-only\"",
        "\"/EXPERIMENT/ciphertext\""
      ],
      "stderr": "gpg: WARNING: unsafe permissions on homedir '/HOMEDIR'\\ngpg: WARNING: running with faked system time: 2022-12-20 16:17:53\\ngpg: encrypted with ECDH key, ID 79DE085C13FFBEE8\\n",
      "stdout": "",
      "statusfd": "[GNUPG:] ENC_TO 79DE085C13FFBEE8 18 0\\n[GNUPG:] NO_SECKEY 79DE085C13FFBEE8\\n[GNUPG:] BEGIN_DECRYPTION\\n[GNUPG:] END_DECRYPTION\\n",
      "status": "exit status: 0",
      "files": {}
    },
    {
      "args": [
        "\"--faked-system-time=1671553073!\"",
        "\"--decrypt\"",
        "\"--list-only\"",
        "\"--verbose\"",
        "\"/EXPERIMENT/ciphertext\""
      ],
      "stderr": "gpg: WARNING: unsafe permissions on homedir '/HOMEDIR'\\ngpg: WARNING: running with faked system time: 2022-12-20 16:17:53\\ngpg: public key is 79DE085C13FFBEE8\\ngpg: encrypted with ECDH key, ID 79DE085C13FFBEE8\\n",
      "stdout": "",
      "statusfd": "[GNUPG:] ENC_TO 79DE085C13FFBEE8 18 0\\n[GNUPG:] NO_SECKEY 79DE085C13FFBEE8\\n[GNUPG:] BEGIN_DECRYPTION\\n[GNUPG:] END_DECRYPTION\\n",
      "status": "exit status: 0",
      "files": {}
    },
    {
      "args": [
        "\"--faked-system-time=1671553073!\"",
        "\"--import\"",
        "\"/EXPERIMENT/cert\""
      ],
      "stderr": "gpg: WARNING: unsafe permissions on homedir '/HOMEDIR'\\ngpg: WARNING: running with faked system time: 2022-12-20 16:17:53\\ngpg: key 3BC5877C53B0F4F6: public key \"Alice Lovelace <alice@lovelace.name>\" imported\\ngpg: Total number processed: 1\\ngpg:               imported: 1\\n",
      "stdout": "",
      "statusfd": "[GNUPG:] KEY_CONSIDERED EE63853A64FB2934E127DD1E3BC5877C53B0F4F6 0\\n[GNUPG:] IMPORTED 3BC5877C53B0F4F6 Alice Lovelace <alice@lovelace.name>\\n[GNUPG:] IMPORT_OK 1 EE63853A64FB2934E127DD1E3BC5877C53B0F4F6\\n[GNUPG:] IMPORT_RES 1 0 1 0 0 0 0 0 0 0 0 0 0 0 0\\n",
      "status": "exit status: 0",
      "files": {}
    },
    {
      "args": [
        "\"--faked-system-time=1671553073!\"",
        "\"--decrypt\"",
        "\"/EXPERIMENT/ciphertext\""
      ],
      "stderr": "gpg: WARNING: unsafe permissions on homedir '/HOMEDIR'\\ngpg: WARNING: running with faked system time: 2022-12-20 16:17:53\\ngpg: encrypted with 255-bit ECDH key, ID 79DE085C13FFBEE8, created 2022-12-20\\n      \"Alice Lovelace <alice@lovelace.name>\"\\ngpg: decryption failed: No secret key\\n",
      "stdout": "",
      "statusfd": "[GNUPG:] ENC_TO 79DE085C13FFBEE8 18 0\\n[GNUPG:] KEY_CONSIDERED EE63853A64FB2934E127DD1E3BC5877C53B0F4F6 0\\n[GNUPG:] NO_SECKEY 79DE085C13FFBEE8\\n[GNUPG:] BEGIN_DECRYPTION\\n[GNUPG:] DECRYPTION_FAILED\\n[GNUPG:] END_DECRYPTION\\n",
      "status": "exit status: 2",
      "files": {}
    },
    {
      "args": [
        "\"--faked-system-time=1671553073!\"",
        "\"--decrypt\"",
        "\"--verbose\"",
        "\"/EXPERIMENT/ciphertext\""
      ],
      "stderr": "gpg: WARNING: unsafe permissions on homedir '/HOMEDIR'\\ngpg: WARNING: running with faked system time: 2022-12-20 16:17:53\\ngpg: public key is 79DE085C13FFBEE8\\ngpg: connection to agent is in restricted mode\\ngpg: using subkey 79DE085C13FFBEE8 instead of primary key 3BC5877C53B0F4F6\\ngpg: encrypted with 255-bit ECDH key, ID 79DE085C13FFBEE8, created 2022-12-20\\n      \"Alice Lovelace <alice@lovelace.name>\"\\ngpg: decryption failed: No secret key\\n",
      "stdout": "",
      "statusfd": "[GNUPG:] ENC_TO 79DE085C13FFBEE8 18 0\\n[GNUPG:] KEY_CONSIDERED EE63853A64FB2934E127DD1E3BC5877C53B0F4F6 0\\n[GNUPG:] NO_SECKEY 79DE085C13FFBEE8\\n[GNUPG:] BEGIN_DECRYPTION\\n[GNUPG:] DECRYPTION_FAILED\\n[GNUPG:] END_DECRYPTION\\n",
      "status": "exit status: 2",
      "files": {}
    },
    {
      "args": [
        "\"--faked-system-time=1671553073!\"",
        "\"--decrypt\"",
        "\"--list-only\"",
        "\"/EXPERIMENT/ciphertext\""
      ],
      "stderr": "gpg: WARNING: unsafe permissions on homedir '/HOMEDIR'\\ngpg: WARNING: running with faked system time: 2022-12-20 16:17:53\\ngpg: encrypted with 255-bit ECDH key, ID 79DE085C13FFBEE8, created 2022-12-20\\n      \"Alice Lovelace <alice@lovelace.name>\"\\n",
      "stdout": "",
      "statusfd": "[GNUPG:] ENC_TO 79DE085C13FFBEE8 18 0\\n[GNUPG:] KEY_CONSIDERED EE63853A64FB2934E127DD1E3BC5877C53B0F4F6 0\\n[GNUPG:] NO_SECKEY 79DE085C13FFBEE8\\n[GNUPG:] BEGIN_DECRYPTION\\n[GNUPG:] END_DECRYPTION\\n",
      "status": "exit status: 0",
      "files": {}
    },
    {
      "args": [
        "\"--faked-system-time=1671553073!\"",
        "\"--decrypt\"",
        "\"--list-only\"",
        "\"--verbose\"",
        "\"/EXPERIMENT/ciphertext\""
      ],
      "stderr": "gpg: WARNING: unsafe permissions on homedir '/HOMEDIR'\\ngpg: WARNING: running with faked system time: 2022-12-20 16:17:53\\ngpg: public key is 79DE085C13FFBEE8\\ngpg: connection to agent is in restricted mode\\ngpg: using subkey 79DE085C13FFBEE8 instead of primary key 3BC5877C53B0F4F6\\ngpg: encrypted with 255-bit ECDH key, ID 79DE085C13FFBEE8, created 2022-12-20\\n      \"Alice Lovelace <alice@lovelace.name>\"\\n",
      "stdout": "",
      "statusfd": "[GNUPG:] ENC_TO 79DE085C13FFBEE8 18 0\\n[GNUPG:] KEY_CONSIDERED EE63853A64FB2934E127DD1E3BC5877C53B0F4F6 0\\n[GNUPG:] NO_SECKEY 79DE085C13FFBEE8\\n[GNUPG:] BEGIN_DECRYPTION\\n[GNUPG:] END_DECRYPTION\\n",
      "status": "exit status: 0",
      "files": {}
    },
    {
      "args": [
        "\"--faked-system-time=1671553073!\"",
        "\"--import\"",
        "\"/EXPERIMENT/key\""
      ],
      "stderr": "gpg: WARNING: unsafe permissions on homedir '/HOMEDIR'\\ngpg: WARNING: running with faked system time: 2022-12-20 16:17:53\\ngpg: key 3BC5877C53B0F4F6: \"Alice Lovelace <alice@lovelace.name>\" not changed\\ngpg: key 3BC5877C53B0F4F6: secret key imported\\ngpg: Total number processed: 1\\ngpg:              unchanged: 1\\ngpg:       secret keys read: 1\\ngpg:   secret keys imported: 1\\n",
      "stdout": "",
      "statusfd": "[GNUPG:] IMPORT_OK 0 EE63853A64FB2934E127DD1E3BC5877C53B0F4F6\\n[GNUPG:] KEY_CONSIDERED EE63853A64FB2934E127DD1E3BC5877C53B0F4F6 0\\n[GNUPG:] KEY_CONSIDERED EE63853A64FB2934E127DD1E3BC5877C53B0F4F6 0\\n[GNUPG:] IMPORT_OK 17 EE63853A64FB2934E127DD1E3BC5877C53B0F4F6\\n[GNUPG:] IMPORT_RES 1 0 0 0 1 0 0 0 0 1 1 0 0 0 0\\n",
      "status": "exit status: 0",
      "files": {}
    },
    {
      "args": [
        "\"--faked-system-time=1671553073!\"",
        "\"--decrypt\"",
        "\"--output\"",
        "\"decrypted-plaintext\"",
        "\"/EXPERIMENT/ciphertext\""
      ],
      "stderr": "gpg: WARNING: unsafe permissions on homedir '/HOMEDIR'\\ngpg: WARNING: running with faked system time: 2022-12-20 16:17:53\\ngpg: encrypted with 255-bit ECDH key, ID 79DE085C13FFBEE8, created 2022-12-20\\n      \"Alice Lovelace <alice@lovelace.name>\"\\n",
      "stdout": "",
      "statusfd": "[GNUPG:] ENC_TO 79DE085C13FFBEE8 18 0\\n[GNUPG:] KEY_CONSIDERED EE63853A64FB2934E127DD1E3BC5877C53B0F4F6 0\\n[GNUPG:] KEY_CONSIDERED EE63853A64FB2934E127DD1E3BC5877C53B0F4F6 0\\n[GNUPG:] DECRYPTION_KEY 7450AB307AFF6B637A1D955479DE085C13FFBEE8 EE63853A64FB2934E127DD1E3BC5877C53B0F4F6 -\\n[GNUPG:] KEY_CONSIDERED EE63853A64FB2934E127DD1E3BC5877C53B0F4F6 0\\n[GNUPG:] BEGIN_DECRYPTION\\n[GNUPG:] DECRYPTION_INFO 2 9 0\\n[GNUPG:] PLAINTEXT 62 0 \\n[GNUPG:] PLAINTEXT_LENGTH 9\\n[GNUPG:] DECRYPTION_OKAY\\n[GNUPG:] GOODMDC\\n[GNUPG:] END_DECRYPTION\\n",
      "status": "exit status: 0",
      "files": {
        "decrypted-plaintext": "plaintext"
      }
    },
    {
      "args": [
        "\"--faked-system-time=1671553073!\"",
        "\"--decrypt\"",
        "\"--output\"",
        "\"decrypted-plaintext\"",
        "\"--verbose\"",
        "\"/EXPERIMENT/ciphertext\""
      ],
      "stderr": "gpg: WARNING: unsafe permissions on homedir '/HOMEDIR'\\ngpg: WARNING: running with faked system time: 2022-12-20 16:17:53\\ngpg: public key is 79DE085C13FFBEE8\\ngpg: connection to agent is in restricted mode\\ngpg: using subkey 79DE085C13FFBEE8 instead of primary key 3BC5877C53B0F4F6\\ngpg: using pgp trust model\\ngpg: using subkey 79DE085C13FFBEE8 instead of primary key 3BC5877C53B0F4F6\\ngpg: encrypted with 255-bit ECDH key, ID 79DE085C13FFBEE8, created 2022-12-20\\n      \"Alice Lovelace <alice@lovelace.name>\"\\ngpg: AES256 encrypted data\\ngpg: original file name=''\\n",
      "stdout": "",
      "statusfd": "[GNUPG:] ENC_TO 79DE085C13FFBEE8 18 0\\n[GNUPG:] KEY_CONSIDERED EE63853A64FB2934E127DD1E3BC5877C53B0F4F6 0\\n[GNUPG:] KEY_CONSIDERED EE63853A64FB2934E127DD1E3BC5877C53B0F4F6 0\\n[GNUPG:] DECRYPTION_KEY 7450AB307AFF6B637A1D955479DE085C13FFBEE8 EE63853A64FB2934E127DD1E3BC5877C53B0F4F6 -\\n[GNUPG:] KEY_CONSIDERED EE63853A64FB2934E127DD1E3BC5877C53B0F4F6 0\\n[GNUPG:] BEGIN_DECRYPTION\\n[GNUPG:] DECRYPTION_INFO 2 9 0\\n[GNUPG:] PLAINTEXT 62 0 \\n[GNUPG:] PLAINTEXT_LENGTH 9\\n[GNUPG:] DECRYPTION_OKAY\\n[GNUPG:] GOODMDC\\n[GNUPG:] END_DECRYPTION\\n",
      "status": "exit status: 0",
      "files": {
        "decrypted-plaintext": "plaintext"
      }
    },
    {
      "args": [
        "\"--faked-system-time=1671553073!\"",
        "\"--decrypt\"",
        "\"--list-only\"",
        "\"--output\"",
        "\"nothing\"",
        "\"/EXPERIMENT/ciphertext\""
      ],
      "stderr": "gpg: WARNING: unsafe permissions on homedir '/HOMEDIR'\\ngpg: WARNING: running with faked system time: 2022-12-20 16:17:53\\ngpg: encrypted with 255-bit ECDH key, ID 79DE085C13FFBEE8, created 2022-12-20\\n      \"Alice Lovelace <alice@lovelace.name>\"\\n",
      "stdout": "",
      "statusfd": "[GNUPG:] ENC_TO 79DE085C13FFBEE8 18 0\\n[GNUPG:] KEY_CONSIDERED EE63853A64FB2934E127DD1E3BC5877C53B0F4F6 0\\n[GNUPG:] BEGIN_DECRYPTION\\n[GNUPG:] END_DECRYPTION\\n",
      "status": "exit status: 0",
      "files": {}
    },
    {
      "args": [
        "\"--faked-system-time=1671553073!\"",
        "\"--decrypt\"",
        "\"--list-only\"",
        "\"--output\"",
        "\"nothing\"",
        "\"--verbose\"",
        "\"/EXPERIMENT/ciphertext\""
      ],
      "stderr": "gpg: WARNING: unsafe permissions on homedir '/HOMEDIR'\\ngpg: WARNING: running with faked system time: 2022-12-20 16:17:53\\ngpg: public key is 79DE085C13FFBEE8\\ngpg: connection to agent is in restricted mode\\ngpg: using subkey 79DE085C13FFBEE8 instead of primary key 3BC5877C53B0F4F6\\ngpg: encrypted with 255-bit ECDH key, ID 79DE085C13FFBEE8, created 2022-12-20\\n      \"Alice Lovelace <alice@lovelace.name>\"\\n",
      "stdout": "",
      "statusfd": "[GNUPG:] ENC_TO 79DE085C13FFBEE8 18 0\\n[GNUPG:] KEY_CONSIDERED EE63853A64FB2934E127DD1E3BC5877C53B0F4F6 0\\n[GNUPG:] BEGIN_DECRYPTION\\n[GNUPG:] END_DECRYPTION\\n",
      "status": "exit status: 0",
      "files": {}
    }
  ],
  "former_us_outputs": [
    {
      "args": [
        "\"--faked-system-time=1671553073!\"",
        "\"--list-keys\""
      ],
      "stderr": "gpg: WARNING: unsafe permissions on homedir '/HOMEDIR'\\ngpg: WARNING: running with faked system time: 2022-12-20 16:17:53\\n",
      "stdout": "",
      "statusfd": "",
      "status": "exit status: 0",
      "files": {}
    },
    {
      "args": [
        "\"--faked-system-time=1671553073!\"",
        "\"--decrypt\"",
        "\"/EXPERIMENT/ciphertext\""
      ],
      "stderr": "gpg: WARNING: unsafe permissions on homedir '/HOMEDIR'\\ngpg: WARNING: running with faked system time: 2022-12-20 16:17:53\\ngpg: encrypted with ECDH key, ID 79DE085C13FFBEE8\\ngpg: decryption failed: No secret key\\n",
      "stdout": "",
      "statusfd": "[GNUPG:] ENC_TO 79DE085C13FFBEE8 18 0\\n[GNUPG:] NO_SECKEY 79DE085C13FFBEE8\\n[GNUPG:] BEGIN_DECRYPTION\\n[GNUPG:] DECRYPTION_FAILED\\n[GNUPG:] END_DECRYPTION\\n",
      "status": "exit status: 2",
      "files": {}
    },
    {
      "args": [
        "\"--faked-system-time=1671553073!\"",
        "\"--decrypt\"",
        "\"--verbose\"",
        "\"/EXPERIMENT/ciphertext\""
      ],
      "stderr": "gpg: WARNING: unsafe permissions on homedir '/HOMEDIR'\\ngpg: WARNING: running with faked system time: 2022-12-20 16:17:53\\ngpg: public key is 79DE085C13FFBEE8\\ngpg: encrypted with ECDH key, ID 79DE085C13FFBEE8\\ngpg: decryption failed: No secret key\\n",
      "stdout": "",
      "statusfd": "[GNUPG:] ENC_TO 79DE085C13FFBEE8 18 0\\n[GNUPG:] NO_SECKEY 79DE085C13FFBEE8\\n[GNUPG:] BEGIN_DECRYPTION\\n[GNUPG:] DECRYPTION_FAILED\\n[GNUPG:] END_DECRYPTION\\n",
      "status": "exit status: 2",
      "files": {}
    },
    {
      "args": [
        "\"--faked-system-time=1671553073!\"",
        "\"--decrypt\"",
        "\"--list-only\"",
        "\"/EXPERIMENT/ciphertext\""
      ],
      "stderr": "gpg: WARNING: unsafe permissions on homedir '/HOMEDIR'\\ngpg: WARNING: running with faked system time: 2022-12-20 16:17:53\\ngpg: encrypted with ECDH key, ID 79DE085C13FFBEE8\\n",
      "stdout": "",
      "statusfd": "[GNUPG:] ENC_TO 79DE085C13FFBEE8 18 0\\n[GNUPG:] NO_SECKEY 79DE085C13FFBEE8\\n[GNUPG:] BEGIN_DECRYPTION\\n[GNUPG:] END_DECRYPTION\\n",
      "status": "exit status: 0",
      "files": {}
    },
    {
      "args": [
        "\"--faked-system-time=1671553073!\"",
        "\"--decrypt\"",
        "\"--list-only\"",
        "\"--verbose\"",
        "\"/EXPERIMENT/ciphertext\""
      ],
      "stderr": "gpg: WARNING: unsafe permissions on homedir '/HOMEDIR'\\ngpg: WARNING: running with faked system time: 2022-12-20 16:17:53\\ngpg: public key is 79DE085C13FFBEE8\\ngpg: encrypted with ECDH key, ID 79DE085C13FFBEE8\\n",
      "stdout": "",
      "statusfd": "[GNUPG:] ENC_TO 79DE085C13FFBEE8 18 0\\n[GNUPG:] NO_SECKEY 79DE085C13FFBEE8\\n[GNUPG:] BEGIN_DECRYPTION\\n[GNUPG:] END_DECRYPTION\\n",
      "status": "exit status: 0",
      "files": {}
    },
    {
      "args": [
        "\"--faked-system-time=1671553073!\"",
        "\"--import\"",
        "\"/EXPERIMENT/cert\""
      ],
      "stderr": "gpg: WARNING: unsafe permissions on homedir '/HOMEDIR'\\ngpg: WARNING: running with faked system time: 2022-12-20 16:17:53\\ngpg: key 3BC5877C53B0F4F6: public key \"Alice Lovelace <alice@lovelace.name>\" imported\\ngpg: Total number processed: 1\\ngpg:               imported: 1\\n",
      "stdout": "",
      "statusfd": "[GNUPG:] KEY_CONSIDERED EE63853A64FB2934E127DD1E3BC5877C53B0F4F6 0\\n[GNUPG:] IMPORTED 3BC5877C53B0F4F6 Alice Lovelace <alice@lovelace.name>\\n[GNUPG:] IMPORT_OK 1 EE63853A64FB2934E127DD1E3BC5877C53B0F4F6\\n[GNUPG:] IMPORT_RES 1 0 1 0 0 0 0 0 0 0 0 0 0 0 0\\n",
      "status": "exit status: 0",
      "files": {}
    },
    {
      "args": [
        "\"--faked-system-time=1671553073!\"",
        "\"--decrypt\"",
        "\"/EXPERIMENT/ciphertext\""
      ],
      "stderr": "gpg: WARNING: unsafe permissions on homedir '/HOMEDIR'\\ngpg: WARNING: running with faked system time: 2022-12-20 16:17:53\\ngpg: encrypted with 256-bit ECDH key, ID 79DE085C13FFBEE8, created 2022-12-20\\n      \"Alice Lovelace <alice@lovelace.name>\"\\ngpg: decryption failed: No secret key\\n",
      "stdout": "",
      "statusfd": "[GNUPG:] ENC_TO 79DE085C13FFBEE8 18 0\\n[GNUPG:] KEY_CONSIDERED EE63853A64FB2934E127DD1E3BC5877C53B0F4F6 0\\n[GNUPG:] NO_SECKEY 79DE085C13FFBEE8\\n[GNUPG:] BEGIN_DECRYPTION\\n[GNUPG:] DECRYPTION_FAILED\\n[GNUPG:] END_DECRYPTION\\n",
      "status": "exit status: 2",
      "files": {}
    },
    {
      "args": [
        "\"--faked-system-time=1671553073!\"",
        "\"--decrypt\"",
        "\"--verbose\"",
        "\"/EXPERIMENT/ciphertext\""
      ],
      "stderr": "gpg: WARNING: unsafe permissions on homedir '/HOMEDIR'\\ngpg: WARNING: running with faked system time: 2022-12-20 16:17:53\\ngpg: public key is 79DE085C13FFBEE8\\ngpg: connection to agent is in restricted mode\\ngpg: using subkey 79DE085C13FFBEE8 instead of primary key 3BC5877C53B0F4F6\\ngpg: encrypted with 256-bit ECDH key, ID 79DE085C13FFBEE8, created 2022-12-20\\n      \"Alice Lovelace <alice@lovelace.name>\"\\ngpg: decryption failed: No secret key\\n",
      "stdout": "",
      "statusfd": "[GNUPG:] ENC_TO 79DE085C13FFBEE8 18 0\\n[GNUPG:] KEY_CONSIDERED EE63853A64FB2934E127DD1E3BC5877C53B0F4F6 0\\n[GNUPG:] NO_SECKEY 79DE085C13FFBEE8\\n[GNUPG:] BEGIN_DECRYPTION\\n[GNUPG:] DECRYPTION_FAILED\\n[GNUPG:] END_DECRYPTION\\n",
      "status": "exit status: 2",
      "files": {}
    },
    {
      "args": [
        "\"--faked-system-time=1671553073!\"",
        "\"--decrypt\"",
        "\"--list-only\"",
        "\"/EXPERIMENT/ciphertext\""
      ],
      "stderr": "gpg: WARNING: unsafe permissions on homedir '/HOMEDIR'\\ngpg: WARNING: running with faked system time: 2022-12-20 16:17:53\\ngpg: encrypted with 256-bit ECDH key, ID 79DE085C13FFBEE8, created 2022-12-20\\n      \"Alice Lovelace <alice@lovelace.name>\"\\n",
      "stdout": "",
      "statusfd": "[GNUPG:] ENC_TO 79DE085C13FFBEE8 18 0\\n[GNUPG:] KEY_CONSIDERED EE63853A64FB2934E127DD1E3BC5877C53B0F4F6 0\\n[GNUPG:] NO_SECKEY 79DE085C13FFBEE8\\n[GNUPG:] BEGIN_DECRYPTION\\n[GNUPG:] END_DECRYPTION\\n",
      "status": "exit status: 0",
      "files": {}
    },
    {
      "args": [
        "\"--faked-system-time=1671553073!\"",
        "\"--decrypt\"",
        "\"--list-only\"",
        "\"--verbose\"",
        "\"/EXPERIMENT/ciphertext\""
      ],
      "stderr": "gpg: WARNING: unsafe permissions on homedir '/HOMEDIR'\\ngpg: WARNING: running with faked system time: 2022-12-20 16:17:53\\ngpg: public key is 79DE085C13FFBEE8\\ngpg: connection to agent is in restricted mode\\ngpg: using subkey 79DE085C13FFBEE8 instead of primary key 3BC5877C53B0F4F6\\ngpg: encrypted with 256-bit ECDH key, ID 79DE085C13FFBEE8, created 2022-12-20\\n      \"Alice Lovelace <alice@lovelace.name>\"\\n",
      "stdout": "",
      "statusfd": "[GNUPG:] ENC_TO 79DE085C13FFBEE8 18 0\\n[GNUPG:] KEY_CONSIDERED EE63853A64FB2934E127DD1E3BC5877C53B0F4F6 0\\n[GNUPG:] NO_SECKEY 79DE085C13FFBEE8\\n[GNUPG:] BEGIN_DECRYPTION\\n[GNUPG:] END_DECRYPTION\\n",
      "status": "exit status: 0",
      "files": {}
    },
    {
      "args": [
        "\"--faked-system-time=1671553073!\"",
        "\"--import\"",
        "\"/EXPERIMENT/key\""
      ],
      "stderr": "gpg: WARNING: unsafe permissions on homedir '/HOMEDIR'\\ngpg: WARNING: running with faked system time: 2022-12-20 16:17:53\\ngpg: key 3BC5877C53B0F4F6: \"Alice Lovelace <alice@lovelace.name>\" not changed\\ngpg: key 3BC5877C53B0F4F6: secret key imported\\ngpg: Total number processed: 1\\ngpg:              unchanged: 1\\ngpg:       secret keys read: 1\\ngpg:   secret keys imported: 1\\n",
      "stdout": "",
      "statusfd": "[GNUPG:] IMPORT_OK 0 EE63853A64FB2934E127DD1E3BC5877C53B0F4F6\\n[GNUPG:] KEY_CONSIDERED EE63853A64FB2934E127DD1E3BC5877C53B0F4F6 0\\n[GNUPG:] IMPORT_OK 17 EE63853A64FB2934E127DD1E3BC5877C53B0F4F6\\n[GNUPG:] IMPORT_RES 1 0 0 0 1 0 0 0 0 1 1 0 0 0 0\\n",
      "status": "exit status: 0",
      "files": {}
    },
    {
      "args": [
        "\"--faked-system-time=1671553073!\"",
        "\"--decrypt\"",
        "\"--output\"",
        "\"decrypted-plaintext\"",
        "\"/EXPERIMENT/ciphertext\""
      ],
      "stderr": "gpg: WARNING: unsafe permissions on homedir '/HOMEDIR'\\ngpg: WARNING: running with faked system time: 2022-12-20 16:17:53\\ngpg: encrypted with 256-bit ECDH key, ID 79DE085C13FFBEE8, created 2022-12-20\\n      \"Alice Lovelace <alice@lovelace.name>\"\\n",
      "stdout": "",
      "statusfd": "[GNUPG:] ENC_TO 79DE085C13FFBEE8 18 0\\n[GNUPG:] KEY_CONSIDERED EE63853A64FB2934E127DD1E3BC5877C53B0F4F6 0\\n[GNUPG:] KEY_CONSIDERED EE63853A64FB2934E127DD1E3BC5877C53B0F4F6 0\\n[GNUPG:] DECRYPTION_KEY 7450AB307AFF6B637A1D955479DE085C13FFBEE8 EE63853A64FB2934E127DD1E3BC5877C53B0F4F6 -\\n[GNUPG:] KEY_CONSIDERED EE63853A64FB2934E127DD1E3BC5877C53B0F4F6 0\\n[GNUPG:] BEGIN_DECRYPTION\\n[GNUPG:] DECRYPTION_INFO 2 9 0\\n[GNUPG:] PLAINTEXT 62 0 \\n[GNUPG:] PLAINTEXT_LENGTH 9\\n[GNUPG:] DECRYPTION_OKAY\\n[GNUPG:] GOODMDC\\n[GNUPG:] END_DECRYPTION\\n",
      "status": "exit status: 0",
      "files": {
        "decrypted-plaintext": "plaintext"
      }
    },
    {
      "args": [
        "\"--faked-system-time=1671553073!\"",
        "\"--decrypt\"",
        "\"--output\"",
        "\"decrypted-plaintext\"",
        "\"--verbose\"",
        "\"/EXPERIMENT/ciphertext\""
      ],
      "stderr": "gpg: WARNING: unsafe permissions on homedir '/HOMEDIR'\\ngpg: WARNING: running with faked system time: 2022-12-20 16:17:53\\ngpg: public key is 79DE085C13FFBEE8\\ngpg: connection to agent is in restricted mode\\ngpg: using subkey 79DE085C13FFBEE8 instead of primary key 3BC5877C53B0F4F6\\ngpg: encrypted with 256-bit ECDH key, ID 79DE085C13FFBEE8, created 2022-12-20\\n      \"Alice Lovelace <alice@lovelace.name>\"\\ngpg: AES256 encrypted data\\ngpg: original file name=''\\n",
      "stdout": "",
      "statusfd": "[GNUPG:] ENC_TO 79DE085C13FFBEE8 18 0\\n[GNUPG:] KEY_CONSIDERED EE63853A64FB2934E127DD1E3BC5877C53B0F4F6 0\\n[GNUPG:] KEY_CONSIDERED EE63853A64FB2934E127DD1E3BC5877C53B0F4F6 0\\n[GNUPG:] DECRYPTION_KEY 7450AB307AFF6B637A1D955479DE085C13FFBEE8 EE63853A64FB2934E127DD1E3BC5877C53B0F4F6 -\\n[GNUPG:] KEY_CONSIDERED EE63853A64FB2934E127DD1E3BC5877C53B0F4F6 0\\n[GNUPG:] BEGIN_DECRYPTION\\n[GNUPG:] DECRYPTION_INFO 2 9 0\\n[GNUPG:] PLAINTEXT 62 0 \\n[GNUPG:] PLAINTEXT_LENGTH 9\\n[GNUPG:] DECRYPTION_OKAY\\n[GNUPG:] GOODMDC\\n[GNUPG:] END_DECRYPTION\\n",
      "status": "exit status: 0",
      "files": {
        "decrypted-plaintext": "plaintext"
      }
    },
    {
      "args": [
        "\"--faked-system-time=1671553073!\"",
        "\"--decrypt\"",
        "\"--list-only\"",
        "\"--output\"",
        "\"nothing\"",
        "\"/EXPERIMENT/ciphertext\""
      ],
      "stderr": "gpg: WARNING: unsafe permissions on homedir '/HOMEDIR'\\ngpg: WARNING: running with faked system time: 2022-12-20 16:17:53\\ngpg: encrypted with 256-bit ECDH key, ID 79DE085C13FFBEE8, created 2022-12-20\\n      \"Alice Lovelace <alice@lovelace.name>\"\\n",
      "stdout": "",
      "statusfd": "[GNUPG:] ENC_TO 79DE085C13FFBEE8 18 0\\n[GNUPG:] KEY_CONSIDERED EE63853A64FB2934E127DD1E3BC5877C53B0F4F6 0\\n[GNUPG:] BEGIN_DECRYPTION\\n[GNUPG:] END_DECRYPTION\\n",
      "status": "exit status: 0",
      "files": {
        "nothing": ""
      }
    },
    {
      "args": [
        "\"--faked-system-time=1671553073!\"",
        "\"--decrypt\"",
        "\"--list-only\"",
        "\"--output\"",
        "\"nothing\"",
        "\"--verbose\"",
        "\"/EXPERIMENT/ciphertext\""
      ],
      "stderr": "gpg: WARNING: unsafe permissions on homedir '/HOMEDIR'\\ngpg: WARNING: running with faked system time: 2022-12-20 16:17:53\\ngpg: public key is 79DE085C13FFBEE8\\ngpg: connection to agent is in restricted mode\\ngpg: using subkey 79DE085C13FFBEE8 instead of primary key 3BC5877C53B0F4F6\\ngpg: encrypted with 256-bit ECDH key, ID 79DE085C13FFBEE8, created 2022-12-20\\n      \"Alice Lovelace <alice@lovelace.name>\"\\n",
      "stdout": "",
      "statusfd": "[GNUPG:] ENC_TO 79DE085C13FFBEE8 18 0\\n[GNUPG:] KEY_CONSIDERED EE63853A64FB2934E127DD1E3BC5877C53B0F4F6 0\\n[GNUPG:] BEGIN_DECRYPTION\\n[GNUPG:] END_DECRYPTION\\n",
      "status": "exit status: 0",
      "files": {
        "nothing": ""
      }
    }
  ],
  "artifacts": {
    "cert": "\\xC5X\\x04c\\xA1\\xE01\\x16\\t+\\x06\\x01\\x04\\x01\\xDAG\\x0F\\x01\\x01\\x07@\\xFE\\xACT\\xA1k4\\x12#\\xC2G\\xF9냯\\xB4\\xA4\\xCF\\xF5P\\x06_=D\\x80\\xCD\\xDB~\\xD7\\xDF\\x1D\\xE2I\\x00\\x00\\xFFQMڣB\\xB5\\x03*\\xFDV\\xB4_C\\x98\\xA2iT\\x97\\xD2\\xC3\\xC3J\\xFC+\\x04\\xAE\\x00\\x9As\\x07=\\x14\\x0FU\\xC2\\xC0\\x11\\x04\\x1F\\x16\\n\\x00\\x83\\x05\\x82c\\xA1\\xE01\\x05\\x89\\x05\\x9F\\xA6\\x00\\x03\\x0B\\t\\x07\\t\\x10;Ň|S\\xB0\\xF4\\xF6G\\x14\\x00\\x00\\x00\\x00\\x00\\x1E\\x00 salt@notations.sequoia-pgp.org\\xE4\\xC2\\xDAx\\xFB\\x1E)\\x82\\x8F\\x07\\x01&Z\\xBE<\\x9Ev\\r\\x8C\\x84\\xF0\\xA8{\\x89\\x191|\\xAF\\xD4\\xE5\\x05X\\x03\\x15\\n\\x08\\x02\\x9B\\x01\\x02\\x1E\\x01\\x16!\\x04\\xEEc\\x85:d\\xFB)4\\xE1'\\xDD\\x1E;Ň|S\\xB0\\xF4\\xF6\\x00\\x00E\\x9A\\x01\\x00\\x96\\r\\xD3!\\x97\\xD5\\xD9\\xE7\\xAA\\xC1m޿\\xE9n\\x9Ep\\xAA\\xB7\\xB8\\xBD%\\x89\\x10-\\xB0\\xA5ω\\xCB\\xDC\\xE7\\x00\\xFE.\\xB7\\x9C^\\xFF}\\x87#\\x1DΦ0؜t\\xA6.\\x07\\xDBk\\xDC\\xEB\\x059n\\xAE\\xEBP^\\x00\\x98\\n\\xCD$Alice Lovelace <alice@lovelace.name>\\xC2\\xC0\\x14\\x04\\x13\\x16\\n\\x00\\x86\\x05\\x82c\\xA1\\xE01\\x05\\x89\\x05\\x9F\\xA6\\x00\\x03\\x0B\\t\\x07\\t\\x10;Ň|S\\xB0\\xF4\\xF6G\\x14\\x00\\x00\\x00\\x00\\x00\\x1E\\x00 salt@notations.sequoia-pgp.org\\xF5\\xCB'\\x10÷}bB\\x86\\xD8\\x18\\xF7\\x9D^8\\xE7\\x98\\x0F))F\\x9C\\xFC\\xFC'\\xF5Cu\\xF2X\\xB1\\x03\\x15\\n\\x08\\x02\\x99\\x01\\x02\\x9B\\x01\\x02\\x1E\\x01\\x16!\\x04\\xEEc\\x85:d\\xFB)4\\xE1'\\xDD\\x1E;Ň|S\\xB0\\xF4\\xF6\\x00\\x00s\\xDE\\x01\\x00\\x80Y\\x938v\\t\\xD7\\xCA\\xBE\\tY\\x12\\x19Zq\\xE4\\x8C\\r\\xBDB\\x80\\xEBG\\xD3Q\\xBB ]9\\x9DpB\\x00\\xFFt\\xD1!\\x08\\xEC\\x1A\\x0B\\x1Dڒ\\xA7\\xD6\\x0FU\\xAC\\x96֥l\\x06\\xE3\\x85\\xE4\\xEC\\xF7n\\xC8\\x1C\\xE8\\xF6*\\x0B\\xC7X\\x04c\\xA1\\xE01\\x16\\t+\\x06\\x01\\x04\\x01\\xDAG\\x0F\\x01\\x01\\x07@'M\\xD0IU2\\x0F\\x9E\\xFD\\xFFA\\xDB\\xF2\\xA5\\x82\\xC5$\\x1C\\t\\x18\\x84\\x14\\xAF7\\xCD\\x16;w]:\\xD6\\xE0\\x00\\x01\\x00ۣ\\xA3\\x94\\xE4X\\xE9uJ\\x13\\x10SspB\\xF4\\xF4\\\\+\\xAC;\\xD1m\\xBE\\xE4\\xB2=nT\\x99b5\\x10L\\xC2\\xC0\\xC5\\x04\\x18\\x16\\n\\x017\\x05\\x82c\\xA1\\xE01\\x05\\x89\\x05\\x9F\\xA6\\x00\\t\\x10;Ň|S\\xB0\\xF4\\xF6G\\x14\\x00\\x00\\x00\\x00\\x00\\x1E\\x00 salt@notations.sequoia-pgp.org\\xC5\\xC5\\xD9b\\x01Sŭ\\x01\\x91𻔰\\xB5\\xE4\\x97 2ˠ\\xC9\\x1D\\x02&\\xF0\\xAAQ\\x95\\x95zV\\x02\\x9B\\x02\\xBE\\xA0\\x04\\x19\\x16\\n\\x00o\\x05\\x82c\\xA1\\xE01\\t\\x10\\x9AK\\x05\\xC0\\xFAD\\xF7#G\\x14\\x00\\x00\\x00\\x00\\x00\\x1E\\x00 salt@notations.sequoia-pgp.orgQ\\xDC\\x10\\x03Fn\\xB2q\\xEB\\x0F(N\\x169\\xA2\\xAF\\x9F\\xE6\\xA5\\xC9\\xA3\\xF1\\xC4\\x98\\x8C;5\\xA2\\x07\\xC1\\x96?\\x16!\\x04\\x19#\\x01X\\xF8\\x01O\\xA3\\x16\\x16\\xA6e\\x9AK\\x05\\xC0\\xFAD\\xF7#\\x00\\x00\\x05\\x9F\\x00\\xFFrA\\xCE\\t\\xA5\\xBD-\\xAEC\\xFC/\\xA2\\x85\\xCC\\x03\\xA5\\x11R](2\\x92\\xB0?\\xBA\\xE2D\\x9Fw\\x95\\xC88\\x01\\x00\\x80\\x94\\x12\\x8B/\\xC9@B(-\\xABH\\x1C\\xF4\\x86\\xBE,\\x86\\xB1\\xF9\\x00\\xBD?p\\xE2\\xB8\\xEE&pH]\\x02\\x16!\\x04\\xEEc\\x85:d\\xFB)4\\xE1'\\xDD\\x1E;Ň|S\\xB0\\xF4\\xF6\\x00\\x00\\x12\"\\x01\\x00\\xC2\\xDBC^eb\\xB5\\x00\\x0E\\x98R\\xD6\\x1D\\n\\xF1y\\x86i\\xAFW\\x13\\xEE\\xAF\\n]\\xAAR#\\xBFwH\\xBE\\x01\\x00\\xC6X\\x9D\\x95\\xECGH\\xD9\\x15,5\\x9F$\\x88\\x12\\xB3R\\x1D\\xC5}\\xF9\\xB9o[\\rĽ\\x11\\x96\\xFF\\x85\\t\\xC7]\\x04c\\xA1\\xE01\\x12\\n+\\x06\\x01\\x04\\x01\\x97U\\x01\\x05\\x01\\x01\\x07@ :\\x83\\xFDwO\\xB4\\xCF]ƌ\\xB1\\x14c\\xBCK%Ʃ\\x8DV\\xD0|\\x1CL\\xA8\\xB4M\\xCA|\\xAC\\x0B\\x03\\x01\\x08\\x07\\x00\\x00\\xFFwZ\\xF3\\xC6Ծ\\x02\\xA5K\\x07O\\xF6\\xAD\\x9CF\\xDE,ѥ \\xD7\\xF8\\xF2\\x8Ax\\xF8נwN#\\xD8\\x13z\\xC2\\xC0\\x06\\x04\\x18\\x16\\n\\x00x\\x05\\x82c\\xA1\\xE01\\x05\\x89\\x05\\x9F\\xA6\\x00\\t\\x10;Ň|S\\xB0\\xF4\\xF6G\\x14\\x00\\x00\\x00\\x00\\x00\\x1E\\x00 salt@notations.sequoia-pgp.org\\x06\\x10|\\xA0\\xBB\\xEAv\\xEC\\xEE\\x91\\xE7\\xB0\\xEFf\\x82\\xE6\\x9F\\xFA\\x07\\x03;\\xAA\\x96\\x80\\xC5\\xD4\\xF6\\x9EÎк\\x02\\x9B\\x0C\\x16!\\x04\\xEEc\\x85:d\\xFB)4\\xE1'\\xDD\\x1E;Ň|S\\xB0\\xF4\\xF6\\x00\\x00\\xE8\\x15\\x01\\x00\\x96\\x08\\n\\x03\\x04\\xC5\\xFF\\xC1\\x00\\xA4\\x87\\xDD\\xCAv\\xC0H\\x16x \\xD4U\\xEE\\xE5\\xAF\\xB7\\x92\\xC7\\xECb\\xE3 \\x06\\x01\\x00\\xAAo\\xEBc\\xE0zo\\x94ﲸ7\\x97\\xE8\\xCFQ;p\\xCC+e\\xA6\\xBA௫'L\\xFC\\xC2i\\x03"
  },
  "dynamic_upper_bounds": [
    [
      0,
      86,
      0
    ],
    [
      0,
      0,
      0
    ],
    [
      0,
      0,
      0
    ],
    [
      0,
      0,
      0
    ],
    [
      0,
      0,
      0
    ],
    [
      0,
      0,
      0
    ],
    [
      0,
      1,
      0
    ],
    [
      0,
      1,
      0
    ],
    [
      0,
      1,
      0
    ],
    [
      0,
      1,
      0
    ],
    [
      0,
      0,
      67
    ],
    [
      0,
      1,
      0
    ],
    [
      0,
      103,
      0
    ],
    [
      0,
      1,
      0
    ],
    [
      0,
      1,
      0
    ]
  ]
}