{
  "outputs": [
    {
      "args": [
        "\"--faked-system-time=1671553073!\"",
        "\"--list-keys\""
      ],
      "stderr": "gpg: WARNING: unsafe permissions on homedir '/HOMEDIR'\\ngpg: WARNING: running with faked system time: 2022-12-20 16:17:53\\ngpg: keybox '/HOMEDIR/pubring.kbx' created\\ngpg: /HOMEDIR/trustdb.gpg: trustdb created\\n",
      "stdout": "",
      "statusfd": "",
      "status": "exit status: 0",
      "files": {}
    },
    {
      "args": [
        "\"--faked-system-time=1671553073!\"",
        "\"--import\"",
        "\"/EXPERIMENT/key\""
      ],
      "stderr": "gpg: WARNING: unsafe permissions on homedir '/HOMEDIR'\\ngpg: WARNING: running with faked system time: 2022-12-20 16:17:53\\ngpg: key 49909F93B919737D: public key \"Alice Lovelace <alice@lovelace.name>\" imported\\ngpg: key 49909F93B919737D: secret key imported\\ngpg: Total number processed: 1\\ngpg:               imported: 1\\ngpg:       secret keys read: 1\\ngpg:   secret keys imported: 1\\n",
      "stdout": "",
      "statusfd": "[GNUPG:] KEY_CONSIDERED ED89D96633FFF7C2C8D0025549909F93B919737D 0\\n[GNUPG:] IMPORTED 49909F93B919737D Alice Lovelace <alice@lovelace.name>\\n[GNUPG:] IMPORT_OK 1 ED89D96633FFF7C2C8D0025549909F93B919737D\\n[GNUPG:] KEY_CONSIDERED ED89D96633FFF7C2C8D0025549909F93B919737D 0\\n[GNUPG:] IMPORT_OK 17 ED89D96633FFF7C2C8D0025549909F93B919737D\\n[GNUPG:] IMPORT_RES 1 0 1 0 0 0 0 0 0 1 1 0 0 0 0\\n",
      "status": "exit status: 0",
      "files": {}
    },
    {
      "args": [
        "\"--faked-system-time=1671553073!\"",
        "\"--digest-algo=SHA512\"",
        "\"--sign\"",
        "\"--output\"",
        "\"signature\"",
        "\"/EXPERIMENT/plaintext\""
      ],
      "stderr": "gpg: WARNING: unsafe permissions on homedir '/HOMEDIR'\\ngpg: WARNING: running with faked system time: 2022-12-20 16:17:53\\n",
      "stdout": "",
      "statusfd": "[GNUPG:] KEY_CONSIDERED ED89D96633FFF7C2C8D0025549909F93B919737D 0\\n[GNUPG:] KEY_CONSIDERED ED89D96633FFF7C2C8D0025549909F93B919737D 0\\n[GNUPG:] BEGIN_SIGNING H10\\n[GNUPG:] SIG_CREATED S 19 10 00 1671553073 C746460F2D9CFB3D5985BDA4EEC09C65CA1DE751\\n",
      "status": "exit status: 0",
      "files": {
        "signature": "\\xA3\\x01\\x9B\\xC0\\xCB\\xCC\\xC0%\\xFC\\xEE\\xC0\\x9C\\xD4S\\xB2\\xCF\\x03\\x19\\xD7H$q\\x16\\xE4$f敤V\\x94$/|`\\x08\\xE7tlga\\x10\\xE6b\\x90\\x15Sd9\\xEE\\xE6Ư;\\xE7\\xB7md\\xEB\\xDE%0\\x9D\\xACL \\xD5\\x0C\\\\\\x9C\\x020\\x11\\x19u&V\\xF9\\xA3k\\x94Y\\xF6\\xF6\\xFE*\\x13\\x9D\\xA3\\xF8c\\x9B\\xEA\\x15!\\xA3#n/\\xBF\\xD5K\\x9F\\xAC\\x9B\\xC6y\\xE8\\xEBC\\xFD\\x07{\\x8F}\\x8E\\xEB\\xE5\\xDE\\xF0R\\xE9\\x0B\\xF3y\\x95\\xF5\\x19\\xAA\\xBBME\\xF4;\\xAE\\xE4\\xB0F\\x1B\\x7F\\xDF\\xFD\\xA9ev\\x00\\x13\\x9B\"3o¶\\x07\\x9F\\xDAz/\\xED9\\xEF9\\xD1 Ck\\xCDN\\xAD[\\xFB\\xD6z\\x072\\x9E\\xBD)\\x14\\xED3\\xA1\\xE4\\xE2\\x0Eݝ\\xE7\\r͖\\xDE\\xD6\\xBC\\x17[z\\x82\\x9F\\xAF\\xF5\\xE0\\xB7kQ\\xB5S[\\x1At/\\xE6+\\xDB\\xEDY\\x08\\x00"
      }
    },
    {
      "args": [
        "\"--faked-system-time=1671553073!\"",
        "\"--verify\"",
        "\"--output\"",
        "\"output\"",
        "\"/EXPERIMENT/signature\""
      ],
      "stderr": "gpg: WARNING: unsafe permissions on homedir '/HOMEDIR'\\ngpg: WARNING: running with faked system time: 2022-12-20 16:17:53\\ngpg: Signature made Tue Dec 20 19:17:53 2022 EAT\\ngpg:                using ECDSA key C746460F2D9CFB3D5985BDA4EEC09C65CA1DE751\\ngpg: Good signature from \"Alice Lovelace <alice@lovelace.name>\" [unknown]\\ngpg: WARNING: This key is not certified with a trusted signature!\\ngpg:          There is no indication that the signature belongs to the owner.\\nPrimary key fingerprint: ED89 D966 33FF F7C2 C8D0  0255 4990 9F93 B919 737D\\n     Subkey fingerprint: C746 460F 2D9C FB3D 5985  BDA4 EEC0 9C65 CA1D E751\\n",
      "stdout": "",
      "statusfd": "[GNUPG:] PLAINTEXT 62 1671553073 plaintext\\n[GNUPG:] PLAINTEXT_LENGTH 9\\n[GNUPG:] NEWSIG\\n[GNUPG:] KEY_CONSIDERED ED89D96633FFF7C2C8D0025549909F93B919737D 0\\n[GNUPG:] SIG_ID YlCJuh+usAf9R0qZdDqskQKES+k 2022-12-20 1671553073\\n[GNUPG:] KEY_CONSIDERED ED89D96633FFF7C2C8D0025549909F93B919737D 0\\n[GNUPG:] GOODSIG EEC09C65CA1DE751 Alice Lovelace <alice@lovelace.name>\\n[GNUPG:] VALIDSIG C746460F2D9CFB3D5985BDA4EEC09C65CA1DE751 2022-12-20 1671553073 0 4 0 19 10 00 ED89D96633FFF7C2C8D0025549909F93B919737D\\n[GNUPG:] KEY_CONSIDERED ED89D96633FFF7C2C8D0025549909F93B919737D 0\\n[GNUPG:] KEY_CONSIDERED ED89D96633FFF7C2C8D0025549909F93B919737D 0\\n[GNUPG:] TRUST_UNDEFINED 0 pgp\\n",
      "status": "exit status: 0",
      "files": {
        "output": "plaintext"
      }
    },
    {
      "args": [
        "\"--faked-system-time=1671553073!\"",
        "\"--verify\"",
        "\"--output\"",
        "\"output\"",
        "\"/EXPERIMENT/signature\""
      ],
      "stderr": "gpg: WARNING: unsafe permissions on homedir '/HOMEDIR'\\ngpg: WARNING: running with faked system time: 2022-12-20 16:17:53\\ngpg: Signature made Tue Dec 20 19:17:53 2022 EAT\\ngpg:                using ECDSA key C746460F2D9CFB3D5985BDA4EEC09C65CA1DE751\\ngpg: Good signature from \"Alice Lovelace <alice@lovelace.name>\" [unknown]\\ngpg: WARNING: This key is not certified with a trusted signature!\\ngpg:          There is no indication that the signature belongs to the owner.\\nPrimary key fingerprint: ED89 D966 33FF F7C2 C8D0  0255 4990 9F93 B919 737D\\n     Subkey fingerprint: C746 460F 2D9C FB3D 5985  BDA4 EEC0 9C65 CA1D E751\\n",
      "stdout": "",
      "statusfd": "[GNUPG:] PLAINTEXT 62 0 \\n[GNUPG:] PLAINTEXT_LENGTH 9\\n[GNUPG:] NEWSIG\\n[GNUPG:] KEY_CONSIDERED ED89D96633FFF7C2C8D0025549909F93B919737D 0\\n[GNUPG:] SIG_ID zGbPossWH0JVzcB5LA2tkXXfw6w 2022-12-20 1671553073\\n[GNUPG:] KEY_CONSIDERED ED89D96633FFF7C2C8D0025549909F93B919737D 0\\n[GNUPG:] GOODSIG EEC09C65CA1DE751 Alice Lovelace <alice@lovelace.name>\\n[GNUPG:] NOTATION_NAME salt@notations.sequoia-pgp.org\\n[GNUPG:] NOTATION_DATA {\\x92%0ApHEG[%03J%1A\\xACKO\\xE9%17\\x89\\x9F\\xFC%1C\\xC3o\\x8AȌZ%04%1Afc\\x8F\\xF8\\n[GNUPG:] VALIDSIG C746460F2D9CFB3D5985BDA4EEC09C65CA1DE751 2022-12-20 1671553073 0 4 0 19 10 00 ED89D96633FFF7C2C8D0025549909F93B919737D\\n[GNUPG:] KEY_CONSIDERED ED89D96633FFF7C2C8D0025549909F93B919737D 0\\n[GNUPG:] KEY_CONSIDERED ED89D96633FFF7C2C8D0025549909F93B919737D 0\\n[GNUPG:] TRUST_UNDEFINED 0 pgp\\n",
      "status": "exit status: 0",
      "files": {
        "output": "plaintext"
      }
    },
    {
      "args": [
        "\"--faked-system-time=1671553073!\"",
        "\"--digest-algo=SHA512\"",
        "\"--sign\"",
        "\"--textmode\"",
        "\"--output\"",
        "\"signature\"",
        "\"/EXPERIMENT/plaintext\""
      ],
      "stderr": "gpg: WARNING: unsafe permissions on homedir '/HOMEDIR'\\ngpg: WARNING: running with faked system time: 2022-12-20 16:17:53\\n",
      "stdout": "",
      "statusfd": "[GNUPG:] KEY_CONSIDERED ED89D96633FFF7C2C8D0025549909F93B919737D 0\\n[GNUPG:] KEY_CONSIDERED ED89D96633FFF7C2C8D0025549909F93B919737D 0\\n[GNUPG:] BEGIN_SIGNING H10\\n[GNUPG:] SIG_CREATED S 19 10 01 1671553073 C746460F2D9CFB3D5985BDA4EEC09C65CA1DE751\\n",
      "status": "exit status: 0",
      "files": {
        "signature": "\\xA3\\x01\\x9B\\xC0\\xCB\\xCC\\xC8%\\xFC\\xEE\\xC0\\x9C\\xD4S\\xB2\\xCF\\x03\\x19OK\\x94p\\x16\\xE4$f敤V\\x94$/|`\\x08\\xE7tlca\\x14\\xE6b\\x90\\x15Sd9\\xEE\\xE6Ư;\\xE7\\xB7md\\xEB\\xDE%0\\x9D\\xACL \\xD5\\x0C\\\\\\x9C\\x020\\x91\\x1D\\xF3\\x998\\xB6ޘ=A\\\\\\xEC\\xEC\\x86\\x87\\x8Efb+\\x1F\\xC7\\xDE\\xFA\\xC8\\xC9ϻ\\x93U\\xB8\\xA9\\xA0\\xEE\\xF5?\\xCFg\\t\\xEA3ߺ\\xF3\\x1C\\xEB\\xAD8r\\xB8E\\xEAX^\\xC9\\xE6\\xEA\\xE4\\xD2\\x19\\xB6\\xFCqV+\\xFE\\xFF\\xABM~Rou\\x8B\\x9B\\x89᧢a\\xA9\\xFB\\x9D\\xFBG\\xE7\\x88$M\\x99b\\xBA\\xCD\\xC1F\\xF6\\xBD\\xDB\\xCF\\xAFS\\xF2?\\xEE\\xE8\\xCA\\xD7\\x98h\\xC5\\x1F\\x9F\\xEE\\x98\\x13w\\xC5tՔ$\\xB3\\xCD!r\\x1A\\xA9yu\\\\=\\x0B:K\\xB2Oz\\xBFh\\xEF\\xD9.\\xC8\\x08\\x00"
      }
    },
    {
      "args": [
        "\"--faked-system-time=1671553073!\"",
        "\"--verify\"",
        "\"--output\"",
        "\"output\"",
        "\"/EXPERIMENT/signature\""
      ],
      "stderr": "gpg: WARNING: unsafe permissions on homedir '/HOMEDIR'\\ngpg: WARNING: running with faked system time: 2022-12-20 16:17:53\\ngpg: Signature made Tue Dec 20 19:17:53 2022 EAT\\ngpg:                using ECDSA key C746460F2D9CFB3D5985BDA4EEC09C65CA1DE751\\ngpg: Good signature from \"Alice Lovelace <alice@lovelace.name>\" [unknown]\\ngpg: WARNING: This key is not certified with a trusted signature!\\ngpg:          There is no indication that the signature belongs to the owner.\\nPrimary key fingerprint: ED89 D966 33FF F7C2 C8D0  0255 4990 9F93 B919 737D\\n     Subkey fingerprint: C746 460F 2D9C FB3D 5985  BDA4 EEC0 9C65 CA1D E751\\n",
      "stdout": "",
      "statusfd": "[GNUPG:] PLAINTEXT 74 1671553073 plaintext\\n[GNUPG:] PLAINTEXT_LENGTH 9\\n[GNUPG:] NEWSIG\\n[GNUPG:] KEY_CONSIDERED ED89D96633FFF7C2C8D0025549909F93B919737D 0\\n[GNUPG:] SIG_ID v8FQAb8gcaDvFGhuVCdsd86Rx3o 2022-12-20 1671553073\\n[GNUPG:] KEY_CONSIDERED ED89D96633FFF7C2C8D0025549909F93B919737D 0\\n[GNUPG:] GOODSIG EEC09C65CA1DE751 Alice Lovelace <alice@lovelace.name>\\n[GNUPG:] VALIDSIG C746460F2D9CFB3D5985BDA4EEC09C65CA1DE751 2022-12-20 1671553073 0 4 0 19 10 01 ED89D96633FFF7C2C8D0025549909F93B919737D\\n[GNUPG:] KEY_CONSIDERED ED89D96633FFF7C2C8D0025549909F93B919737D 0\\n[GNUPG:] KEY_CONSIDERED ED89D96633FFF7C2C8D0025549909F93B919737D 0\\n[GNUPG:] TRUST_UNDEFINED 0 pgp\\n",
      "status": "exit status: 0",
      "files": {
        "output": "plaintext"
      }
    },
    {
      "args": [
        "\"--faked-system-time=1671553073!\"",
        "\"--verify\"",
        "\"--output\"",
        "\"output\"",
        "\"/EXPERIMENT/signature\""
      ],
      "stderr": "gpg: WARNING: unsafe permissions on homedir '/HOMEDIR'\\ngpg: WARNING: running with faked system time: 2022-12-20 16:17:53\\ngpg: Signature made Tue Dec 20 19:17:53 2022 EAT\\ngpg:                using ECDSA key C746460F2D9CFB3D5985BDA4EEC09C65CA1DE751\\ngpg: Good signature from \"Alice Lovelace <alice@lovelace.name>\" [unknown]\\ngpg: WARNING: This key is not certified with a trusted signature!\\ngpg:          There is no indication that the signature belongs to the owner.\\nPrimary key fingerprint: ED89 D966 33FF F7C2 C8D0  0255 4990 9F93 B919 737D\\n     Subkey fingerprint: C746 460F 2D9C FB3D 5985  BDA4 EEC0 9C65 CA1D E751\\n",
      "stdout": "",
      "statusfd": "[GNUPG:] PLAINTEXT 62 0 \\n[GNUPG:] PLAINTEXT_LENGTH 9\\n[GNUPG:] NEWSIG\\n[GNUPG:] KEY_CONSIDERED ED89D96633FFF7C2C8D0025549909F93B919737D 0\\n[GNUPG:] SIG_ID 9STJVLXyw6x0FeMyV8s1hcVwVOg 2022-12-20 1671553073\\n[GNUPG:] KEY_CONSIDERED ED89D96633FFF7C2C8D0025549909F93B919737D 0\\n[GNUPG:] GOODSIG EEC09C65CA1DE751 Alice Lovelace <alice@lovelace.name>\\n[GNUPG:] NOTATION_NAME salt@notations.sequoia-pgp.org\\n[GNUPG:] NOTATION_DATA %1E*v\\xAE+\\xA1\\xB4\\x84\\x88<\\xEB\\x98\\xD6eL%0A\\xC7\\xC4\\xF6{%25\\xC4+\\xB6p\\x9DIAY\\x8B%11\\xE3\\n[GNUPG:] VALIDSIG C746460F2D9CFB3D5985BDA4EEC09C65CA1DE751 2022-12-20 1671553073 0 4 0 19 10 01 ED89D96633FFF7C2C8D0025549909F93B919737D\\n[GNUPG:] KEY_CONSIDERED ED89D96633FFF7C2C8D0025549909F93B919737D 0\\n[GNUPG:] KEY_CONSIDERED ED89D96633FFF7C2C8D0025549909F93B919737D 0\\n[GNUPG:] TRUST_UNDEFINED 0 pgp\\n",
      "status": "exit status: 0",
      "files": {
        "output": "plaintext"
      }
    },
    {
      "args": [
        "\"--faked-system-time=1671553073!\"",
        "\"--digest-algo=SHA512\"",
        "\"--clear-sign\"",
        "\"--output\"",
        "\"signature\"",
        "\"/EXPERIMENT/plaintext\""
      ],
      "stderr": "gpg: WARNING: unsafe permissions on homedir '/HOMEDIR'\\ngpg: WARNING: running with faked system time: 2022-12-20 16:17:53\\n",
      "stdout": "",
      "statusfd": "[GNUPG:] KEY_CONSIDERED ED89D96633FFF7C2C8D0025549909F93B919737D 0\\n[GNUPG:] KEY_CONSIDERED ED89D96633FFF7C2C8D0025549909F93B919737D 0\\n[GNUPG:] BEGIN_SIGNING H10\\n[GNUPG:] SIG_CREATED C 19 10 01 1671553073 C746460F2D9CFB3D5985BDA4EEC09C65CA1DE751\\n",
      "status": "exit status: 0",
      "files": {
        "signature": "-----BEGIN PGP SIGNED MESSAGE-----\\nHash: SHA512\\n\\nplaintext\\n-----BEGIN PGP SIGNATURE-----\\n\\niLYEARMKAB0WIQTHRkYPLZz7PVmFvaTuwJxlyh3nUQUCY6HgMQAKCRDuwJxlyh3n\\nUbifAgi12JuQFxbNsOFBNhap413a8QkPDbkFE4Jwfuv+SeZgJ5ntRwzGjXjEw4Qa\\nxm50s3tjdZg9D146qP/+fWPkfzraCwIA+SExdUfc38WcFGKUlDW2QDwd70b59ZRv\\n8biKbyiROg9fZ0FsXtQ1qpRiNrNUHihlbn4KjKCJdGvJS+iHjLcRAQ==\\n=soQA\\n-----END PGP SIGNATURE-----\\n"
      }
    },
    {
      "args": [
        "\"--faked-system-time=1671553073!\"",
        "\"--verify\"",
        "\"--output\"",
        "\"output\"",
        "\"/EXPERIMENT/signature\""
      ],
      "stderr": "gpg: WARNING: unsafe permissions on homedir '/HOMEDIR'\\ngpg: WARNING: running with faked system time: 2022-12-20 16:17:53\\ngpg: Signature made Tue Dec 20 19:17:53 2022 EAT\\ngpg:                using ECDSA key C746460F2D9CFB3D5985BDA4EEC09C65CA1DE751\\ngpg: Good signature from \"Alice Lovelace <alice@lovelace.name>\" [unknown]\\ngpg: WARNING: This key is not certified with a trusted signature!\\ngpg:          There is no indication that the signature belongs to the owner.\\nPrimary key fingerprint: ED89 D966 33FF F7C2 C8D0  0255 4990 9F93 B919 737D\\n     Subkey fingerprint: C746 460F 2D9C FB3D 5985  BDA4 EEC0 9C65 CA1D E751\\n",
      "stdout": "",
      "statusfd": "[GNUPG:] PLAINTEXT 74 0 \\n[GNUPG:] NEWSIG\\n[GNUPG:] KEY_CONSIDERED ED89D96633FFF7C2C8D0025549909F93B919737D 0\\n[GNUPG:] SIG_ID v8FQAb8gcaDvFGhuVCdsd86Rx3o 2022-12-20 1671553073\\n[GNUPG:] KEY_CONSIDERED ED89D96633FFF7C2C8D0025549909F93B919737D 0\\n[GNUPG:] GOODSIG EEC09C65CA1DE751 Alice Lovelace <alice@lovelace.name>\\n[GNUPG:] VALIDSIG C746460F2D9CFB3D5985BDA4EEC09C65CA1DE751 2022-12-20 1671553073 0 4 0 19 10 01 ED89D96633FFF7C2C8D0025549909F93B919737D\\n[GNUPG:] KEY_CONSIDERED ED89D96633FFF7C2C8D0025549909F93B919737D 0\\n[GNUPG:] KEY_CONSIDERED ED89D96633FFF7C2C8D0025549909F93B919737D 0\\n[GNUPG:] TRUST_UNDEFINED 0 pgp\\n",
      "status": "exit status: 0",
      "files": {
        "output": "plaintext\\n"
      }
    },
    {
      "args": [
        "\"--faked-system-time=1671553073!\"",
        "\"--verify\"",
        "\"--output\"",
        "\"output\"",
        "\"/EXPERIMENT/signature\""
      ],
      "stderr": "gpg: WARNING: unsafe permissions on homedir '/HOMEDIR'\\ngpg: WARNING: running with faked system time: 2022-12-20 16:17:53\\ngpg: Signature made Tue Dec 20 19:17:53 2022 EAT\\ngpg:                using ECDSA key C746460F2D9CFB3D5985BDA4EEC09C65CA1DE751\\ngpg: Good signature from \"Alice Lovelace <alice@lovelace.name>\" [unknown]\\ngpg: WARNING: This key is not certified with a trusted signature!\\ngpg:          There is no indication that the signature belongs to the owner.\\nPrimary key fingerprint: ED89 D966 33FF F7C2 C8D0  0255 4990 9F93 B919 737D\\n     Subkey fingerprint: C746 460F 2D9C FB3D 5985  BDA4 EEC0 9C65 CA1D E751\\n",
      "stdout": "",
      "statusfd": "[GNUPG:] PLAINTEXT 74 0 \\n[GNUPG:] NEWSIG\\n[GNUPG:] KEY_CONSIDERED ED89D96633FFF7C2C8D0025549909F93B919737D 0\\n[GNUPG:] SIG_ID Rg/GBoxRRG6FJtPmlHgo/nhdQes 2022-12-20 1671553073\\n[GNUPG:] KEY_CONSIDERED ED89D96633FFF7C2C8D0025549909F93B919737D 0\\n[GNUPG:] GOODSIG EEC09C65CA1DE751 Alice Lovelace <alice@lovelace.name>\\n[GNUPG:] NOTATION_NAME salt@notations.sequoia-pgp.org\\n[GNUPG:] NOTATION_DATA C\\xEC\\xE5\\xE6N\\xEF\\xF7\\xB4,\\xBD&\\xC4$\\xC2\\xE4\\xA9\\xFB\\xB5%19uu\\xA2<\\xBDɆ\\xD1$J\\xF0\\x90\\xEE\\n[GNUPG:] VALIDSIG C746460F2D9CFB3D5985BDA4EEC09C65CA1DE751 2022-12-20 1671553073 0 4 0 19 10 01 ED89D96633FFF7C2C8D0025549909F93B919737D\\n[GNUPG:] KEY_CONSIDERED ED89D96633FFF7C2C8D0025549909F93B919737D 0\\n[GNUPG:] KEY_CONSIDERED ED89D96633FFF7C2C8D0025549909F93B919737D 0\\n[GNUPG:] TRUST_UNDEFINED 0 pgp\\n",
      "status": "exit status: 0",
      "files": {
        "output": "plaintext\\n"
      }
    },
    {
      "args": [
        "\"--faked-system-time=1671553073!\"",
        "\"--digest-algo=SHA512\"",
        "\"--detach-sign\"",
        "\"--output\"",
        "\"signature\"",
        "\"/EXPERIMENT/plaintext\""
      ],
      "stderr": "gpg: WARNING: unsafe permissions on homedir '/HOMEDIR'\\ngpg: WARNING: running with faked system time: 2022-12-20 16:17:53\\n",
      "stdout": "",
      "statusfd": "[GNUPG:] KEY_CONSIDERED ED89D96633FFF7C2C8D0025549909F93B919737D 0\\n[GNUPG:] KEY_CONSIDERED ED89D96633FFF7C2C8D0025549909F93B919737D 0\\n[GNUPG:] BEGIN_SIGNING H10\\n[GNUPG:] SIG_CREATED D 19 10 00 1671553073 C746460F2D9CFB3D5985BDA4EEC09C65CA1DE751\\n",
      "status": "exit status: 0",
      "files": {
        "signature": "\\x88\\xB7\\x04\\x00\\x13\\n\\x00\\x1D\\x16!\\x04\\xC7FF\\x0F-\\x9C\\xFB=Y\\x85\\xBD\\xA4\\xEE\\xC0\\x9Ce\\xCA\\x1D\\xE7Q\\x05\\x02c\\xA1\\xE01\\x00\\n\\t\\x10\\xEE\\xC0\\x9Ce\\xCA\\x1D\\xE7Q\\x1C'\\x02\\x05\\x1FŬ#\\x04\\xBD\\x8D\\xFAv\\x15\\x9C!\\xF8\\xB6%\\xD4\\x122\\xC4F\\xE9\\xF6\\x7F\\x1B\\xC9~\\x96\\t\\xC2\\xF5\\xE1/\\xE0\\xBD\\xC6\\xF3^\\x8D\\x0B\\xB0\\xE9\"\\xF4\\x03\\xCF$\\xAFh%\\xBB5\\x14/\\x88\\xD4l\\x05[3\\xF7\\xBB\\xF2\\x84\\x9BP\\x02\\x06!\\x03\\r`\\xB6\\xE0\\xF2\\x86\\x8DҼ\\xCFI\\x910h*\\xAC\\xB9*ھ\\xADKQ\\x01\\xCD\\xD9\\x12[L\\x90tѸ-\\xB9\\xCF16\\xA5\\xDB)\\xDE]u\\xC8\\x0F\\x0E\\x85\\xC1\\xF6\\xD6Z}\\x95\\x84\\x80-\\xD1o#>\\xBC\\xA1"
      }
    },
    {
      "args": [
        "\"--faked-system-time=1671553073!\"",
        "\"--verify\"",
        "\"/EXPERIMENT/signature\"",
        "\"/EXPERIMENT/data\""
      ],
      "stderr": "gpg: WARNING: unsafe permissions on homedir '/HOMEDIR'\\ngpg: WARNING: running with faked system time: 2022-12-20 16:17:53\\ngpg: Signature made Tue Dec 20 19:17:53 2022 EAT\\ngpg:                using ECDSA key C746460F2D9CFB3D5985BDA4EEC09C65CA1DE751\\ngpg: Good signature from \"Alice Lovelace <alice@lovelace.name>\" [unknown]\\ngpg: WARNING: This key is not certified with a trusted signature!\\ngpg:          There is no indication that the signature belongs to the owner.\\nPrimary key fingerprint: ED89 D966 33FF F7C2 C8D0  0255 4990 9F93 B919 737D\\n     Subkey fingerprint: C746 460F 2D9C FB3D 5985  BDA4 EEC0 9C65 CA1D E751\\n",
      "stdout": "",
      "statusfd": "[GNUPG:] NEWSIG\\n[GNUPG:] KEY_CONSIDERED ED89D96633FFF7C2C8D0025549909F93B919737D 0\\n[GNUPG:] SIG_ID YlCJuh+usAf9R0qZdDqskQKES+k 2022-12-20 1671553073\\n[GNUPG:] KEY_CONSIDERED ED89D96633FFF7C2C8D0025549909F93B919737D 0\\n[GNUPG:] GOODSIG EEC09C65CA1DE751 Alice Lovelace <alice@lovelace.name>\\n[GNUPG:] VALIDSIG C746460F2D9CFB3D5985BDA4EEC09C65CA1DE751 2022-12-20 1671553073 0 4 0 19 10 00 ED89D96633FFF7C2C8D0025549909F93B919737D\\n[GNUPG:] KEY_CONSIDERED ED89D96633FFF7C2C8D0025549909F93B919737D 0\\n[GNUPG:] KEY_CONSIDERED ED89D96633FFF7C2C8D0025549909F93B919737D 0\\n[GNUPG:] TRUST_UNDEFINED 0 pgp\\n",
      "status": "exit status: 0",
      "files": {}
    },
    {
      "args": [
        "\"--faked-system-time=1671553073!\"",
        "\"--verify\"",
        "\"/EXPERIMENT/signature\"",
        "\"/EXPERIMENT/data\""
      ],
      "stderr": "gpg: WARNING: unsafe permissions on homedir '/HOMEDIR'\\ngpg: WARNING: running with faked system time: 2022-12-20 16:17:53\\ngpg: Signature made Tue Dec 20 19:17:53 2022 EAT\\ngpg:                using ECDSA key C746460F2D9CFB3D5985BDA4EEC09C65CA1DE751\\ngpg: Good signature from \"Alice Lovelace <alice@lovelace.name>\" [unknown]\\ngpg: WARNING: This key is not certified with a trusted signature!\\ngpg:          There is no indication that the signature belongs to the owner.\\nPrimary key fingerprint: ED89 D966 33FF F7C2 C8D0  0255 4990 9F93 B919 737D\\n     Subkey fingerprint: C746 460F 2D9C FB3D 5985  BDA4 EEC0 9C65 CA1D E751\\n",
      "stdout": "",
      "statusfd": "[GNUPG:] NEWSIG\\n[GNUPG:] KEY_CONSIDERED ED89D96633FFF7C2C8D0025549909F93B919737D 0\\n[GNUPG:] SIG_ID AjdTCLvB0lg0/U/CQsBvB20Dd84 2022-12-20 1671553073\\n[GNUPG:] KEY_CONSIDERED ED89D96633FFF7C2C8D0025549909F93B919737D 0\\n[GNUPG:] GOODSIG EEC09C65CA1DE751 Alice Lovelace <alice@lovelace.name>\\n[GNUPG:] NOTATION_NAME salt@notations.sequoia-pgp.org\\n[GNUPG:] NOTATION_DATA \\xA7\\xC1\\x9BB\\x88%07\\x86\\xC2<5C\\xC3L\\x88\\xE8%09\\xA1\\xA5\\xDF%08\\xE5%12\\xFF\\x9Eu\\xBB%16D%1DD6V\\n[GNUPG:] VALIDSIG C746460F2D9CFB3D5985BDA4EEC09C65CA1DE751 2022-12-20 1671553073 0 4 0 19 10 00 ED89D96633FFF7C2C8D0025549909F93B919737D\\n[GNUPG:] KEY_CONSIDERED ED89D96633FFF7C2C8D0025549909F93B919737D 0\\n[GNUPG:] KEY_CONSIDERED ED89D96633FFF7C2C8D0025549909F93B919737D 0\\n[GNUPG:] TRUST_UNDEFINED 0 pgp\\n",
      "status": "exit status: 0",
      "files": {}
    },
    {
      "args": [
        "\"--faked-system-time=1671553073!\"",
        "\"--digest-algo=SHA512\"",
        "\"--detach-sign\"",
        "\"plaintext\""
      ],
      "inputs": [
        [
          "plaintext",
          [
            112,
            108,
            97,
            105,
            110,
            116,
            101,
            120,
            116
          ]
        ]
      ],
      "stderr": "gpg: WARNING: unsafe permissions on homedir '/HOMEDIR'\\ngpg: WARNING: running with faked system time: 2022-12-20 16:17:53\\n",
      "stdout": "",
      "statusfd": "[GNUPG:] KEY_CONSIDERED ED89D96633FFF7C2C8D0025549909F93B919737D 0\\n[GNUPG:] KEY_CONSIDERED ED89D96633FFF7C2C8D0025549909F93B919737D 0\\n[GNUPG:] BEGIN_SIGNING H10\\n[GNUPG:] SIG_CREATED D 19 10 00 1671553073 C746460F2D9CFB3D5985BDA4EEC09C65CA1DE751\\n",
      "status": "exit status: 0",
      "files": {
        "plaintext": "plaintext",
        "plaintext.sig": "\\x88\\xB7\\x04\\x00\\x13\\n\\x00\\x1D\\x16!\\x04\\xC7FF\\x0F-\\x9C\\xFB=Y\\x85\\xBD\\xA4\\xEE\\xC0\\x9Ce\\xCA\\x1D\\xE7Q\\x05\\x02c\\xA1\\xE01\\x00\\n\\t\\x10\\xEE\\xC0\\x9Ce\\xCA\\x1D\\xE7Q\\x1C'\\x02\\x05\\x1FŬ#\\x04\\xBD\\x8D\\xFAv\\x15\\x9C!\\xF8\\xB6%\\xD4\\x122\\xC4F\\xE9\\xF6\\x7F\\x1B\\xC9~\\x96\\t\\xC2\\xF5\\xE1/\\xE0\\xBD\\xC6\\xF3^\\x8D\\x0B\\xB0\\xE9\"\\xF4\\x03\\xCF$\\xAFh%\\xBB5\\x14/\\x88\\xD4l\\x05[3\\xF7\\xBB\\xF2\\x84\\x9BP\\x02\\x06!\\x03\\r`\\xB6\\xE0\\xF2\\x86\\x8DҼ\\xCFI\\x910h*\\xAC\\xB9*ھ\\xADKQ\\x01\\xCD\\xD9\\x12[L\\x90tѸ-\\xB9\\xCF16\\xA5\\xDB)\\xDE]u\\xC8\\x0F\\x0E\\x85\\xC1\\xF6\\xD6Z}\\x95\\x84\\x80-\\xD1o#>\\xBC\\xA1"
      }
    },
    {
      "args": [
        "\"--faked-system-time=1671553073!\"",
        "\"--verify\"",
        "\"/EXPERIMENT/signature\"",
        "\"/EXPERIMENT/data\""
      ],
      "stderr": "gpg: WARNING: unsafe permissions on homedir '/HOMEDIR'\\ngpg: WARNING: running with faked system time: 2022-12-20 16:17:53\\ngpg: Signature made Tue Dec 20 19:17:53 2022 EAT\\ngpg:                using ECDSA key C746460F2D9CFB3D5985BDA4EEC09C65CA1DE751\\ngpg: Good signature from \"Alice Lovelace <alice@lovelace.name>\" [unknown]\\ngpg: WARNING: This key is not certified with a trusted signature!\\ngpg:          There is no indication that the signature belongs to the owner.\\nPrimary key fingerprint: ED89 D966 33FF F7C2 C8D0  0255 4990 9F93 B919 737D\\n     Subkey fingerprint: C746 460F 2D9C FB3D 5985  BDA4 EEC0 9C65 CA1D E751\\n",
      "stdout": "",
      "statusfd": "[GNUPG:] NEWSIG\\n[GNUPG:] KEY_CONSIDERED ED89D96633FFF7C2C8D0025549909F93B919737D 0\\n[GNUPG:] SIG_ID 7gh2srPwTjFfz45X1/qPKmTgdwg 2022-12-20 1671553073\\n[GNUPG:] KEY_CONSIDERED ED89D96633FFF7C2C8D0025549909F93B919737D 0\\n[GNUPG:] GOODSIG EEC09C65CA1DE751 Alice Lovelace <alice@lovelace.name>\\n[GNUPG:] NOTATION_NAME salt@notations.sequoia-pgp.org\\n[GNUPG:] NOTATION_DATA \\xBC4O\\x8B\\xD4pPN\\xB2%04\\xD6\\xE2%1C\\x8C\\xE0\\x96\\xDD%09%1E\\xF0}\\xAD\\xFF!%7Fz\\xEF\\xA1\\xD1%1E\\xF3\\xAA\\n[GNUPG:] VALIDSIG C746460F2D9CFB3D5985BDA4EEC09C65CA1DE751 2022-12-20 1671553073 0 4 0 19 10 00 ED89D96633FFF7C2C8D0025549909F93B919737D\\n[GNUPG:] KEY_CONSIDERED ED89D96633FFF7C2C8D0025549909F93B919737D 0\\n[GNUPG:] KEY_CONSIDERED ED89D96633FFF7C2C8D0025549909F93B919737D 0\\n[GNUPG:] TRUST_UNDEFINED 0 pgp\\n",
      "status": "exit status: 0",
      "files": {}
    },
    {
      "args": [
        "\"--faked-system-time=1671553073!\"",
        "\"--verify\"",
        "\"/EXPERIMENT/signature\"",
        "\"/EXPERIMENT/data\""
      ],
      "stderr": "gpg: WARNING: unsafe permissions on homedir '/HOMEDIR'\\ngpg: WARNING: running with faked system time: 2022-12-20 16:17:53\\ngpg: Signature made Tue Dec 20 19:17:53 2022 EAT\\ngpg:                using ECDSA key C746460F2D9CFB3D5985BDA4EEC09C65CA1DE751\\ngpg: Good signature from \"Alice Lovelace <alice@lovelace.name>\" [unknown]\\ngpg: WARNING: This key is not certified with a trusted signature!\\ngpg:          There is no indication that the signature belongs to the owner.\\nPrimary key fingerprint: ED89 D966 33FF F7C2 C8D0  0255 4990 9F93 B919 737D\\n     Subkey fingerprint: C746 460F 2D9C FB3D 5985  BDA4 EEC0 9C65 CA1D E751\\n",
      "stdout": "",
      "statusfd": "[GNUPG:] NEWSIG\\n[GNUPG:] KEY_CONSIDERED ED89D96633FFF7C2C8D0025549909F93B919737D 0\\n[GNUPG:] SIG_ID YlCJuh+usAf9R0qZdDqskQKES+k 2022-12-20 1671553073\\n[GNUPG:] KEY_CONSIDERED ED89D96633FFF7C2C8D0025549909F93B919737D 0\\n[GNUPG:] GOODSIG EEC09C65CA1DE751 Alice Lovelace <alice@lovelace.name>\\n[GNUPG:] VALIDSIG C746460F2D9CFB3D5985BDA4EEC09C65CA1DE751 2022-12-20 1671553073 0 4 0 19 10 00 ED89D96633FFF7C2C8D0025549909F93B919737D\\n[GNUPG:] KEY_CONSIDERED ED89D96633FFF7C2C8D0025549909F93B919737D 0\\n[GNUPG:] KEY_CONSIDERED ED89D96633FFF7C2C8D0025549909F93B919737D 0\\n[GNUPG:] TRUST_UNDEFINED 0 pgp\\n",
      "status": "exit status: 0",
      "files": {}
    },
    {
      "args": [
        "\"--faked-system-time=1671553073!\"",
        "\"--digest-algo=SHA512\"",
        "\"--detach-sign\"",
        "\"--armor\"",
        "\"plaintext\""
      ],
      "inputs": [
        [
          "plaintext",
          [
            112,
            108,
            97,
            105,
            110,
            116,
            101,
            120,
            116
          ]
        ]
      ],
      "stderr": "gpg: WARNING: unsafe permissions on homedir '/HOMEDIR'\\ngpg: WARNING: running with faked system time: 2022-12-20 16:17:53\\n",
      "stdout": "",
      "statusfd": "[GNUPG:] KEY_CONSIDERED ED89D96633FFF7C2C8D0025549909F93B919737D 0\\n[GNUPG:] KEY_CONSIDERED ED89D96633FFF7C2C8D0025549909F93B919737D 0\\n[GNUPG:] BEGIN_SIGNING H10\\n[GNUPG:] SIG_CREATED D 19 10 00 1671553073 C746460F2D9CFB3D5985BDA4EEC09C65CA1DE751\\n",
      "status": "exit status: 0",
      "files": {
        "plaintext": "plaintext",
        "plaintext.asc": "-----BEGIN PGP SIGNATURE-----\\n\\niLcEABMKAB0WIQTHRkYPLZz7PVmFvaTuwJxlyh3nUQUCY6HgMQAKCRDuwJxlyh3n\\nURwnAgUfxawjBL2N+nYVnCH4tiXUEjLERun2fxvJfpYJwvXhL+C9xvNejQuw6SL0\\nA88kr2gluzUUL4jUbAVbM/e78oSbUAIGIQMNYLbg8oaN0rzPSZEwaCqsuSravq1L\\nUQHN2RJbTJB00bgtuc8xNqXbKd5ddcgPDoXB9tZafZWEgC3RbyM+vKE=\\n=B3c+\\n-----END PGP SIGNATURE-----\\n"
      }
    },
    {
      "args": [
        "\"--faked-system-time=1671553073!\"",
        "\"--verify\"",
        "\"/EXPERIMENT/signature\"",
        "\"/EXPERIMENT/data\""
      ],
      "stderr": "gpg: WARNING: unsafe permissions on homedir '/HOMEDIR'\\ngpg: WARNING: running with faked system time: 2022-12-20 16:17:53\\ngpg: Signature made Tue Dec 20 19:17:53 2022 EAT\\ngpg:                using ECDSA key C746460F2D9CFB3D5985BDA4EEC09C65CA1DE751\\ngpg: Good signature from \"Alice Lovelace <alice@lovelace.name>\" [unknown]\\ngpg: WARNING: This key is not certified with a trusted signature!\\ngpg:          There is no indication that the signature belongs to the owner.\\nPrimary key fingerprint: ED89 D966 33FF F7C2 C8D0  0255 4990 9F93 B919 737D\\n     Subkey fingerprint: C746 460F 2D9C FB3D 5985  BDA4 EEC0 9C65 CA1D E751\\n",
      "stdout": "",
      "statusfd": "[GNUPG:] NEWSIG\\n[GNUPG:] KEY_CONSIDERED ED89D96633FFF7C2C8D0025549909F93B919737D 0\\n[GNUPG:] SIG_ID 0wgL8ErJciZhrOs43/W8Cfb6RTw 2022-12-20 1671553073\\n[GNUPG:] KEY_CONSIDERED ED89D96633FFF7C2C8D0025549909F93B919737D 0\\n[GNUPG:] GOODSIG EEC09C65CA1DE751 Alice Lovelace <alice@lovelace.name>\\n[GNUPG:] NOTATION_NAME salt@notations.sequoia-pgp.org\\n[GNUPG:] NOTATION_DATA 3^\"R\\xBA%7FͿ\\x95#쑲\\xCFF%13\\xAB+\\x87<%18zg\\xD7\\xDA\\x80\\xF4\\xEE\\x8C>%1B`\\n[GNUPG:] VALIDSIG C746460F2D9CFB3D5985BDA4EEC09C65CA1DE751 2022-12-20 1671553073 0 4 0 19 10 00 ED89D96633FFF7C2C8D0025549909F93B919737D\\n[GNUPG:] KEY_CONSIDERED ED89D96633FFF7C2C8D0025549909F93B919737D 0\\n[GNUPG:] KEY_CONSIDERED ED89D96633FFF7C2C8D0025549909F93B919737D 0\\n[GNUPG:] TRUST_UNDEFINED 0 pgp\\n",
      "status": "exit status: 0",
      "files": {}
    },
    {
      "args": [
        "\"--faked-system-time=1671553073!\"",
        "\"--verify\"",
        "\"/EXPERIMENT/signature\"",
        "\"/EXPERIMENT/data\""
      ],
      "stderr": "gpg: WARNING: unsafe permissions on homedir '/HOMEDIR'\\ngpg: WARNING: running with faked system time: 2022-12-20 16:17:53\\ngpg: Signature made Tue Dec 20 19:17:53 2022 EAT\\ngpg:                using ECDSA key C746460F2D9CFB3D5985BDA4EEC09C65CA1DE751\\ngpg: Good signature from \"Alice Lovelace <alice@lovelace.name>\" [unknown]\\ngpg: WARNING: This key is not certified with a trusted signature!\\ngpg:          There is no indication that the signature belongs to the owner.\\nPrimary key fingerprint: ED89 D966 33FF F7C2 C8D0  0255 4990 9F93 B919 737D\\n     Subkey fingerprint: C746 460F 2D9C FB3D 5985  BDA4 EEC0 9C65 CA1D E751\\n",
      "stdout": "",
      "statusfd": "[GNUPG:] NEWSIG\\n[GNUPG:] KEY_CONSIDERED ED89D96633FFF7C2C8D0025549909F93B919737D 0\\n[GNUPG:] SIG_ID YlCJuh+usAf9R0qZdDqskQKES+k 2022-12-20 1671553073\\n[GNUPG:] KEY_CONSIDERED ED89D96633FFF7C2C8D0025549909F93B919737D 0\\n[GNUPG:] GOODSIG EEC09C65CA1DE751 Alice Lovelace <alice@lovelace.name>\\n[GNUPG:] VALIDSIG C746460F2D9CFB3D5985BDA4EEC09C65CA1DE751 2022-12-20 1671553073 0 4 0 19 10 00 ED89D96633FFF7C2C8D0025549909F93B919737D\\n[GNUPG:] KEY_CONSIDERED ED89D96633FFF7C2C8D0025549909F93B919737D 0\\n[GNUPG:] KEY_CONSIDERED ED89D96633FFF7C2C8D0025549909F93B919737D 0\\n[GNUPG:] TRUST_UNDEFINED 0 pgp\\n",
      "status": "exit status: 0",
      "files": {}
    }
  ],
  "former_us_outputs": [
    {
      "args": [
        "\"--faked-system-time=1671553073!\"",
        "\"--list-keys\""
      ],
      "stderr": "gpg: WARNING: unsafe permissions on homedir '/HOMEDIR'\\ngpg: WARNING: running with faked system time: 2022-12-20 16:17:53\\n",
      "stdout": "",
      "statusfd": "",
      "status": "exit status: 0",
      "files": {}
    },
    {
      "args": [
        "\"--faked-system-time=1671553073!\"",
        "\"--import\"",
        "\"/EXPERIMENT/key\""
      ],
      "stderr": "gpg: WARNING: unsafe permissions on homedir '/HOMEDIR'\\ngpg: WARNING: running with faked system time: 2022-12-20 16:17:53\\ngpg: key 49909F93B919737D: public key \"Alice Lovelace <alice@lovelace.name>\" imported\\ngpg: key 49909F93B919737D: secret key imported\\ngpg: Total number processed: 1\\ngpg:               imported: 1\\ngpg:       secret keys read: 1\\ngpg:   secret keys imported: 1\\n",
      "stdout": "",
      "statusfd": "[GNUPG:] KEY_CONSIDERED ED89D96633FFF7C2C8D0025549909F93B919737D 0\\n[GNUPG:] IMPORTED 49909F93B919737D Alice Lovelace <alice@lovelace.name>\\n[GNUPG:] IMPORT_OK 1 ED89D96633FFF7C2C8D0025549909F93B919737D\\n[GNUPG:] IMPORT_OK 17 ED89D96633FFF7C2C8D0025549909F93B919737D\\n[GNUPG:] IMPORT_RES 1 0 1 0 0 0 0 0 0 1 1 0 0 0 0\\n",
      "status": "exit status: 0",
      "files": {}
    },
    {
      "args": [
        "\"--faked-system-time=1671553073!\"",
        "\"--digest-algo=SHA512\"",
        "\"--sign\"",
        "\"--output\"",
        "\"signature\"",
        "\"/EXPERIMENT/plaintext\""
      ],
      "stderr": "gpg: WARNING: unsafe permissions on homedir '/HOMEDIR'\\ngpg: WARNING: running with faked system time: 2022-12-20 16:17:53\\n",
      "stdout": "",
      "statusfd": "[GNUPG:] KEY_CONSIDERED ED89D96633FFF7C2C8D0025549909F93B919737D 0\\n[GNUPG:] KEY_CONSIDERED ED89D96633FFF7C2C8D0025549909F93B919737D 0\\n[GNUPG:] BEGIN_SIGNING H10\\n[GNUPG:] SIG_CREATED S 19 10 00 1671553073 C746460F2D9CFB3D5985BDA4EEC09C65CA1DE751\\n",
      "status": "exit status: 0",
      "files": {
        "signature": "\\xC4\\r\\x03\\x00\\n\\x13\\xEE\\xC0\\x9Ce\\xCA\\x1D\\xE7Q\\x01\\xCB\\x0Fb\\x00\\x00\\x00\\x00\\x00plaintext\\xC2\\xC0@\\x04\\x00\\x13\\n\\x00o\\x05\\x82c\\xA1\\xE01\\t\\x10\\xEE\\xC0\\x9Ce\\xCA\\x1D\\xE7QG\\x14\\x00\\x00\\x00\\x00\\x00\\x1E\\x00 salt@notations.sequoia-pgp.org{\\x92\\npHEG[\\x03J\\x1A\\xACKO\\xE9\\x17\\x89\\x9F\\xFC\\x1C\\xC3o\\x8AȌZ\\x04\\x1Afc\\x8F\\xF8\\x16!\\x04\\xC7FF\\x0F-\\x9C\\xFB=Y\\x85\\xBD\\xA4\\xEE\\xC0\\x9Ce\\xCA\\x1D\\xE7Q\\x00\\x00d\\xB7\\x02\\x08\\x8E\\xEEe\\xA9\\xBDr\\x93?>\\xBC\\xA7\\x0E\\x97y\\xD4\\xCD`W\\x98\\xAF(\\xAFu\\x87-\\xFB÷\\xF7b\\xE9R+d\\x02\\xFDC4%\\xD2h\\xD38o\\x041\\xE3\\x9C\\xC38\\x83\\x82[sP\\xE2\\xC0۬\\xE7\\xC6\\xC7R\\xFD[\\x02\\t\\x01\\x02\\xF9\\xE0\\xE7k~\\xA6\\x87S\\xA6]\\xEE\\xE0\\xE2\\xF4?G\\x7F\\xAAn\\x80wv'\\x03go\\xEB\\xDC\\x07ڋ\\x1F\\xABc\\x86,MB\\xEA@\\n<\\xED\\xCD\\xC7\\x17E\\xA7\\xB3\\xFD-\\xFC\\x1A\\xE2X\\xA4ٛ\\x12\\x80\\xE2I\\xB5\\xC7"
      }
    },
    {
      "args": [
        "\"--faked-system-time=1671553073!\"",
        "\"--verify\"",
        "\"--output\"",
        "\"output\"",
        "\"/EXPERIMENT/signature\""
      ],
      "stderr": "gpg: WARNING: unsafe permissions on homedir '/HOMEDIR'\\ngpg: WARNING: running with faked system time: 2022-12-20 16:17:53\\ngpg: Signature made Tue Dec 20 19:17:53 2022 +03:00\\ngpg:                using ECDSA key C746460F2D9CFB3D5985BDA4EEC09C65CA1DE751\\ngpg: Good signature from \"Alice Lovelace <alice@lovelace.name>\" [unknown]\\ngpg: WARNING: This key is not certified with a trusted signature!\\ngpg:          There is no indication that the signature belongs to the owner.\\nPrimary key fingerprint: ED89 D966 33FF F7C2 C8D0  0255 4990 9F93 B919 737D\\n     Subkey fingerprint: C746 460F 2D9C FB3D 5985  BDA4 EEC0 9C65 CA1D E751\\n",
      "stdout": "",
      "statusfd": "[GNUPG:] PLAINTEXT 62 1671553073 plaintext\\n[GNUPG:] PLAINTEXT_LENGTH 9\\n[GNUPG:] NEWSIG\\n[GNUPG:] KEY_CONSIDERED ED89D96633FFF7C2C8D0025549909F93B919737D 0\\n[GNUPG:] SIG_ID <CANONICALIZED> 2022-12-20 1671553073\\n[GNUPG:] KEY_CONSIDERED ED89D96633FFF7C2C8D0025549909F93B919737D 0\\n[GNUPG:] GOODSIG EEC09C65CA1DE751 Alice Lovelace <alice@lovelace.name>\\n[GNUPG:] VALIDSIG C746460F2D9CFB3D5985BDA4EEC09C65CA1DE751 2022-12-20 1671553073 0 4 0 19 10 00 ED89D96633FFF7C2C8D0025549909F93B919737D\\n[GNUPG:] KEY_CONSIDERED ED89D96633FFF7C2C8D0025549909F93B919737D 0\\n[GNUPG:] KEY_CONSIDERED ED89D96633FFF7C2C8D0025549909F93B919737D 0\\n[GNUPG:] TRUST_UNDEFINED 0 pgp\\n",
      "status": "exit status: 0",
      "files": {
        "output": "plaintext"
      }
    },
    {
      "args": [
        "\"--faked-system-time=1671553073!\"",
        "\"--verify\"",
        "\"--output\"",
        "\"output\"",
        "\"/EXPERIMENT/signature\""
      ],
      "stderr": "gpg: WARNING: unsafe permissions on homedir '/HOMEDIR'\\ngpg: WARNING: running with faked system time: 2022-12-20 16:17:53\\ngpg: Signature made Tue Dec 20 19:17:53 2022 +03:00\\ngpg:                using ECDSA key C746460F2D9CFB3D5985BDA4EEC09C65CA1DE751\\ngpg: Good signature from \"Alice Lovelace <alice@lovelace.name>\" [unknown]\\ngpg: WARNING: This key is not certified with a trusted signature!\\ngpg:          There is no indication that the signature belongs to the owner.\\nPrimary key fingerprint: ED89 D966 33FF F7C2 C8D0  0255 4990 9F93 B919 737D\\n     Subkey fingerprint: C746 460F 2D9C FB3D 5985  BDA4 EEC0 9C65 CA1D E751\\n",
      "stdout": "",
      "statusfd": "[GNUPG:] PLAINTEXT 62 0 \\n[GNUPG:] PLAINTEXT_LENGTH 9\\n[GNUPG:] NEWSIG\\n[GNUPG:] KEY_CONSIDERED ED89D96633FFF7C2C8D0025549909F93B919737D 0\\n[GNUPG:] SIG_ID <CANONICALIZED> 2022-12-20 1671553073\\n[GNUPG:] KEY_CONSIDERED ED89D96633FFF7C2C8D0025549909F93B919737D 0\\n[GNUPG:] GOODSIG EEC09C65CA1DE751 Alice Lovelace <alice@lovelace.name>\\n[GNUPG:] NOTATION_NAME salt@notations.sequoia-pgp.org\\n[GNUPG:] NOTATION_DATA <CANONICALIZED>[GNUPG:] VALIDSIG C746460F2D9CFB3D5985BDA4EEC09C65CA1DE751 2022-12-20 1671553073 0 4 0 19 10 00 ED89D96633FFF7C2C8D0025549909F93B919737D\\n[GNUPG:] KEY_CONSIDERED ED89D96633FFF7C2C8D0025549909F93B919737D 0\\n[GNUPG:] KEY_CONSIDERED ED89D96633FFF7C2C8D0025549909F93B919737D 0\\n[GNUPG:] TRUST_UNDEFINED 0 pgp\\n",
      "status": "exit status: 0",
      "files": {
        "output": "plaintext"
      }
    },
    {
      "args": [
        "\"--faked-system-time=1671553073!\"",
        "\"--digest-algo=SHA512\"",
        "\"--sign\"",
        "\"--textmode\"",
        "\"--output\"",
        "\"signature\"",
        "\"/EXPERIMENT/plaintext\""
      ],
      "stderr": "gpg: WARNING: unsafe permissions on homedir '/HOMEDIR'\\ngpg: WARNING: running with faked system time: 2022-12-20 16:17:53\\n",
      "stdout": "",
      "statusfd": "[GNUPG:] KEY_CONSIDERED ED89D96633FFF7C2C8D0025549909F93B919737D 0\\n[GNUPG:] KEY_CONSIDERED ED89D96633FFF7C2C8D0025549909F93B919737D 0\\n[GNUPG:] BEGIN_SIGNING H10\\n[GNUPG:] SIG_CREATED S 19 10 01 1671553073 C746460F2D9CFB3D5985BDA4EEC09C65CA1DE751\\n",
      "status": "exit status: 0",
      "files": {
        "signature": "\\xC4\\r\\x03\\x01\\n\\x13\\xEE\\xC0\\x9Ce\\xCA\\x1D\\xE7Q\\x01\\xCB\\x0Fb\\x00\\x00\\x00\\x00\\x00plaintext\\xC2\\xC0A\\x04\\x01\\x13\\n\\x00o\\x05\\x82c\\xA1\\xE01\\t\\x10\\xEE\\xC0\\x9Ce\\xCA\\x1D\\xE7QG\\x14\\x00\\x00\\x00\\x00\\x00\\x1E\\x00 salt@notations.sequoia-pgp.org\\x1E*v\\xAE+\\xA1\\xB4\\x84\\x88<\\xEB\\x98\\xD6eL\\n\\xC7\\xC4\\xF6{%\\xC4+\\xB6p\\x9DIAY\\x8B\\x11\\xE3\\x16!\\x04\\xC7FF\\x0F-\\x9C\\xFB=Y\\x85\\xBD\\xA4\\xEE\\xC0\\x9Ce\\xCA\\x1D\\xE7Q\\x00\\x00\\xED\\x9B\\x02\\t\\x01\\xCDz\\xFD\\x93i!\\x8E(&\\xE8d\\xCC!\\xBC\\xA9؞^\"\\x9CA\\x19\\x8A\\xBF\\xBD\\xBB9\\x97\\xAB\\rv\\xEB|+ζ\\xBE%\\x8D\\x1B\\x0FK\\xAD\\x16\\xF2<\\x03͋\\xE4Y\\xA3\\x04N\\xF0\\xE61|\\xD3d&\\x07,F\\xD5\\x02\\t\\x01n\\x07\\xFEj\\xF0\\xB9\\xEAM\\xAC\\xBF\"\\x0E\\xE7A\\xE2\\xDCb\\x0E\\x89\\x85yo4\\x9B\\x16O-^\\xC6.jH\\x16{#\\xAE\\x1C\\xF3m]\\x0B`9\\xA0\\x0F\\x8C\\x17\\xFF\\x87\\xF9\\x95<\\xBE\\x0F\\xBA\\x18W\\xB0\\x8E\\xC87{첾"
      }
    },
    {
      "args": [
        "\"--faked-system-time=1671553073!\"",
        "\"--verify\"",
        "\"--output\"",
        "\"output\"",
        "\"/EXPERIMENT/signature\""
      ],
      "stderr": "gpg: WARNING: unsafe permissions on homedir '/HOMEDIR'\\ngpg: WARNING: running with faked system time: 2022-12-20 16:17:53\\ngpg: Signature made Tue Dec 20 19:17:53 2022 +03:00\\ngpg:                using ECDSA key C746460F2D9CFB3D5985BDA4EEC09C65CA1DE751\\ngpg: Good signature from \"Alice Lovelace <alice@lovelace.name>\" [unknown]\\ngpg: WARNING: This key is not certified with a trusted signature!\\ngpg:          There is no indication that the signature belongs to the owner.\\nPrimary key fingerprint: ED89 D966 33FF F7C2 C8D0  0255 4990 9F93 B919 737D\\n     Subkey fingerprint: C746 460F 2D9C FB3D 5985  BDA4 EEC0 9C65 CA1D E751\\n",
      "stdout": "",
      "statusfd": "[GNUPG:] PLAINTEXT 74 1671553073 plaintext\\n[GNUPG:] PLAINTEXT_LENGTH 9\\n[GNUPG:] NEWSIG\\n[GNUPG:] KEY_CONSIDERED ED89D96633FFF7C2C8D0025549909F93B919737D 0\\n[GNUPG:] SIG_ID <CANONICALIZED> 2022-12-20 1671553073\\n[GNUPG:] KEY_CONSIDERED ED89D96633FFF7C2C8D0025549909F93B919737D 0\\n[GNUPG:] GOODSIG EEC09C65CA1DE751 Alice Lovelace <alice@lovelace.name>\\n[GNUPG:] VALIDSIG C746460F2D9CFB3D5985BDA4EEC09C65CA1DE751 2022-12-20 1671553073 0 4 0 19 10 01 ED89D96633FFF7C2C8D0025549909F93B919737D\\n[GNUPG:] KEY_CONSIDERED ED89D96633FFF7C2C8D0025549909F93B919737D 0\\n[GNUPG:] KEY_CONSIDERED ED89D96633FFF7C2C8D0025549909F93B919737D 0\\n[GNUPG:] TRUST_UNDEFINED 0 pgp\\n",
      "status": "exit status: 0",
      "files": {
        "output": "plaintext"
      }
    },
    {
      "args": [
        "\"--faked-system-time=1671553073!\"",
        "\"--verify\"",
        "\"--output\"",
        "\"output\"",
        "\"/EXPERIMENT/signature\""
      ],
      "stderr": "gpg: WARNING: unsafe permissions on homedir '/HOMEDIR'\\ngpg: WARNING: running with faked system time: 2022-12-20 16:17:53\\ngpg: Signature made Tue Dec 20 19:17:53 2022 +03:00\\ngpg:                using ECDSA key C746460F2D9CFB3D5985BDA4EEC09C65CA1DE751\\ngpg: Good signature from \"Alice Lovelace <alice@lovelace.name>\" [unknown]\\ngpg: WARNING: This key is not certified with a trusted signature!\\ngpg:          There is no indication that the signature belongs to the owner.\\nPrimary key fingerprint: ED89 D966 33FF F7C2 C8D0  0255 4990 9F93 B919 737D\\n     Subkey fingerprint: C746 460F 2D9C FB3D 5985  BDA4 EEC0 9C65 CA1D E751\\n",
      "stdout": "",
      "statusfd": "[GNUPG:] PLAINTEXT 62 0 \\n[GNUPG:] PLAINTEXT_LENGTH 9\\n[GNUPG:] NEWSIG\\n[GNUPG:] KEY_CONSIDERED ED89D96633FFF7C2C8D0025549909F93B919737D 0\\n[GNUPG:] SIG_ID <CANONICALIZED> 2022-12-20 1671553073\\n[GNUPG:] KEY_CONSIDERED ED89D96633FFF7C2C8D0025549909F93B919737D 0\\n[GNUPG:] GOODSIG EEC09C65CA1DE751 Alice Lovelace <alice@lovelace.name>\\n[GNUPG:] NOTATION_NAME salt@notations.sequoia-pgp.org\\n[GNUPG:] NOTATION_DATA <CANONICALIZED>[GNUPG:] VALIDSIG C746460F2D9CFB3D5985BDA4EEC09C65CA1DE751 2022-12-20 1671553073 0 4 0 19 10 01 ED89D96633FFF7C2C8D0025549909F93B919737D\\n[GNUPG:] KEY_CONSIDERED ED89D96633FFF7C2C8D0025549909F93B919737D 0\\n[GNUPG:] KEY_CONSIDERED ED89D96633FFF7C2C8D0025549909F93B919737D 0\\n[GNUPG:] TRUST_UNDEFINED 0 pgp\\n",
      "status": "exit status: 0",
      "files": {
        "output": "plaintext"
      }
    },
    {
      "args": [
        "\"--faked-system-time=1671553073!\"",
        "\"--digest-algo=SHA512\"",
        "\"--clear-sign\"",
        "\"--output\"",
        "\"signature\"",
        "\"/EXPERIMENT/plaintext\""
      ],
      "stderr": "gpg: WARNING: unsafe permissions on homedir '/HOMEDIR'\\ngpg: WARNING: running with faked system time: 2022-12-20 16:17:53\\n",
      "stdout": "",
      "statusfd": "[GNUPG:] KEY_CONSIDERED ED89D96633FFF7C2C8D0025549909F93B919737D 0\\n[GNUPG:] KEY_CONSIDERED ED89D96633FFF7C2C8D0025549909F93B919737D 0\\n[GNUPG:] BEGIN_SIGNING H10\\n[GNUPG:] SIG_CREATED C 19 10 01 1671553073 C746460F2D9CFB3D5985BDA4EEC09C65CA1DE751\\n",
      "status": "exit status: 0",
      "files": {
        "signature": "-----BEGIN PGP SIGNED MESSAGE-----\\nHash: SHA512\\n\\nplaintext\\n-----BEGIN PGP SIGNATURE-----\\n\\nwsBABAETCgBvBYJjoeAxCRDuwJxlyh3nUUcUAAAAAAAeACBzYWx0QG5vdGF0aW9u\\ncy5zZXF1b2lhLXBncC5vcmdD7OXmTu/3tCy9JsQkwuSp+7UZdXWiPL3JhtEkSvCQ\\n7hYhBMdGRg8tnPs9WYW9pO7AnGXKHedRAAAaoQIHQDfIALBG17kZ6qvY0kaHG8qv\\n2jSUrYg5I2xFmQuTsCNuMNUb2vRc1s7Vx6W0OttLsvTqGxhtnoIRqpxbLyQEUp4C\\nCQGDh2SRcTUDV5/9kJ1c572rPR2J75kNF35Uz8nCov5vrjaMbmjpignkakhVfrz2\\nKHuNlx3e1U8YS/82ZbQ4RMZDmw==\\n=C9+b\\n-----END PGP SIGNATURE-----\\n"
      }
    },
    {
      "args": [
        "\"--faked-system-time=1671553073!\"",
        "\"--verify\"",
        "\"--output\"",
        "\"output\"",
        "\"/EXPERIMENT/signature\""
      ],
      "stderr": "gpg: WARNING: unsafe permissions on homedir '/HOMEDIR'\\ngpg: WARNING: running with faked system time: 2022-12-20 16:17:53\\ngpg: Signature made Tue Dec 20 19:17:53 2022 +03:00\\ngpg:                using ECDSA key C746460F2D9CFB3D5985BDA4EEC09C65CA1DE751\\ngpg: Good signature from \"Alice Lovelace <alice@lovelace.name>\" [unknown]\\ngpg: WARNING: This key is not certified with a trusted signature!\\ngpg:          There is no indication that the signature belongs to the owner.\\nPrimary key fingerprint: ED89 D966 33FF F7C2 C8D0  0255 4990 9F93 B919 737D\\n     Subkey fingerprint: C746 460F 2D9C FB3D 5985  BDA4 EEC0 9C65 CA1D E751\\n",
      "stdout": "",
      "statusfd": "[GNUPG:] PLAINTEXT 74 0 \\n[GNUPG:] PLAINTEXT_LENGTH 9\\n[GNUPG:] NEWSIG\\n[GNUPG:] KEY_CONSIDERED ED89D96633FFF7C2C8D0025549909F93B919737D 0\\n[GNUPG:] SIG_ID <CANONICALIZED> 2022-12-20 1671553073\\n[GNUPG:] KEY_CONSIDERED ED89D96633FFF7C2C8D0025549909F93B919737D 0\\n[GNUPG:] GOODSIG EEC09C65CA1DE751 Alice Lovelace <alice@lovelace.name>\\n[GNUPG:] VALIDSIG C746460F2D9CFB3D5985BDA4EEC09C65CA1DE751 2022-12-20 1671553073 0 4 0 19 10 01 ED89D96633FFF7C2C8D0025549909F93B919737D\\n[GNUPG:] KEY_CONSIDERED ED89D96633FFF7C2C8D0025549909F93B919737D 0\\n[GNUPG:] KEY_CONSIDERED ED89D96633FFF7C2C8D0025549909F93B919737D 0\\n[GNUPG:] TRUST_UNDEFINED 0 pgp\\n",
      "status": "exit status: 0",
      "files": {
        "output": "plaintext"
      }
    },
    {
      "args": [
        "\"--faked-system-time=1671553073!\"",
        "\"--verify\"",
        "\"--output\"",
        "\"output\"",
        "\"/EXPERIMENT/signature\""
      ],
      "stderr": "gpg: WARNING: unsafe permissions on homedir '/HOMEDIR'\\ngpg: WARNING: running with faked system time: 2022-12-20 16:17:53\\ngpg: Signature made Tue Dec 20 19:17:53 2022 +03:00\\ngpg:                using ECDSA key C746460F2D9CFB3D5985BDA4EEC09C65CA1DE751\\ngpg: Good signature from \"Alice Lovelace <alice@lovelace.name>\" [unknown]\\ngpg: WARNING: This key is not certified with a trusted signature!\\ngpg:          There is no indication that the signature belongs to the owner.\\nPrimary key fingerprint: ED89 D966 33FF F7C2 C8D0  0255 4990 9F93 B919 737D\\n     Subkey fingerprint: C746 460F 2D9C FB3D 5985  BDA4 EEC0 9C65 CA1D E751\\n",
      "stdout": "",
      "statusfd": "[GNUPG:] PLAINTEXT 74 0 \\n[GNUPG:] PLAINTEXT_LENGTH 9\\n[GNUPG:] NEWSIG\\n[GNUPG:] KEY_CONSIDERED ED89D96633FFF7C2C8D0025549909F93B919737D 0\\n[GNUPG:] SIG_ID <CANONICALIZED> 2022-12-20 1671553073\\n[GNUPG:] KEY_CONSIDERED ED89D96633FFF7C2C8D0025549909F93B919737D 0\\n[GNUPG:] GOODSIG EEC09C65CA1DE751 Alice Lovelace <alice@lovelace.name>\\n[GNUPG:] NOTATION_NAME salt@notations.sequoia-pgp.org\\n[GNUPG:] NOTATION_DATA <CANONICALIZED>[GNUPG:] VALIDSIG C746460F2D9CFB3D5985BDA4EEC09C65CA1DE751 2022-12-20 1671553073 0 4 0 19 10 01 ED89D96633FFF7C2C8D0025549909F93B919737D\\n[GNUPG:] KEY_CONSIDERED ED89D96633FFF7C2C8D0025549909F93B919737D 0\\n[GNUPG:] KEY_CONSIDERED ED89D96633FFF7C2C8D0025549909F93B919737D 0\\n[GNUPG:] TRUST_UNDEFINED 0 pgp\\n",
      "status": "exit status: 0",
      "files": {
        "output": "plaintext"
      }
    },
    {
      "args": [
        "\"--faked-system-time=1671553073!\"",
        "\"--digest-algo=SHA512\"",
        "\"--detach-sign\"",
        "\"--output\"",
        "\"signature\"",
        "\"/EXPERIMENT/plaintext\""
      ],
      "stderr": "gpg: WARNING: unsafe permissions on homedir '/HOMEDIR'\\ngpg: WARNING: running with faked system time: 2022-12-20 16:17:53\\n",
      "stdout": "",
      "statusfd": "[GNUPG:] KEY_CONSIDERED ED89D96633FFF7C2C8D0025549909F93B919737D 0\\n[GNUPG:] KEY_CONSIDERED ED89D96633FFF7C2C8D0025549909F93B919737D 0\\n[GNUPG:] BEGIN_SIGNING H10\\n[GNUPG:] SIG_CREATED D 19 10 00 1671553073 C746460F2D9CFB3D5985BDA4EEC09C65CA1DE751\\n",
      "status": "exit status: 0",
      "files": {
        "signature": "\\xC2\\xC0A\\x04\\x00\\x13\\n\\x00o\\x05\\x82c\\xA1\\xE01\\t\\x10\\xEE\\xC0\\x9Ce\\xCA\\x1D\\xE7QG\\x14\\x00\\x00\\x00\\x00\\x00\\x1E\\x00 salt@notations.sequoia-pgp.org\\xA7\\xC1\\x9BB\\x88\\x07\\x86\\xC2<5C\\xC3L\\x88\\xE8\\t\\xA1\\xA5\\xDF\\x08\\xE5\\x12\\xFF\\x9Eu\\xBB\\x16D\\x1DD6V\\x16!\\x04\\xC7FF\\x0F-\\x9C\\xFB=Y\\x85\\xBD\\xA4\\xEE\\xC0\\x9Ce\\xCA\\x1D\\xE7Q\\x00\\x00\\xAB\\x99\\x02\\t\\x01\\x8F\\xC05\\xF0<\\x04\\x85\\x99<\\xD8\\xFE5\\x82\\xB0\\xC6xV¶\\x89a\\xF2\\xD3\\xB0/L\\xC02<\\x01(w\\xCF\\xC8\\xD8R\\x97\\xEF]\\x1BL[풛\\x92X\\x8B#\\x04\\xC0\\x0B\\x95\\xEE\\x13Ϣ\\xD6\\xE39\\xFA\\xC1Y\\x0B\\xCB\\x02\\t\\x01i\\x89x\\xFF\\xD0LH\\xD6\\xC9BQ\\xD4z\\x80\\xC5~\\xF7\\xDB\\xD4ѢV\\x17V\\xE8\\x91W\\xA7}~Z0{|\\xE5\\xF9?\\x18\\xB2\\xFB\\xCCr(\\xB4(\\x01!\\xE5\\n\\xBC/6\\xB4M\\x98\\x8D\\x93n\\x00i١E\\xFCO"
      }
    },
    {
      "args": [
        "\"--faked-system-time=1671553073!\"",
        "\"--verify\"",
        "\"/EXPERIMENT/signature\"",
        "\"/EXPERIMENT/data\""
      ],
      "stderr": "gpg: WARNING: unsafe permissions on homedir '/HOMEDIR'\\ngpg: WARNING: running with faked system time: 2022-12-20 16:17:53\\ngpg: Signature made Tue Dec 20 19:17:53 2022 +03:00\\ngpg:                using ECDSA key C746460F2D9CFB3D5985BDA4EEC09C65CA1DE751\\ngpg: Good signature from \"Alice Lovelace <alice@lovelace.name>\" [unknown]\\ngpg: WARNING: This key is not certified with a trusted signature!\\ngpg:          There is no indication that the signature belongs to the owner.\\nPrimary key fingerprint: ED89 D966 33FF F7C2 C8D0  0255 4990 9F93 B919 737D\\n     Subkey fingerprint: C746 460F 2D9C FB3D 5985  BDA4 EEC0 9C65 CA1D E751\\n",
      "stdout": "",
      "statusfd": "[GNUPG:] NEWSIG\\n[GNUPG:] KEY_CONSIDERED ED89D96633FFF7C2C8D0025549909F93B919737D 0\\n[GNUPG:] SIG_ID <CANONICALIZED> 2022-12-20 1671553073\\n[GNUPG:] KEY_CONSIDERED ED89D96633FFF7C2C8D0025549909F93B919737D 0\\n[GNUPG:] GOODSIG EEC09C65CA1DE751 Alice Lovelace <alice@lovelace.name>\\n[GNUPG:] VALIDSIG C746460F2D9CFB3D5985BDA4EEC09C65CA1DE751 2022-12-20 1671553073 0 4 0 19 10 00 ED89D96633FFF7C2C8D0025549909F93B919737D\\n[GNUPG:] KEY_CONSIDERED ED89D96633FFF7C2C8D0025549909F93B919737D 0\\n[GNUPG:] KEY_CONSIDERED ED89D96633FFF7C2C8D0025549909F93B919737D 0\\n[GNUPG:] TRUST_UNDEFINED 0 pgp\\n",
      "status": "exit status: 0",
      "files": {}
    },
    {
      "args": [
        "\"--faked-system-time=1671553073!\"",
        "\"--verify\"",
        "\"/EXPERIMENT/signature\"",
        "\"/EXPERIMENT/data\""
      ],
      "stderr": "gpg: WARNING: unsafe permissions on homedir '/HOMEDIR'\\ngpg: WARNING: running with faked system time: 2022-12-20 16:17:53\\ngpg: Signature made Tue Dec 20 19:17:53 2022 +03:00\\ngpg:                using ECDSA key C746460F2D9CFB3D5985BDA4EEC09C65CA1DE751\\ngpg: Good signature from \"Alice Lovelace <alice@lovelace.name>\" [unknown]\\ngpg: WARNING: This key is not certified with a trusted signature!\\ngpg:          There is no indication that the signature belongs to the owner.\\nPrimary key fingerprint: ED89 D966 33FF F7C2 C8D0  0255 4990 9F93 B919 737D\\n     Subkey fingerprint: C746 460F 2D9C FB3D 5985  BDA4 EEC0 9C65 CA1D E751\\n",
      "stdout": "",
      "statusfd": "[GNUPG:] NEWSIG\\n[GNUPG:] KEY_CONSIDERED ED89D96633FFF7C2C8D0025549909F93B919737D 0\\n[GNUPG:] SIG_ID <CANONICALIZED> 2022-12-20 1671553073\\n[GNUPG:] KEY_CONSIDERED ED89D96633FFF7C2C8D0025549909F93B919737D 0\\n[GNUPG:] GOODSIG EEC09C65CA1DE751 Alice Lovelace <alice@lovelace.name>\\n[GNUPG:] NOTATION_NAME salt@notations.sequoia-pgp.org\\n[GNUPG:] NOTATION_DATA <CANONICALIZED>[GNUPG:] VALIDSIG C746460F2D9CFB3D5985BDA4EEC09C65CA1DE751 2022-12-20 1671553073 0 4 0 19 10 00 ED89D96633FFF7C2C8D0025549909F93B919737D\\n[GNUPG:] KEY_CONSIDERED ED89D96633FFF7C2C8D0025549909F93B919737D 0\\n[GNUPG:] KEY_CONSIDERED ED89D96633FFF7C2C8D0025549909F93B919737D 0\\n[GNUPG:] TRUST_UNDEFINED 0 pgp\\n",
      "status": "exit status: 0",
      "files": {}
    },
    {
      "args": [
        "\"--faked-system-time=1671553073!\"",
        "\"--digest-algo=SHA512\"",
        "\"--detach-sign\"",
        "\"plaintext\""
      ],
      "inputs": [
        [
          "plaintext",
          [
            112,
            108,
            97,
            105,
            110,
            116,
            101,
            120,
            116
          ]
        ]
      ],
      "stderr": "gpg: WARNING: unsafe permissions on homedir '/HOMEDIR'\\ngpg: WARNING: running with faked system time: 2022-12-20 16:17:53\\n",
      "stdout": "",
      "statusfd": "[GNUPG:] KEY_CONSIDERED ED89D96633FFF7C2C8D0025549909F93B919737D 0\\n[GNUPG:] KEY_CONSIDERED ED89D96633FFF7C2C8D0025549909F93B919737D 0\\n[GNUPG:] BEGIN_SIGNING H10\\n[GNUPG:] SIG_CREATED D 19 10 00 1671553073 C746460F2D9CFB3D5985BDA4EEC09C65CA1DE751\\n",
      "status": "exit status: 0",
      "files": {
        "plaintext": "plaintext",
        "plaintext.sig": "\\xC2\\xC0A\\x04\\x00\\x13\\n\\x00o\\x05\\x82c\\xA1\\xE01\\t\\x10\\xEE\\xC0\\x9Ce\\xCA\\x1D\\xE7QG\\x14\\x00\\x00\\x00\\x00\\x00\\x1E\\x00 salt@notations.sequoia-pgp.org\\xBC4O\\x8B\\xD4pPN\\xB2\\x04\\xD6\\xE2\\x1C\\x8C\\xE0\\x96\\xDD\\t\\x1E\\xF0}\\xAD\\xFF!\\x7Fz\\xEF\\xA1\\xD1\\x1E\\xF3\\xAA\\x16!\\x04\\xC7FF\\x0F-\\x9C\\xFB=Y\\x85\\xBD\\xA4\\xEE\\xC0\\x9Ce\\xCA\\x1D\\xE7Q\\x00\\x00U7\\x02\\t\\x01\"\\xDC[\\xE2\\xEE\\xB0/\\xFB\\xF3\\xD8Eܓ\\xD1I\\x8Dлw+\\xAB\\x9Ce\\x0C\\x94\\xC7\\x15\\xA1\\xAB&l\\x95\\x83\\xEA\\x84\\x03a\\x02\\xA4;\\xDAQtU\\xEA\\xAC(\\xC8\\xD6\\xAF\\xC1\\xBE\\xD7\\x1D&\\xA7\\xED\\xA6I\\xF6\\xAB\\x08\\xA6\\xCFh\\x02\\t\\x01~g%\\xAA\\xF6j9P\\xAA-\\xC5\\xE9\\xCE\\x11\\x96\\x06;\\x13\\x123s\\x8F\\xE6\\t\\xFA\\xB4\\xADV\\xAFn\\x13\\xB7\\x0C=\\xDFq\\xB9/𦔢\\xD1\\xF4\\x1F\\xA9%9\\x9C\\xB4\\xAF\\x8F\\xB1,,\\xF1oД잰h\\xCD\\xD7"
      }
    },
    {
      "args": [
        "\"--faked-system-time=1671553073!\"",
        "\"--verify\"",
        "\"/EXPERIMENT/signature\"",
        "\"/EXPERIMENT/data\""
      ],
      "stderr": "gpg: WARNING: unsafe permissions on homedir '/HOMEDIR'\\ngpg: WARNING: running with faked system time: 2022-12-20 16:17:53\\ngpg: Signature made Tue Dec 20 19:17:53 2022 +03:00\\ngpg:                using ECDSA key C746460F2D9CFB3D5985BDA4EEC09C65CA1DE751\\ngpg: Good signature from \"Alice Lovelace <alice@lovelace.name>\" [unknown]\\ngpg: WARNING: This key is not certified with a trusted signature!\\ngpg:          There is no indication that the signature belongs to the owner.\\nPrimary key fingerprint: ED89 D966 33FF F7C2 C8D0  0255 4990 9F93 B919 737D\\n     Subkey fingerprint: C746 460F 2D9C FB3D 5985  BDA4 EEC0 9C65 CA1D E751\\n",
      "stdout": "",
      "statusfd": "[GNUPG:] NEWSIG\\n[GNUPG:] KEY_CONSIDERED ED89D96633FFF7C2C8D0025549909F93B919737D 0\\n[GNUPG:] SIG_ID <CANONICALIZED> 2022-12-20 1671553073\\n[GNUPG:] KEY_CONSIDERED ED89D96633FFF7C2C8D0025549909F93B919737D 0\\n[GNUPG:] GOODSIG EEC09C65CA1DE751 Alice Lovelace <alice@lovelace.name>\\n[GNUPG:] NOTATION_NAME salt@notations.sequoia-pgp.org\\n[GNUPG:] NOTATION_DATA <CANONICALIZED>[GNUPG:] VALIDSIG C746460F2D9CFB3D5985BDA4EEC09C65CA1DE751 2022-12-20 1671553073 0 4 0 19 10 00 ED89D96633FFF7C2C8D0025549909F93B919737D\\n[GNUPG:] KEY_CONSIDERED ED89D96633FFF7C2C8D0025549909F93B919737D 0\\n[GNUPG:] KEY_CONSIDERED ED89D96633FFF7C2C8D0025549909F93B919737D 0\\n[GNUPG:] TRUST_UNDEFINED 0 pgp\\n",
      "status": "exit status: 0",
      "files": {}
    },
    {
      "args": [
        "\"--faked-system-time=1671553073!\"",
        "\"--verify\"",
        "\"/EXPERIMENT/signature\"",
        "\"/EXPERIMENT/data\""
      ],
      "stderr": "gpg: WARNING: unsafe permissions on homedir '/HOMEDIR'\\ngpg: WARNING: running with faked system time: 2022-12-20 16:17:53\\ngpg: Signature made Tue Dec 20 19:17:53 2022 +03:00\\ngpg:                using ECDSA key C746460F2D9CFB3D5985BDA4EEC09C65CA1DE751\\ngpg: Good signature from \"Alice Lovelace <alice@lovelace.name>\" [unknown]\\ngpg: WARNING: This key is not certified with a trusted signature!\\ngpg:          There is no indication that the signature belongs to the owner.\\nPrimary key fingerprint: ED89 D966 33FF F7C2 C8D0  0255 4990 9F93 B919 737D\\n     Subkey fingerprint: C746 460F 2D9C FB3D 5985  BDA4 EEC0 9C65 CA1D E751\\n",
      "stdout": "",
      "statusfd": "[GNUPG:] NEWSIG\\n[GNUPG:] KEY_CONSIDERED ED89D96633FFF7C2C8D0025549909F93B919737D 0\\n[GNUPG:] SIG_ID <CANONICALIZED> 2022-12-20 1671553073\\n[GNUPG:] KEY_CONSIDERED ED89D96633FFF7C2C8D0025549909F93B919737D 0\\n[GNUPG:] GOODSIG EEC09C65CA1DE751 Alice Lovelace <alice@lovelace.name>\\n[GNUPG:] VALIDSIG C746460F2D9CFB3D5985BDA4EEC09C65CA1DE751 2022-12-20 1671553073 0 4 0 19 10 00 ED89D96633FFF7C2C8D0025549909F93B919737D\\n[GNUPG:] KEY_CONSIDERED ED89D96633FFF7C2C8D0025549909F93B919737D 0\\n[GNUPG:] KEY_CONSIDERED ED89D96633FFF7C2C8D0025549909F93B919737D 0\\n[GNUPG:] TRUST_UNDEFINED 0 pgp\\n",
      "status": "exit status: 0",
      "files": {}
    },
    {
      "args": [
        "\"--faked-system-time=1671553073!\"",
        "\"--digest-algo=SHA512\"",
        "\"--detach-sign\"",
        "\"--armor\"",
        "\"plaintext\""
      ],
      "inputs": [
        [
          "plaintext",
          [
            112,
            108,
            97,
            105,
            110,
            116,
            101,
            120,
            116
          ]
        ]
      ],
      "stderr": "gpg: WARNING: unsafe permissions on homedir '/HOMEDIR'\\ngpg: WARNING: running with faked system time: 2022-12-20 16:17:53\\n",
      "stdout": "",
      "statusfd": "[GNUPG:] KEY_CONSIDERED ED89D96633FFF7C2C8D0025549909F93B919737D 0\\n[GNUPG:] KEY_CONSIDERED ED89D96633FFF7C2C8D0025549909F93B919737D 0\\n[GNUPG:] BEGIN_SIGNING H10\\n[GNUPG:] SIG_CREATED D 19 10 00 1671553073 C746460F2D9CFB3D5985BDA4EEC09C65CA1DE751\\n",
      "status": "exit status: 0",
      "files": {
        "plaintext": "plaintext",
        "plaintext.asc": "-----BEGIN PGP SIGNATURE-----\\n\\nwsBABAATCgBvBYJjoeAxCRDuwJxlyh3nUUcUAAAAAAAeACBzYWx0QG5vdGF0aW9u\\ncy5zZXF1b2lhLXBncC5vcmczXiJSun/Nv5Uj7JGyz0YTqyuHPBh6Z9fagPTujD4b\\nYBYhBMdGRg8tnPs9WYW9pO7AnGXKHedRAAC3gAIHdG2+uhRFwr3O29MIwAu/ktNL\\nVQS8HxflxsYVGYo4tcO+vOaoc8e0MahAX3Q4gbm4VQFQQm2AWeZRALiq+2joiSUC\\nCQE3FO4tlRFPDSEAfCQT+wNuyW6StU4BNdTAV5yLLCYDhV3D46KvBTfonrko4A5l\\nxxyFNn+PbCD+dmfw+V1wCr7keg==\\n=SLoa\\n-----END PGP SIGNATURE-----\\n"
      }
    },
    {
      "args": [
        "\"--faked-system-time=1671553073!\"",
        "\"--verify\"",
        "\"/EXPERIMENT/signature\"",
        "\"/EXPERIMENT/data\""
      ],
      "stderr": "gpg: WARNING: unsafe permissions on homedir '/HOMEDIR'\\ngpg: WARNING: running with faked system time: 2022-12-20 16:17:53\\ngpg: Signature made Tue Dec 20 19:17:53 2022 +03:00\\ngpg:                using ECDSA key C746460F2D9CFB3D5985BDA4EEC09C65CA1DE751\\ngpg: Good signature from \"Alice Lovelace <alice@lovelace.name>\" [unknown]\\ngpg: WARNING: This key is not certified with a trusted signature!\\ngpg:          There is no indication that the signature belongs to the owner.\\nPrimary key fingerprint: ED89 D966 33FF F7C2 C8D0  0255 4990 9F93 B919 737D\\n     Subkey fingerprint: C746 460F 2D9C FB3D 5985  BDA4 EEC0 9C65 CA1D E751\\n",
      "stdout": "",
      "statusfd": "[GNUPG:] NEWSIG\\n[GNUPG:] KEY_CONSIDERED ED89D96633FFF7C2C8D0025549909F93B919737D 0\\n[GNUPG:] SIG_ID <CANONICALIZED> 2022-12-20 1671553073\\n[GNUPG:] KEY_CONSIDERED ED89D96633FFF7C2C8D0025549909F93B919737D 0\\n[GNUPG:] GOODSIG EEC09C65CA1DE751 Alice Lovelace <alice@lovelace.name>\\n[GNUPG:] NOTATION_NAME salt@notations.sequoia-pgp.org\\n[GNUPG:] NOTATION_DATA <CANONICALIZED>[GNUPG:] VALIDSIG C746460F2D9CFB3D5985BDA4EEC09C65CA1DE751 2022-12-20 1671553073 0 4 0 19 10 00 ED89D96633FFF7C2C8D0025549909F93B919737D\\n[GNUPG:] KEY_CONSIDERED ED89D96633FFF7C2C8D0025549909F93B919737D 0\\n[GNUPG:] KEY_CONSIDERED ED89D96633FFF7C2C8D0025549909F93B919737D 0\\n[GNUPG:] TRUST_UNDEFINED 0 pgp\\n",
      "status": "exit status: 0",
      "files": {}
    },
    {
      "args": [
        "\"--faked-system-time=1671553073!\"",
        "\"--verify\"",
        "\"/EXPERIMENT/signature\"",
        "\"/EXPERIMENT/data\""
      ],
      "stderr": "gpg: WARNING: unsafe permissions on homedir '/HOMEDIR'\\ngpg: WARNING: running with faked system time: 2022-12-20 16:17:53\\ngpg: Signature made Tue Dec 20 19:17:53 2022 +03:00\\ngpg:                using ECDSA key C746460F2D9CFB3D5985BDA4EEC09C65CA1DE751\\ngpg: Good signature from \"Alice Lovelace <alice@lovelace.name>\" [unknown]\\ngpg: WARNING: This key is not certified with a trusted signature!\\ngpg:          There is no indication that the signature belongs to the owner.\\nPrimary key fingerprint: ED89 D966 33FF F7C2 C8D0  0255 4990 9F93 B919 737D\\n     Subkey fingerprint: C746 460F 2D9C FB3D 5985  BDA4 EEC0 9C65 CA1D E751\\n",
      "stdout": "",
      "statusfd": "[GNUPG:] NEWSIG\\n[GNUPG:] KEY_CONSIDERED ED89D96633FFF7C2C8D0025549909F93B919737D 0\\n[GNUPG:] SIG_ID <CANONICALIZED> 2022-12-20 1671553073\\n[GNUPG:] KEY_CONSIDERED ED89D96633FFF7C2C8D0025549909F93B919737D 0\\n[GNUPG:] GOODSIG EEC09C65CA1DE751 Alice Lovelace <alice@lovelace.name>\\n[GNUPG:] VALIDSIG C746460F2D9CFB3D5985BDA4EEC09C65CA1DE751 2022-12-20 1671553073 0 4 0 19 10 00 ED89D96633FFF7C2C8D0025549909F93B919737D\\n[GNUPG:] KEY_CONSIDERED ED89D96633FFF7C2C8D0025549909F93B919737D 0\\n[GNUPG:] KEY_CONSIDERED ED89D96633FFF7C2C8D0025549909F93B919737D 0\\n[GNUPG:] TRUST_UNDEFINED 0 pgp\\n",
      "status": "exit status: 0",
      "files": {}
    }
  ],
  "artifacts": {
    "cert": "\\xC5\\xC0\\x19\\x04c\\xA1\\xE01\\x13\\x05+\\x81\\x04\\x00#\\x04#\\x04\\x00Ɛ3&I\\x0B\\xB6\\xEEk+\\x03\\xF1qu\\xA6rR\\xEE\\x7F\\xC1\\\\\"$)\\x18\\x94#{\\x8C\\xC2Z\\xCC\\xFF\\x9C\\x19\\x180;\\xC4\\xEA^#1\\xAF\\x14Z'\\xA2b\\x03\\xFC/%\\xDDEг\\xD1\\\\qJE\\xBE\\xD7\\xDB\\x01@p\\xAA<\\x16\\x86}\\xA9\\xBF\\x7F\\x03\\xF1\\xEE\\xE2\\x0BTx\\x8Fdt\\xD7h9\\x8A\\x1E\\x80\\x8FT\\xE1>\\x93\\xAE1\\xFA\\xE8\\x8E6\\xC3\\x08\\x96>\\x80T\\x18Hǟ:\\xBBY\\x04wdĸ\\xA0\\x0EO\\x11\\n\\x93\\xD5\\x01\\x95\\xCD\\x00\\x02\\x07S\\xC4L\\xC2p\\xC3$~\\n\\x01\\xC5L\\xBD(|\\x1A\\x98R\\xE0j\\xEA\\x06d*\\x8E\\x8Cf\\xF7\\xADg\\x00\\xD7Wq\\xDBE\\r\\xFD\\x10q\\xFF%%|\\xBEL\\xFD%\\xE44\\xB40\\x95/\\x14\\x04\\x9B\\xE30\\x16d`\\xFA\\x9Ey\\x1D\\x83\\xC2\\xC0T\\x04\\x1F\\x13\\n\\x00\\x83\\x05\\x82c\\xA1\\xE01\\x05\\x89\\x05\\x9F\\xA6\\x00\\x03\\x0B\\t\\x07\\t\\x10I\\x90\\x9F\\x93\\xB9\\x19s}G\\x14\\x00\\x00\\x00\\x00\\x00\\x1E\\x00 salt@notations.sequoia-pgp.org\\x0B\\x83{\\x83(YW+u#\\xD9;7\\xE7S\\x89\\x8E&\\xBF\\x18\\xA7\\xEFd\\x82\\xCD\\t\\xCC\\x1E\\xFC\\x00\\xE4*\\x03\\x15\\n\\x08\\x02\\x9B\\x01\\x02\\x1E\\x01\\x16!\\x04\\xED\\x89\\xD9f3\\xFF\\xF7\\xC2\\xC8\\xD0\\x02UI\\x90\\x9F\\x93\\xB9\\x19s}\\x00\\x00\\xF3\\xB1\\x02\\x08\\xA9\\xEArm\\x9F\\x86|\\x94\\x11\\x87S\\xAF\\x8B[*p\\x8E\\nF\\xB2P\\xFB\\xF4\\xF2\\x8B!\\xEE)\\x84t\\x1C\\x81~\\xA5W-\\xA0\\x00TtD\\x92\\x94\\x96\\xE1\\x8D\\xE3a\\xA8\\xB8\\xB8\\xA6\\x10v\\x01^\\xE4\\x06ӳ\\xDDr\\xFAu\\xC0\\x02\\t\\x01\\xE9\\x9EDu\\x0B\\xCCB\\xCD\\xD0\\x8B\\x89\\xBE8\\xE7\\x18\\x83\\xC3\\x11i\\xFF\\x91q\\xBF\\xBF@\"M\\xD5\\xF1\\x9C\\x81q\\xFBuy\\x9A\\xF3\\x02UheJ\\xB2)4a&\\x16\\x01c\\xEB\\x0C\\xFE\\x89\\x86\\xB2a\\x93(,=\\x07?_\\xB1\\xCD$Alice Lovelace <alice@lovelace.name>\\xC2\\xC0W\\x04\\x13\\x13\\n\\x00\\x86\\x05\\x82c\\xA1\\xE01\\x05\\x89\\x05\\x9F\\xA6\\x00\\x03\\x0B\\t\\x07\\t\\x10I\\x90\\x9F\\x93\\xB9\\x19s}G\\x14\\x00\\x00\\x00\\x00\\x00\\x1E\\x00 salt@notations.sequoia-pgp.org\\x02\\x04\\xAD\\xA4\\x19K\\x9B\\xF7\\x8B\\x15ъ\\xFC\\xE3\\xD5\\xB4\\x89\\\\\\\\,\\x97N\\xD59\\x94ud\\x95\\xD8\\xD9\\xBB\\xCF\\x03\\x15\\n\\x08\\x02\\x99\\x01\\x02\\x9B\\x01\\x02\\x1E\\x01\\x16!\\x04\\xED\\x89\\xD9f3\\xFF\\xF7\\xC2\\xC8\\xD0\\x02UI\\x90\\x9F\\x93\\xB9\\x19s}\\x00\\x00$\\xBA\\x02\\x08\\xDE\\xE1yj)\\xD8C\\xBF\\x92\\xBB\\x83+\\xE2E\\xB1\\xF1\\x1B\\xFF\\x88KW\\xB8\\xBB\\x12\\n\\xA6\\x07j\\xC5\\xEC~\\xB3\\x1D&\\xE6\\xC5%\\xAC'\\xE8\\x10\\xC6\\\\\\xC1?\\xD0B3\\x07\\xE4\\tMi\\xD5\\\\?,\\xCCSo\\xEB\\xBC\\xE7)\\x1B\\x02\\t\\x012^|\\x1B)D<{\\x16\\x85쒙t\\xA0\\x8B\\xAB\\x81\\xC3\\x07ٮK\\r\\xED\\xE2\\xDC3D\\xCE\\xC0w\\xF8\\xFC\\xB3\\xA0\\x10,\\x1DѾ\\x019gE\\x01~q\\x90\\xCE\\xEF~\\xC0\\xAE\\xA7y4t\\xAC\\xC8\\x1D'b\\xFEp\\xC7\\xC0\\x19\\x04c\\xA1\\xE01\\x13\\x05+\\x81\\x04\\x00#\\x04#\\x04\\x00\\x0F?\\x99pܷUD3b8m\\x95]\\x82\\xFF߭d\\x90\\xC4\\x07\\xB6\\xBFޭE\\xBD\\xD9\\xF1\\xF6\\xEC\\x14\\xA3\\n\\x0B\\xBD\\xC9\\xC7\\x18\\xDD\\xE7ZK5\\xE5\\xE6\\x99?k\\xDB\\xD0{\\x8F\\x0F$\\x16\\xDDi\\xFE\\xD9hn\\r{\\x00\"\\n{\\xA0\\x19?V}qZ}k|\\x11\\x14\\x98&ٸ\\x02x\\x19\\x1Cढ़\\xB2\\xF5\\x9A=\\xD3\\x17[\\xD6Tc\\x0Cz\\x05`\"\\xA2\\x0F.\\xCAZ\\x1A\\x19\\r\\xCA\\xDCS\\xDF\\xC9u?jK\\x95F\\x89\\x808f\\r\\x00\\x02\\x08\\xE3\\xAELX߮7\\xC6\\xF2\\xF3,\\xEAV\\xBC\\xE7Dj\\xBB\\xC47=\\xAD\\xA4\\xD1\\x13\\xD8\\xFAFoۀ\\xA7\\x93\\xE0\\x06\\xE5W\\xEF\\x1D\\x0B\\xBB\\x831l\\x08\\xD2\\xD7l\\x0C648\\x17\\xD5\\xC7^\\xC5(\\xDAQ;\\xB1\\xE9\\x9CP\"x\\xC2\\xC1N\\x04\\x18\\x13\\n\\x01|\\x05\\x82c\\xA1\\xE01\\x05\\x89\\x05\\x9F\\xA6\\x00\\t\\x10I\\x90\\x9F\\x93\\xB9\\x19s}G\\x14\\x00\\x00\\x00\\x00\\x00\\x1E\\x00 salt@notations.sequoia-pgp.org\\x9E\\x9BSh\\xC09\\x86\\xB9?Wn`|v!-\\xCF\\xDAh\\x00\\xAAz%/\\xA3u\\xA4\\x175\\xF6o\\xBC\\x02\\x9B\\x02\\xC0B\\xA0\\x04\\x19\\x13\\n\\x00o\\x05\\x82c\\xA1\\xE01\\t\\x10\\xEE\\xC0\\x9Ce\\xCA\\x1D\\xE7QG\\x14\\x00\\x00\\x00\\x00\\x00\\x1E\\x00 salt@notations.sequoia-pgp.org\\tweY\\xAC\\x8D\\xFD\\x08\\xD6<[w\\xFBcX\\x1C3\\x03\\x0Cm\\x02\\xE9\\xFF\\x14\\x96Y:=\\xA1\\x89g&\\x16!\\x04\\xC7FF\\x0F-\\x9C\\xFB=Y\\x85\\xBD\\xA4\\xEE\\xC0\\x9Ce\\xCA\\x1D\\xE7Q\\x00\\x00\\x1E'\\x02\\t\\x01\\x12\\x1DTjW\\x8B\\xE3\\x0E\\x89~\\xCDW+\\xCA\\x1FZCA\\x13w:\\xECez\\xCFw\\xFC\\xC2Z\\x9D\\xEE\\xB0b\\xDE+\\x83\\x80\\xC28bE|X\\xA4\\xA9\\xD9\\xCF\\x83\\xE5\\xC8\\x89~\\xA2\\xF0\\x1E\\xC4\\x0F8\\xA0\\xDD\\xCC\\xF3Z\\xE8\\xD5\\x02\\t\\x01+\\xC8A\\xBE\\xA2\\xC5,\\xE5M\\xB3\\xB9^\\xA0\\xC0\\xE2\\x9C&\\xAC\\xFF\\xD3h\\xE4a\\x1B\\xC7\\xDA\\xC3#'\\xB6\\n\\xC3B\\xC0\\x1E\\x9E/\\xD3\\xE2\\xEF\\xEC\\r\\xDE-K9\\xD7\\x16A%@YG\\x9F\\x87\\x91\\xA8\\x1E\\x936\\xFC\\x9Fn\\xBB\\x0F\\x16!\\x04\\xED\\x89\\xD9f3\\xFF\\xF7\\xC2\\xC8\\xD0\\x02UI\\x90\\x9F\\x93\\xB9\\x19s}\\x00\\x00*\\xEB\\x02\\t\\x01\\x1A\\xBA\\xBC\\x91\\x83\\xDB\\x12|Z\\x11\\x81ё\\xAA\\xC2Gs\\x17\\x1FSn\\xDE$\\xA1\\x13\\xC0\\xB3\\x9F\\xADB>+@z^n\\xAA\\x89\\xD56P\\xB1\\x14\\x06M`\\xA9\\xD3\\x1D6\\xD9\\xDFv\\x89\\xE1\\xB6H\\xCB\\xE7\\xCA&\\xE2L>\\xD0\\x02\\t\\x01\\xB9\\x9DA\\xB4q\\xB0\\x07\\x05\\x0C\\x99\\x0F\\xE0\\xAA\\xC2\\xC6;y\\x91\\x95\\xDF\\xEBy\\x16=\\xA9{j:P\\x13\\xCB\\xF5\\xBA{p(\\xABZq\\xA1\\x80\\xC4\\xDA+V\\x7F\\x15p\\xDB\\x1C-\\xCE\\xFCpF\\xF4Y\\x11\\x8F45\\xEF\\x9D\\x01\\xE8\\xC7\\xC0\\x1E\\x04c\\xA1\\xE01\\x12\\x05+\\x81\\x04\\x00#\\x04#\\x04\\x00\\xEF\\x84\\xD9*\\x00\\xE8\\x07-\\xF2\\xD6\\xC1\\x19\\xB0\\xEB\\x15\\xF4\\x1A\\x94+v\\xE0\\xE0&\\xC5\\xFA\\x8D{,\\x0F#\\x05\\xD8\\xFC\\x86\\x0CFJ\\x1D\\xE9}\\x93\\x91\\xD7pa\\x07-\\xCB\\x1E\\x01\\xFA\\x02\\x88\\xBF\\xA1+k\\xB6ʠ`\\xEEs\\x83\\x1B\\x00~\\t_\\xAA\\x8B\"\\xCF\\xCE\\xA4\\x10\\x9D|\\xE9\\x0F+\\x82\\x95\\xEFP\\x826\\xA8PX\\xF0i\\xD9Q\\xEFEva\\x9E\\x96di\\x97\\xB9]M0^\\xE3#\\xFD\\xB3\\x94i%\\xD7\\x1E\\xA1EM\\x86\\xBFf?+\\xD4\\x1B[\\x9C\\xFC\\xA4\\x03\\x01\\n\\t\\x00\\x02\\t\\x01̆\\x1C\\x1E\\r\\xB8\\x7F\\xFB~B\\xFE\\x13\\xF3\\x86\\xA5}\\xD6Q\\xBA\\x07\\x17z\\x02\\xFCr\\x12<\\xD85Z\\xB3q\\x94\\xD2\\xEC\\xB7F{0\\xC6IwV\\x1C\\x05ʧ\\xE5\\x16\\xD8\\xE3\\x8E\\xB9M\\rG&\\x9FS\\xDD\\x0Ew<\\x018\\x1D\\xFA\\xC2\\xC0J\\x04\\x18\\x13\\n\\x00x\\x05\\x82c\\xA1\\xE01\\x05\\x89\\x05\\x9F\\xA6\\x00\\t\\x10I\\x90\\x9F\\x93\\xB9\\x19s}G\\x14\\x00\\x00\\x00\\x00\\x00\\x1E\\x00 salt@notations.sequoia-pgp.orgs\\x85\\x8F*\\xD1\\x1F\\xB2n\\xEA&\\xCC]tlz;CH\\x8F\\xABX\\xF2\\x98!.\\xBDq\\xBAo5LS\\x02\\x9B\\x0C\\x16!\\x04\\xED\\x89\\xD9f3\\xFF\\xF7\\xC2\\xC8\\xD0\\x02UI\\x90\\x9F\\x93\\xB9\\x19s}\\x00\\x00\"]\\x02\\t\\x01=,\\xF9Y\\xFA\\x96\\xBF\\xD5\\xDD\\xCC\\xC2\\xD8\\x04Y\\xE8\\x1A^\\x90Rז\\xCETpjS<\\xE0\\x8B4\\x80\\xB7S>[\\xF09\\xFFr\\xE2\\xDD\\x9E2Y\\xE7\\xFC\\x11\\x8BNK\\x9A\\xA9\\x8B\\xF7\\xBD\\xD7n\\\\J\\xAC{\\x860\\xF1\\xBE\\x02\\t\\x01\\xC1Ac)q\\xBE\\x15!!Ч\\xD1ASm\\x11\\xF5L\\xA1\\xC4@E\\xC0\\xF7\\xB1\\x19\\xA8p\\x9F\\xC6r0\\xDFK\\x85h\\xAAMkz\\x84\\xDDLK9{\\xBBYA{=(L\\xDCK\\x98-\\x90\\x11\\xE8}\\x92o\\x9A\\xB1"
  },
  "dynamic_upper_bounds": [
    [
      0,
      86,
      0
    ],
    [
      0,
      0,
      67
    ],
    [
      0,
      0,
      0
    ],
    [
      0,
      6,
      0
    ],
    [
      0,
      6,
      0
    ],
    [
      0,
      0,
      0
    ],
    [
      0,
      6,
      0
    ],
    [
      0,
      6,
      0
    ],
    [
      0,
      0,
      0
    ],
    [
      0,
      6,
      28
    ],
    [
      0,
      6,
      28
    ],
    [
      0,
      0,
      0
    ],
    [
      0,
      6,
      0
    ],
    [
      0,
      6,
      0
    ],
    [
      0,
      0,
      0
    ],
    [
      0,
      6,
      0
    ],
    [
      0,
      6,
      0
    ],
    [
      0,
      0,
      0
    ],
    [
      0,
      6,
      0
    ],
    [
      0,
      6,
      0
    ]
  ]
}