{
  "outputs": [
    {
      "args": [
        "\"--faked-system-time=1671553073!\"",
        "\"--list-keys\""
      ],
      "stderr": "gpg: WARNING: unsafe permissions on homedir '/HOMEDIR'\\ngpg: WARNING: running with faked system time: 2022-12-20 16:17:53\\ngpg: keybox '/HOMEDIR/pubring.kbx' created\\ngpg: /HOMEDIR/trustdb.gpg: trustdb created\\n",
      "stdout": "",
      "statusfd": "",
      "status": "exit status: 0",
      "files": {}
    },
    {
      "args": [
        "\"--faked-system-time=1671553073!\"",
        "\"--import\"",
        "\"/EXPERIMENT/cert\""
      ],
      "stderr": "gpg: WARNING: unsafe permissions on homedir '/HOMEDIR'\\ngpg: WARNING: running with faked system time: 2022-12-20 16:17:53\\ngpg: key 652183F0DA829AEB: public key \"Alice Lovelace <alice@lovelace.name>\" imported\\ngpg: Total number processed: 1\\ngpg:               imported: 1\\n",
      "stdout": "",
      "statusfd": "[GNUPG:] KEY_CONSIDERED E412F86A95B8BB2F101AA0A6652183F0DA829AEB 0\\n[GNUPG:] IMPORTED 652183F0DA829AEB Alice Lovelace <alice@lovelace.name>\\n[GNUPG:] IMPORT_OK 1 E412F86A95B8BB2F101AA0A6652183F0DA829AEB\\n[GNUPG:] IMPORT_RES 1 0 1 0 0 0 0 0 0 0 0 0 0 0 0\\n",
      "status": "exit status: 0",
      "files": {}
    },
    {
      "args": [
        "\"--faked-system-time=1671553073!\"",
        "\"--list-keys\""
      ],
      "stderr": "gpg: WARNING: unsafe permissions on homedir '/HOMEDIR'\\ngpg: WARNING: running with faked system time: 2022-12-20 16:17:53\\n",
      "stdout": "/HOMEDIR/pubring.kbx\\n--------------------\\npub   ed25519 2022-12-20 [C]\\n      E412F86A95B8BB2F101AA0A6652183F0DA829AEB\\nuid           [ unknown] Alice Lovelace <alice@lovelace.name>\\nsub   ed25519 2022-12-20 [S]\\n\\n",
      "statusfd": "",
      "status": "exit status: 0",
      "files": {}
    },
    {
      "args": [
        "\"--faked-system-time=1671553073!\"",
        "\"--list-keys\"",
        "\"--list-options=show-uid-validity\""
      ],
      "stderr": "gpg: WARNING: unsafe permissions on homedir '/HOMEDIR'\\ngpg: WARNING: running with faked system time: 2022-12-20 16:17:53\\n",
      "stdout": "/HOMEDIR/pubring.kbx\\n--------------------\\npub   ed25519 2022-12-20 [C]\\n      E412F86A95B8BB2F101AA0A6652183F0DA829AEB\\nuid           [ unknown] Alice Lovelace <alice@lovelace.name>\\nsub   ed25519 2022-12-20 [S]\\n\\n",
      "statusfd": "",
      "status": "exit status: 0",
      "files": {}
    },
    {
      "args": [
        "\"--faked-system-time=1671553073!\"",
        "\"--list-keys\"",
        "\"--list-options=no-show-uid-validity\""
      ],
      "stderr": "gpg: WARNING: unsafe permissions on homedir '/HOMEDIR'\\ngpg: WARNING: running with faked system time: 2022-12-20 16:17:53\\n",
      "stdout": "/HOMEDIR/pubring.kbx\\n--------------------\\npub   ed25519 2022-12-20 [C]\\n      E412F86A95B8BB2F101AA0A6652183F0DA829AEB\\nuid                      Alice Lovelace <alice@lovelace.name>\\nsub   ed25519 2022-12-20 [S]\\n\\n",
      "statusfd": "",
      "status": "exit status: 0",
      "files": {}
    },
    {
      "args": [
        "\"--faked-system-time=1671553073!\"",
        "\"--list-keys\"",
        "\"--with-colons\""
      ],
      "stderr": "gpg: WARNING: unsafe permissions on homedir '/HOMEDIR'\\ngpg: WARNING: running with faked system time: 2022-12-20 16:17:53\\n",
      "stdout": "tru::1:1671553073:0:3:1:5\\npub:-:255:22:652183F0DA829AEB:1671553073:::-:::cSC:::::ed25519:::0:\\nfpr:::::::::E412F86A95B8BB2F101AA0A6652183F0DA829AEB:\\nuid:-::::1671553073::97A0BD8BBC59E076934333E17C8D55AD5252B82F::Alice Lovelace <alice@lovelace.name>::::::::::0:\\nsub:-:255:22:4E25D6452ABE6DC6:1671553073::::::s:::::ed25519::\\nfpr:::::::::38C1F18184FDC0A341C028324E25D6452ABE6DC6:\\n",
      "statusfd": "",
      "status": "exit status: 0",
      "files": {}
    },
    {
      "args": [
        "\"--faked-system-time=1671553073!\"",
        "\"--list-keys\"",
        "\"--list-options=show-uid-validity\"",
        "\"--with-colons\""
      ],
      "stderr": "gpg: WARNING: unsafe permissions on homedir '/HOMEDIR'\\ngpg: WARNING: running with faked system time: 2022-12-20 16:17:53\\n",
      "stdout": "tru::1:1671553073:0:3:1:5\\npub:-:255:22:652183F0DA829AEB:1671553073:::-:::cSC:::::ed25519:::0:\\nfpr:::::::::E412F86A95B8BB2F101AA0A6652183F0DA829AEB:\\nuid:-::::1671553073::97A0BD8BBC59E076934333E17C8D55AD5252B82F::Alice Lovelace <alice@lovelace.name>::::::::::0:\\nsub:-:255:22:4E25D6452ABE6DC6:1671553073::::::s:::::ed25519::\\nfpr:::::::::38C1F18184FDC0A341C028324E25D6452ABE6DC6:\\n",
      "statusfd": "",
      "status": "exit status: 0",
      "files": {}
    },
    {
      "args": [
        "\"--faked-system-time=1671553073!\"",
        "\"--list-keys\"",
        "\"--list-options=no-show-uid-validity\"",
        "\"--with-colons\""
      ],
      "stderr": "gpg: WARNING: unsafe permissions on homedir '/HOMEDIR'\\ngpg: WARNING: running with faked system time: 2022-12-20 16:17:53\\n",
      "stdout": "tru::1:1671553073:0:3:1:5\\npub:-:255:22:652183F0DA829AEB:1671553073:::-:::cSC:::::ed25519:::0:\\nfpr:::::::::E412F86A95B8BB2F101AA0A6652183F0DA829AEB:\\nuid:-::::1671553073::97A0BD8BBC59E076934333E17C8D55AD5252B82F::Alice Lovelace <alice@lovelace.name>::::::::::0:\\nsub:-:255:22:4E25D6452ABE6DC6:1671553073::::::s:::::ed25519::\\nfpr:::::::::38C1F18184FDC0A341C028324E25D6452ABE6DC6:\\n",
      "statusfd": "",
      "status": "exit status: 0",
      "files": {}
    },
    {
      "args": [
        "\"--faked-system-time=1671553073!\"",
        "\"--fingerprint\""
      ],
      "stderr": "gpg: WARNING: unsafe permissions on homedir '/HOMEDIR'\\ngpg: WARNING: running with faked system time: 2022-12-20 16:17:53\\n",
      "stdout": "/HOMEDIR/pubring.kbx\\n--------------------\\npub   ed25519 2022-12-20 [C]\\n      E412 F86A 95B8 BB2F 101A  A0A6 6521 83F0 DA82 9AEB\\nuid           [ unknown] Alice Lovelace <alice@lovelace.name>\\nsub   ed25519 2022-12-20 [S]\\n\\n",
      "statusfd": "",
      "status": "exit status: 0",
      "files": {}
    },
    {
      "args": [
        "\"--faked-system-time=1671553073!\"",
        "\"--fingerprint\"",
        "\"--fingerprint\""
      ],
      "stderr": "gpg: WARNING: unsafe permissions on homedir '/HOMEDIR'\\ngpg: WARNING: running with faked system time: 2022-12-20 16:17:53\\n",
      "stdout": "/HOMEDIR/pubring.kbx\\n--------------------\\npub   ed25519 2022-12-20 [C]\\n      E412 F86A 95B8 BB2F 101A  A0A6 6521 83F0 DA82 9AEB\\nuid           [ unknown] Alice Lovelace <alice@lovelace.name>\\nsub   ed25519 2022-12-20 [S]\\n      38C1 F181 84FD C0A3 41C0  2832 4E25 D645 2ABE 6DC6\\n\\n",
      "statusfd": "",
      "status": "exit status: 0",
      "files": {}
    },
    {
      "args": [
        "\"--faked-system-time=1671553073!\"",
        "\"--fingerprint\"",
        "\"--with-colons\""
      ],
      "stderr": "gpg: WARNING: unsafe permissions on homedir '/HOMEDIR'\\ngpg: WARNING: running with faked system time: 2022-12-20 16:17:53\\n",
      "stdout": "tru::1:1671553073:0:3:1:5\\npub:-:255:22:652183F0DA829AEB:1671553073:::-:::cSC:::::ed25519:::0:\\nfpr:::::::::E412F86A95B8BB2F101AA0A6652183F0DA829AEB:\\nuid:-::::1671553073::97A0BD8BBC59E076934333E17C8D55AD5252B82F::Alice Lovelace <alice@lovelace.name>::::::::::0:\\nsub:-:255:22:4E25D6452ABE6DC6:1671553073::::::s:::::ed25519::\\nfpr:::::::::38C1F18184FDC0A341C028324E25D6452ABE6DC6:\\n",
      "statusfd": "",
      "status": "exit status: 0",
      "files": {}
    },
    {
      "args": [
        "\"--faked-system-time=1671553073!\"",
        "\"--fingerprint\"",
        "\"--fingerprint\"",
        "\"--with-colons\""
      ],
      "stderr": "gpg: WARNING: unsafe permissions on homedir '/HOMEDIR'\\ngpg: WARNING: running with faked system time: 2022-12-20 16:17:53\\n",
      "stdout": "tru::1:1671553073:0:3:1:5\\npub:-:255:22:652183F0DA829AEB:1671553073:::-:::cSC:::::ed25519:::0:\\nfpr:::::::::E412F86A95B8BB2F101AA0A6652183F0DA829AEB:\\nuid:-::::1671553073::97A0BD8BBC59E076934333E17C8D55AD5252B82F::Alice Lovelace <alice@lovelace.name>::::::::::0:\\nsub:-:255:22:4E25D6452ABE6DC6:1671553073::::::s:::::ed25519::\\nfpr:::::::::38C1F18184FDC0A341C028324E25D6452ABE6DC6:\\n",
      "statusfd": "",
      "status": "exit status: 0",
      "files": {}
    },
    {
      "args": [
        "\"--faked-system-time=1671553073!\"",
        "\"--list-keys\"",
        "\"--with-fingerprint\""
      ],
      "stderr": "gpg: WARNING: unsafe permissions on homedir '/HOMEDIR'\\ngpg: WARNING: running with faked system time: 2022-12-20 16:17:53\\n",
      "stdout": "/HOMEDIR/pubring.kbx\\n--------------------\\npub   ed25519 2022-12-20 [C]\\n      E412 F86A 95B8 BB2F 101A  A0A6 6521 83F0 DA82 9AEB\\nuid           [ unknown] Alice Lovelace <alice@lovelace.name>\\nsub   ed25519 2022-12-20 [S]\\n\\n",
      "statusfd": "",
      "status": "exit status: 0",
      "files": {}
    },
    {
      "args": [
        "\"--faked-system-time=1671553073!\"",
        "\"--list-keys\"",
        "\"--with-fingerprint\"",
        "\"--with-fingerprint\""
      ],
      "stderr": "gpg: WARNING: unsafe permissions on homedir '/HOMEDIR'\\ngpg: WARNING: running with faked system time: 2022-12-20 16:17:53\\n",
      "stdout": "/HOMEDIR/pubring.kbx\\n--------------------\\npub   ed25519 2022-12-20 [C]\\n      E412 F86A 95B8 BB2F 101A  A0A6 6521 83F0 DA82 9AEB\\nuid           [ unknown] Alice Lovelace <alice@lovelace.name>\\nsub   ed25519 2022-12-20 [S]\\n      38C1 F181 84FD C0A3 41C0  2832 4E25 D645 2ABE 6DC6\\n\\n",
      "statusfd": "",
      "status": "exit status: 0",
      "files": {}
    },
    {
      "args": [
        "\"--faked-system-time=1671553073!\"",
        "\"--list-keys\"",
        "\"--with-fingerprint\"",
        "\"--with-colons\""
      ],
      "stderr": "gpg: WARNING: unsafe permissions on homedir '/HOMEDIR'\\ngpg: WARNING: running with faked system time: 2022-12-20 16:17:53\\n",
      "stdout": "tru::1:1671553073:0:3:1:5\\npub:-:255:22:652183F0DA829AEB:1671553073:::-:::cSC:::::ed25519:::0:\\nfpr:::::::::E412F86A95B8BB2F101AA0A6652183F0DA829AEB:\\nuid:-::::1671553073::97A0BD8BBC59E076934333E17C8D55AD5252B82F::Alice Lovelace <alice@lovelace.name>::::::::::0:\\nsub:-:255:22:4E25D6452ABE6DC6:1671553073::::::s:::::ed25519::\\nfpr:::::::::38C1F18184FDC0A341C028324E25D6452ABE6DC6:\\n",
      "statusfd": "",
      "status": "exit status: 0",
      "files": {}
    },
    {
      "args": [
        "\"--faked-system-time=1671553073!\"",
        "\"--list-keys\"",
        "\"--with-fingerprint\"",
        "\"--with-fingerprint\"",
        "\"--with-colons\""
      ],
      "stderr": "gpg: WARNING: unsafe permissions on homedir '/HOMEDIR'\\ngpg: WARNING: running with faked system time: 2022-12-20 16:17:53\\n",
      "stdout": "tru::1:1671553073:0:3:1:5\\npub:-:255:22:652183F0DA829AEB:1671553073:::-:::cSC:::::ed25519:::0:\\nfpr:::::::::E412F86A95B8BB2F101AA0A6652183F0DA829AEB:\\nuid:-::::1671553073::97A0BD8BBC59E076934333E17C8D55AD5252B82F::Alice Lovelace <alice@lovelace.name>::::::::::0:\\nsub:-:255:22:4E25D6452ABE6DC6:1671553073::::::s:::::ed25519::\\nfpr:::::::::38C1F18184FDC0A341C028324E25D6452ABE6DC6:\\n",
      "statusfd": "",
      "status": "exit status: 0",
      "files": {}
    },
    {
      "args": [
        "\"--faked-system-time=1671553073!\"",
        "\"--list-keys\"",
        "\"--keyid-format\"",
        "\"none\""
      ],
      "stderr": "gpg: WARNING: unsafe permissions on homedir '/HOMEDIR'\\ngpg: WARNING: running with faked system time: 2022-12-20 16:17:53\\n",
      "stdout": "/HOMEDIR/pubring.kbx\\n--------------------\\npub   ed25519 2022-12-20 [C]\\n      E412F86A95B8BB2F101AA0A6652183F0DA829AEB\\nuid           [ unknown] Alice Lovelace <alice@lovelace.name>\\nsub   ed25519 2022-12-20 [S]\\n\\n",
      "statusfd": "",
      "status": "exit status: 0",
      "files": {}
    },
    {
      "args": [
        "\"--faked-system-time=1671553073!\"",
        "\"--list-keys\"",
        "\"--keyid-format\"",
        "\"lOng\""
      ],
      "stderr": "gpg: WARNING: unsafe permissions on homedir '/HOMEDIR'\\ngpg: WARNING: running with faked system time: 2022-12-20 16:17:53\\n",
      "stdout": "/HOMEDIR/pubring.kbx\\n--------------------\\npub   ed25519/652183F0DA829AEB 2022-12-20 [C]\\n      E412F86A95B8BB2F101AA0A6652183F0DA829AEB\\nuid                 [ unknown] Alice Lovelace <alice@lovelace.name>\\nsub   ed25519/4E25D6452ABE6DC6 2022-12-20 [S]\\n\\n",
      "statusfd": "",
      "status": "exit status: 0",
      "files": {}
    },
    {
      "args": [
        "\"--faked-system-time=1671553073!\"",
        "\"--list-keys\"",
        "\"--keyid-format\"",
        "\"0xloNg\""
      ],
      "stderr": "gpg: WARNING: unsafe permissions on homedir '/HOMEDIR'\\ngpg: WARNING: running with faked system time: 2022-12-20 16:17:53\\n",
      "stdout": "/HOMEDIR/pubring.kbx\\n--------------------\\npub   ed25519/0x652183F0DA829AEB 2022-12-20 [C]\\n      E412F86A95B8BB2F101AA0A6652183F0DA829AEB\\nuid                   [ unknown] Alice Lovelace <alice@lovelace.name>\\nsub   ed25519/0x4E25D6452ABE6DC6 2022-12-20 [S]\\n\\n",
      "statusfd": "",
      "status": "exit status: 0",
      "files": {}
    },
    {
      "args": [
        "\"--faked-system-time=1671553073!\"",
        "\"--list-keys\"",
        "\"--keyid-format\"",
        "\"0xlong\"",
        "\"--with-colons\""
      ],
      "stderr": "gpg: WARNING: unsafe permissions on homedir '/HOMEDIR'\\ngpg: WARNING: running with faked system time: 2022-12-20 16:17:53\\n",
      "stdout": "tru::1:1671553073:0:3:1:5\\npub:-:255:22:652183F0DA829AEB:1671553073:::-:::cSC:::::ed25519:::0:\\nfpr:::::::::E412F86A95B8BB2F101AA0A6652183F0DA829AEB:\\nuid:-::::1671553073::97A0BD8BBC59E076934333E17C8D55AD5252B82F::Alice Lovelace <alice@lovelace.name>::::::::::0:\\nsub:-:255:22:4E25D6452ABE6DC6:1671553073::::::s:::::ed25519::\\nfpr:::::::::38C1F18184FDC0A341C028324E25D6452ABE6DC6:\\n",
      "statusfd": "",
      "status": "exit status: 0",
      "files": {}
    },
    {
      "args": [
        "\"--faked-system-time=1671553073!\"",
        "\"--list-keys\"",
        "\"--with-secret\""
      ],
      "stderr": "gpg: WARNING: unsafe permissions on homedir '/HOMEDIR'\\ngpg: WARNING: running with faked system time: 2022-12-20 16:17:53\\n",
      "stdout": "/HOMEDIR/pubring.kbx\\n--------------------\\npub   ed25519 2022-12-20 [C]\\n      E412F86A95B8BB2F101AA0A6652183F0DA829AEB\\nuid           [ unknown] Alice Lovelace <alice@lovelace.name>\\nsub   ed25519 2022-12-20 [S]\\n\\n",
      "statusfd": "",
      "status": "exit status: 0",
      "files": {}
    },
    {
      "args": [
        "\"--faked-system-time=1671553073!\"",
        "\"--list-keys\"",
        "\"--with-secret\"",
        "\"--with-colons\""
      ],
      "stderr": "gpg: WARNING: unsafe permissions on homedir '/HOMEDIR'\\ngpg: WARNING: running with faked system time: 2022-12-20 16:17:53\\n",
      "stdout": "tru::1:1671553073:0:3:1:5\\npub:-:255:22:652183F0DA829AEB:1671553073:::-:::cSC:::::ed25519:::0:\\nfpr:::::::::E412F86A95B8BB2F101AA0A6652183F0DA829AEB:\\nuid:-::::1671553073::97A0BD8BBC59E076934333E17C8D55AD5252B82F::Alice Lovelace <alice@lovelace.name>::::::::::0:\\nsub:-:255:22:4E25D6452ABE6DC6:1671553073::::::s:::::ed25519::\\nfpr:::::::::38C1F18184FDC0A341C028324E25D6452ABE6DC6:\\n",
      "statusfd": "",
      "status": "exit status: 0",
      "files": {}
    },
    {
      "args": [
        "\"--faked-system-time=1671553073!\"",
        "\"--list-secret-keys\""
      ],
      "stderr": "gpg: WARNING: unsafe permissions on homedir '/HOMEDIR'\\ngpg: WARNING: running with faked system time: 2022-12-20 16:17:53\\n",
      "stdout": "",
      "statusfd": "",
      "status": "exit status: 0",
      "files": {}
    },
    {
      "args": [
        "\"--faked-system-time=1671553073!\"",
        "\"--list-secret-keys\"",
        "\"--with-colons\""
      ],
      "stderr": "gpg: WARNING: unsafe permissions on homedir '/HOMEDIR'\\ngpg: WARNING: running with faked system time: 2022-12-20 16:17:53\\n",
      "stdout": "",
      "statusfd": "",
      "status": "exit status: 0",
      "files": {}
    },
    {
      "args": [
        "\"--faked-system-time=1671553073!\"",
        "\"--batch\"",
        "\"--import\"",
        "\"/EXPERIMENT/cert\""
      ],
      "stderr": "gpg: WARNING: unsafe permissions on homedir '/HOMEDIR'\\ngpg: WARNING: running with faked system time: 2022-12-20 16:17:53\\ngpg: key 652183F0DA829AEB: \"Alice Lovelace <alice@lovelace.name>\" not changed\\ngpg: key 652183F0DA829AEB: secret key imported\\ngpg: Total number processed: 1\\ngpg:              unchanged: 1\\ngpg:       secret keys read: 1\\ngpg:   secret keys imported: 1\\n",
      "stdout": "",
      "statusfd": "[GNUPG:] IMPORT_OK 0 E412F86A95B8BB2F101AA0A6652183F0DA829AEB\\n[GNUPG:] KEY_CONSIDERED E412F86A95B8BB2F101AA0A6652183F0DA829AEB 0\\n[GNUPG:] KEY_CONSIDERED E412F86A95B8BB2F101AA0A6652183F0DA829AEB 0\\n[GNUPG:] IMPORT_OK 17 E412F86A95B8BB2F101AA0A6652183F0DA829AEB\\n[GNUPG:] IMPORT_RES 1 0 0 0 1 0 0 0 0 1 1 0 0 0 0\\n",
      "status": "exit status: 0",
      "files": {}
    },
    {
      "args": [
        "\"--faked-system-time=1671553073!\"",
        "\"--list-keys\""
      ],
      "stderr": "gpg: WARNING: unsafe permissions on homedir '/HOMEDIR'\\ngpg: WARNING: running with faked system time: 2022-12-20 16:17:53\\n",
      "stdout": "/HOMEDIR/pubring.kbx\\n--------------------\\npub   ed25519 2022-12-20 [C]\\n      E412F86A95B8BB2F101AA0A6652183F0DA829AEB\\nuid           [ unknown] Alice Lovelace <alice@lovelace.name>\\nsub   ed25519 2022-12-20 [S]\\n\\n",
      "statusfd": "",
      "status": "exit status: 0",
      "files": {}
    },
    {
      "args": [
        "\"--faked-system-time=1671553073!\"",
        "\"--list-keys\"",
        "\"--with-colons\""
      ],
      "stderr": "gpg: WARNING: unsafe permissions on homedir '/HOMEDIR'\\ngpg: WARNING: running with faked system time: 2022-12-20 16:17:53\\n",
      "stdout": "tru::1:1671553073:0:3:1:5\\npub:-:255:22:652183F0DA829AEB:1671553073:::-:::cSC:::::ed25519:::0:\\nfpr:::::::::E412F86A95B8BB2F101AA0A6652183F0DA829AEB:\\nuid:-::::1671553073::97A0BD8BBC59E076934333E17C8D55AD5252B82F::Alice Lovelace <alice@lovelace.name>::::::::::0:\\nsub:-:255:22:4E25D6452ABE6DC6:1671553073::::::s:::::ed25519::\\nfpr:::::::::38C1F18184FDC0A341C028324E25D6452ABE6DC6:\\n",
      "statusfd": "",
      "status": "exit status: 0",
      "files": {}
    },
    {
      "args": [
        "\"--faked-system-time=1671553073!\"",
        "\"--list-keys\"",
        "\"--with-secret\""
      ],
      "stderr": "gpg: WARNING: unsafe permissions on homedir '/HOMEDIR'\\ngpg: WARNING: running with faked system time: 2022-12-20 16:17:53\\n",
      "stdout": "/HOMEDIR/pubring.kbx\\n--------------------\\npub   ed25519 2022-12-20 [C]\\n      E412F86A95B8BB2F101AA0A6652183F0DA829AEB\\nuid           [ unknown] Alice Lovelace <alice@lovelace.name>\\nsub   ed25519 2022-12-20 [S]\\n\\n",
      "statusfd": "",
      "status": "exit status: 0",
      "files": {}
    },
    {
      "args": [
        "\"--faked-system-time=1671553073!\"",
        "\"--list-keys\"",
        "\"--with-secret\"",
        "\"--with-colons\""
      ],
      "stderr": "gpg: WARNING: unsafe permissions on homedir '/HOMEDIR'\\ngpg: WARNING: running with faked system time: 2022-12-20 16:17:53\\n",
      "stdout": "tru::1:1671553073:0:3:1:5\\npub:-:255:22:652183F0DA829AEB:1671553073:::-:::cSC:::+::ed25519:::0:\\nfpr:::::::::E412F86A95B8BB2F101AA0A6652183F0DA829AEB:\\ngrp:::::::::6092B67FEB91E78306E19D9B9C87E07675CB262C:\\nuid:-::::1671553073::97A0BD8BBC59E076934333E17C8D55AD5252B82F::Alice Lovelace <alice@lovelace.name>::::::::::0:\\nsub:-:255:22:4E25D6452ABE6DC6:1671553073::::::s:::+::ed25519::\\nfpr:::::::::38C1F18184FDC0A341C028324E25D6452ABE6DC6:\\ngrp:::::::::C19071E564DBFFFDF22026FBF6264836B9E6FB15:\\n",
      "statusfd": "",
      "status": "exit status: 0",
      "files": {}
    },
    {
      "args": [
        "\"--faked-system-time=1671553073!\"",
        "\"--list-secret-keys\""
      ],
      "stderr": "gpg: WARNING: unsafe permissions on homedir '/HOMEDIR'\\ngpg: WARNING: running with faked system time: 2022-12-20 16:17:53\\n",
      "stdout": "/HOMEDIR/pubring.kbx\\n--------------------\\nsec   ed25519 2022-12-20 [C]\\n      E412F86A95B8BB2F101AA0A6652183F0DA829AEB\\nuid           [ unknown] Alice Lovelace <alice@lovelace.name>\\nssb   ed25519 2022-12-20 [S]\\n\\n",
      "statusfd": "",
      "status": "exit status: 0",
      "files": {}
    },
    {
      "args": [
        "\"--faked-system-time=1671553073!\"",
        "\"--list-secret-keys\"",
        "\"--with-colons\""
      ],
      "stderr": "gpg: WARNING: unsafe permissions on homedir '/HOMEDIR'\\ngpg: WARNING: running with faked system time: 2022-12-20 16:17:53\\n",
      "stdout": "sec:-:255:22:652183F0DA829AEB:1671553073:::-:::cSC:::+::ed25519:::0:\\nfpr:::::::::E412F86A95B8BB2F101AA0A6652183F0DA829AEB:\\ngrp:::::::::6092B67FEB91E78306E19D9B9C87E07675CB262C:\\nuid:-::::1671553073::97A0BD8BBC59E076934333E17C8D55AD5252B82F::Alice Lovelace <alice@lovelace.name>::::::::::0:\\nssb:-:255:22:4E25D6452ABE6DC6:1671553073::::::s:::+::ed25519::\\nfpr:::::::::38C1F18184FDC0A341C028324E25D6452ABE6DC6:\\ngrp:::::::::C19071E564DBFFFDF22026FBF6264836B9E6FB15:\\n",
      "statusfd": "",
      "status": "exit status: 0",
      "files": {}
    }
  ],
  "former_us_outputs": [
    {
      "args": [
        "\"--faked-system-time=1671553073!\"",
        "\"--list-keys\""
      ],
      "stderr": "gpg: WARNING: unsafe permissions on homedir '/HOMEDIR'\\ngpg: WARNING: running with faked system time: 2022-12-20 16:17:53\\n",
      "stdout": "",
      "statusfd": "",
      "status": "exit status: 0",
      "files": {}
    },
    {
      "args": [
        "\"--faked-system-time=1671553073!\"",
        "\"--import\"",
        "\"/EXPERIMENT/cert\""
      ],
      "stderr": "gpg: WARNING: unsafe permissions on homedir '/HOMEDIR'\\ngpg: WARNING: running with faked system time: 2022-12-20 16:17:53\\ngpg: key 652183F0DA829AEB: public key \"Alice Lovelace <alice@lovelace.name>\" imported\\ngpg: Total number processed: 1\\ngpg:               imported: 1\\n",
      "stdout": "",
      "statusfd": "[GNUPG:] KEY_CONSIDERED E412F86A95B8BB2F101AA0A6652183F0DA829AEB 0\\n[GNUPG:] IMPORTED 652183F0DA829AEB Alice Lovelace <alice@lovelace.name>\\n[GNUPG:] IMPORT_OK 1 E412F86A95B8BB2F101AA0A6652183F0DA829AEB\\n[GNUPG:] IMPORT_RES 1 0 1 0 0 0 0 0 0 0 0 0 0 0 0\\n",
      "status": "exit status: 0",
      "files": {}
    },
    {
      "args": [
        "\"--faked-system-time=1671553073!\"",
        "\"--list-keys\""
      ],
      "stderr": "gpg: WARNING: unsafe permissions on homedir '/HOMEDIR'\\ngpg: WARNING: running with faked system time: 2022-12-20 16:17:53\\n",
      "stdout": "/HOMEDIR/pubring.kbx\\n---------------------\\npub   ed25519 2022-12-20 [C]\\n      E412F86A95B8BB2F101AA0A6652183F0DA829AEB\\nuid           [ unknown] Alice Lovelace <alice@lovelace.name>\\nsub   ed25519 2022-12-20 [S]\\n\\n",
      "statusfd": "",
      "status": "exit status: 0",
      "files": {}
    },
    {
      "args": [
        "\"--faked-system-time=1671553073!\"",
        "\"--list-keys\"",
        "\"--list-options=show-uid-validity\""
      ],
      "stderr": "gpg: WARNING: unsafe permissions on homedir '/HOMEDIR'\\ngpg: WARNING: running with faked system time: 2022-12-20 16:17:53\\n",
      "stdout": "/HOMEDIR/pubring.kbx\\n---------------------\\npub   ed25519 2022-12-20 [C]\\n      E412F86A95B8BB2F101AA0A6652183F0DA829AEB\\nuid           [ unknown] Alice Lovelace <alice@lovelace.name>\\nsub   ed25519 2022-12-20 [S]\\n\\n",
      "statusfd": "",
      "status": "exit status: 0",
      "files": {}
    },
    {
      "args": [
        "\"--faked-system-time=1671553073!\"",
        "\"--list-keys\"",
        "\"--list-options=no-show-uid-validity\""
      ],
      "stderr": "gpg: WARNING: unsafe permissions on homedir '/HOMEDIR'\\ngpg: WARNING: running with faked system time: 2022-12-20 16:17:53\\n",
      "stdout": "/HOMEDIR/pubring.kbx\\n---------------------\\npub   ed25519 2022-12-20 [C]\\n      E412F86A95B8BB2F101AA0A6652183F0DA829AEB\\nuid                      Alice Lovelace <alice@lovelace.name>\\nsub   ed25519 2022-12-20 [S]\\n\\n",
      "statusfd": "",
      "status": "exit status: 0",
      "files": {}
    },
    {
      "args": [
        "\"--faked-system-time=1671553073!\"",
        "\"--list-keys\"",
        "\"--with-colons\""
      ],
      "stderr": "gpg: WARNING: unsafe permissions on homedir '/HOMEDIR'\\ngpg: WARNING: running with faked system time: 2022-12-20 16:17:53\\n",
      "stdout": "tru::1:1671553073:0:3:1:5\\npub:-:255:22:652183F0DA829AEB:1671553073:::-:::cSC:::::ed25519:::0:\\nfpr:::::::::E412F86A95B8BB2F101AA0A6652183F0DA829AEB:\\nuid:-::::1671553073::97A0BD8BBC59E076934333E17C8D55AD5252B82F::Alice Lovelace <alice@lovelace.name>::::::::::0:\\nsub:-:255:22:4E25D6452ABE6DC6:1671553073::::::s:::::ed25519::\\nfpr:::::::::38C1F18184FDC0A341C028324E25D6452ABE6DC6:\\n",
      "statusfd": "",
      "status": "exit status: 0",
      "files": {}
    },
    {
      "args": [
        "\"--faked-system-time=1671553073!\"",
        "\"--list-keys\"",
        "\"--list-options=show-uid-validity\"",
        "\"--with-colons\""
      ],
      "stderr": "gpg: WARNING: unsafe permissions on homedir '/HOMEDIR'\\ngpg: WARNING: running with faked system time: 2022-12-20 16:17:53\\n",
      "stdout": "tru::1:1671553073:0:3:1:5\\npub:-:255:22:652183F0DA829AEB:1671553073:::-:::cSC:::::ed25519:::0:\\nfpr:::::::::E412F86A95B8BB2F101AA0A6652183F0DA829AEB:\\nuid:-::::1671553073::97A0BD8BBC59E076934333E17C8D55AD5252B82F::Alice Lovelace <alice@lovelace.name>::::::::::0:\\nsub:-:255:22:4E25D6452ABE6DC6:1671553073::::::s:::::ed25519::\\nfpr:::::::::38C1F18184FDC0A341C028324E25D6452ABE6DC6:\\n",
      "statusfd": "",
      "status": "exit status: 0",
      "files": {}
    },
    {
      "args": [
        "\"--faked-system-time=1671553073!\"",
        "\"--list-keys\"",
        "\"--list-options=no-show-uid-validity\"",
        "\"--with-colons\""
      ],
      "stderr": "gpg: WARNING: unsafe permissions on homedir '/HOMEDIR'\\ngpg: WARNING: running with faked system time: 2022-12-20 16:17:53\\n",
      "stdout": "tru::1:1671553073:0:3:1:5\\npub:-:255:22:652183F0DA829AEB:1671553073:::-:::cSC:::::ed25519:::0:\\nfpr:::::::::E412F86A95B8BB2F101AA0A6652183F0DA829AEB:\\nuid:-::::1671553073::97A0BD8BBC59E076934333E17C8D55AD5252B82F::Alice Lovelace <alice@lovelace.name>::::::::::0:\\nsub:-:255:22:4E25D6452ABE6DC6:1671553073::::::s:::::ed25519::\\nfpr:::::::::38C1F18184FDC0A341C028324E25D6452ABE6DC6:\\n",
      "statusfd": "",
      "status": "exit status: 0",
      "files": {}
    },
    {
      "args": [
        "\"--faked-system-time=1671553073!\"",
        "\"--fingerprint\""
      ],
      "stderr": "gpg: WARNING: unsafe permissions on homedir '/HOMEDIR'\\ngpg: WARNING: running with faked system time: 2022-12-20 16:17:53\\n",
      "stdout": "/HOMEDIR/pubring.kbx\\n---------------------\\npub   ed25519 2022-12-20 [C]\\n      E412 F86A 95B8 BB2F 101A  A0A6 6521 83F0 DA82 9AEB\\nuid           [ unknown] Alice Lovelace <alice@lovelace.name>\\nsub   ed25519 2022-12-20 [S]\\n\\n",
      "statusfd": "",
      "status": "exit status: 0",
      "files": {}
    },
    {
      "args": [
        "\"--faked-system-time=1671553073!\"",
        "\"--fingerprint\"",
        "\"--fingerprint\""
      ],
      "stderr": "gpg: WARNING: unsafe permissions on homedir '/HOMEDIR'\\ngpg: WARNING: running with faked system time: 2022-12-20 16:17:53\\n",
      "stdout": "/HOMEDIR/pubring.kbx\\n---------------------\\npub   ed25519 2022-12-20 [C]\\n      E412 F86A 95B8 BB2F 101A  A0A6 6521 83F0 DA82 9AEB\\nuid           [ unknown] Alice Lovelace <alice@lovelace.name>\\nsub   ed25519 2022-12-20 [S]\\n      38C1 F181 84FD C0A3 41C0  2832 4E25 D645 2ABE 6DC6\\n\\n",
      "statusfd": "",
      "status": "exit status: 0",
      "files": {}
    },
    {
      "args": [
        "\"--faked-system-time=1671553073!\"",
        "\"--fingerprint\"",
        "\"--with-colons\""
      ],
      "stderr": "gpg: WARNING: unsafe permissions on homedir '/HOMEDIR'\\ngpg: WARNING: running with faked system time: 2022-12-20 16:17:53\\n",
      "stdout": "tru::1:1671553073:0:3:1:5\\npub:-:255:22:652183F0DA829AEB:1671553073:::-:::cSC:::::ed25519:::0:\\nfpr:::::::::E412F86A95B8BB2F101AA0A6652183F0DA829AEB:\\nuid:-::::1671553073::97A0BD8BBC59E076934333E17C8D55AD5252B82F::Alice Lovelace <alice@lovelace.name>::::::::::0:\\nsub:-:255:22:4E25D6452ABE6DC6:1671553073::::::s:::::ed25519::\\nfpr:::::::::38C1F18184FDC0A341C028324E25D6452ABE6DC6:\\n",
      "statusfd": "",
      "status": "exit status: 0",
      "files": {}
    },
    {
      "args": [
        "\"--faked-system-time=1671553073!\"",
        "\"--fingerprint\"",
        "\"--fingerprint\"",
        "\"--with-colons\""
      ],
      "stderr": "gpg: WARNING: unsafe permissions on homedir '/HOMEDIR'\\ngpg: WARNING: running with faked system time: 2022-12-20 16:17:53\\n",
      "stdout": "tru::1:1671553073:0:3:1:5\\npub:-:255:22:652183F0DA829AEB:1671553073:::-:::cSC:::::ed25519:::0:\\nfpr:::::::::E412F86A95B8BB2F101AA0A6652183F0DA829AEB:\\nuid:-::::1671553073::97A0BD8BBC59E076934333E17C8D55AD5252B82F::Alice Lovelace <alice@lovelace.name>::::::::::0:\\nsub:-:255:22:4E25D6452ABE6DC6:1671553073::::::s:::::ed25519::\\nfpr:::::::::38C1F18184FDC0A341C028324E25D6452ABE6DC6:\\n",
      "statusfd": "",
      "status": "exit status: 0",
      "files": {}
    },
    {
      "args": [
        "\"--faked-system-time=1671553073!\"",
        "\"--list-keys\"",
        "\"--with-fingerprint\""
      ],
      "stderr": "gpg: WARNING: unsafe permissions on homedir '/HOMEDIR'\\ngpg: WARNING: running with faked system time: 2022-12-20 16:17:53\\n",
      "stdout": "/HOMEDIR/pubring.kbx\\n---------------------\\npub   ed25519 2022-12-20 [C]\\n      E412 F86A 95B8 BB2F 101A  A0A6 6521 83F0 DA82 9AEB\\nuid           [ unknown] Alice Lovelace <alice@lovelace.name>\\nsub   ed25519 2022-12-20 [S]\\n\\n",
      "statusfd": "",
      "status": "exit status: 0",
      "files": {}
    },
    {
      "args": [
        "\"--faked-system-time=1671553073!\"",
        "\"--list-keys\"",
        "\"--with-fingerprint\"",
        "\"--with-fingerprint\""
      ],
      "stderr": "gpg: WARNING: unsafe permissions on homedir '/HOMEDIR'\\ngpg: WARNING: running with faked system time: 2022-12-20 16:17:53\\n",
      "stdout": "/HOMEDIR/pubring.kbx\\n---------------------\\npub   ed25519 2022-12-20 [C]\\n      E412 F86A 95B8 BB2F 101A  A0A6 6521 83F0 DA82 9AEB\\nuid           [ unknown] Alice Lovelace <alice@lovelace.name>\\nsub   ed25519 2022-12-20 [S]\\n      38C1 F181 84FD C0A3 41C0  2832 4E25 D645 2ABE 6DC6\\n\\n",
      "statusfd": "",
      "status": "exit status: 0",
      "files": {}
    },
    {
      "args": [
        "\"--faked-system-time=1671553073!\"",
        "\"--list-keys\"",
        "\"--with-fingerprint\"",
        "\"--with-colons\""
      ],
      "stderr": "gpg: WARNING: unsafe permissions on homedir '/HOMEDIR'\\ngpg: WARNING: running with faked system time: 2022-12-20 16:17:53\\n",
      "stdout": "tru::1:1671553073:0:3:1:5\\npub:-:255:22:652183F0DA829AEB:1671553073:::-:::cSC:::::ed25519:::0:\\nfpr:::::::::E412F86A95B8BB2F101AA0A6652183F0DA829AEB:\\nuid:-::::1671553073::97A0BD8BBC59E076934333E17C8D55AD5252B82F::Alice Lovelace <alice@lovelace.name>::::::::::0:\\nsub:-:255:22:4E25D6452ABE6DC6:1671553073::::::s:::::ed25519::\\nfpr:::::::::38C1F18184FDC0A341C028324E25D6452ABE6DC6:\\n",
      "statusfd": "",
      "status": "exit status: 0",
      "files": {}
    },
    {
      "args": [
        "\"--faked-system-time=1671553073!\"",
        "\"--list-keys\"",
        "\"--with-fingerprint\"",
        "\"--with-fingerprint\"",
        "\"--with-colons\""
      ],
      "stderr": "gpg: WARNING: unsafe permissions on homedir '/HOMEDIR'\\ngpg: WARNING: running with faked system time: 2022-12-20 16:17:53\\n",
      "stdout": "tru::1:1671553073:0:3:1:5\\npub:-:255:22:652183F0DA829AEB:1671553073:::-:::cSC:::::ed25519:::0:\\nfpr:::::::::E412F86A95B8BB2F101AA0A6652183F0DA829AEB:\\nuid:-::::1671553073::97A0BD8BBC59E076934333E17C8D55AD5252B82F::Alice Lovelace <alice@lovelace.name>::::::::::0:\\nsub:-:255:22:4E25D6452ABE6DC6:1671553073::::::s:::::ed25519::\\nfpr:::::::::38C1F18184FDC0A341C028324E25D6452ABE6DC6:\\n",
      "statusfd": "",
      "status": "exit status: 0",
      "files": {}
    },
    {
      "args": [
        "\"--faked-system-time=1671553073!\"",
        "\"--list-keys\"",
        "\"--keyid-format\"",
        "\"none\""
      ],
      "stderr": "gpg: WARNING: unsafe permissions on homedir '/HOMEDIR'\\ngpg: WARNING: running with faked system time: 2022-12-20 16:17:53\\n",
      "stdout": "/HOMEDIR/pubring.kbx\\n---------------------\\npub   ed25519 2022-12-20 [C]\\n      E412F86A95B8BB2F101AA0A6652183F0DA829AEB\\nuid           [ unknown] Alice Lovelace <alice@lovelace.name>\\nsub   ed25519 2022-12-20 [S]\\n\\n",
      "statusfd": "",
      "status": "exit status: 0",
      "files": {}
    },
    {
      "args": [
        "\"--faked-system-time=1671553073!\"",
        "\"--list-keys\"",
        "\"--keyid-format\"",
        "\"lOng\""
      ],
      "stderr": "gpg: WARNING: unsafe permissions on homedir '/HOMEDIR'\\ngpg: WARNING: running with faked system time: 2022-12-20 16:17:53\\n",
      "stdout": "/HOMEDIR/pubring.kbx\\n---------------------\\npub   ed25519/652183F0DA829AEB 2022-12-20 [C]\\n      E412F86A95B8BB2F101AA0A6652183F0DA829AEB\\nuid                 [ unknown] Alice Lovelace <alice@lovelace.name>\\nsub   ed25519/4E25D6452ABE6DC6 2022-12-20 [S]\\n\\n",
      "statusfd": "",
      "status": "exit status: 0",
      "files": {}
    },
    {
      "args": [
        "\"--faked-system-time=1671553073!\"",
        "\"--list-keys\"",
        "\"--keyid-format\"",
        "\"0xloNg\""
      ],
      "stderr": "gpg: WARNING: unsafe permissions on homedir '/HOMEDIR'\\ngpg: WARNING: running with faked system time: 2022-12-20 16:17:53\\n",
      "stdout": "/HOMEDIR/pubring.kbx\\n---------------------\\npub   ed25519/0x652183F0DA829AEB 2022-12-20 [C]\\n      E412F86A95B8BB2F101AA0A6652183F0DA829AEB\\nuid                   [ unknown] Alice Lovelace <alice@lovelace.name>\\nsub   ed25519/0x4E25D6452ABE6DC6 2022-12-20 [S]\\n\\n",
      "statusfd": "",
      "status": "exit status: 0",
      "files": {}
    },
    {
      "args": [
        "\"--faked-system-time=1671553073!\"",
        "\"--list-keys\"",
        "\"--keyid-format\"",
        "\"0xlong\"",
        "\"--with-colons\""
      ],
      "stderr": "gpg: WARNING: unsafe permissions on homedir '/HOMEDIR'\\ngpg: WARNING: running with faked system time: 2022-12-20 16:17:53\\n",
      "stdout": "tru::1:1671553073:0:3:1:5\\npub:-:255:22:652183F0DA829AEB:1671553073:::-:::cSC:::::ed25519:::0:\\nfpr:::::::::E412F86A95B8BB2F101AA0A6652183F0DA829AEB:\\nuid:-::::1671553073::97A0BD8BBC59E076934333E17C8D55AD5252B82F::Alice Lovelace <alice@lovelace.name>::::::::::0:\\nsub:-:255:22:4E25D6452ABE6DC6:1671553073::::::s:::::ed25519::\\nfpr:::::::::38C1F18184FDC0A341C028324E25D6452ABE6DC6:\\n",
      "statusfd": "",
      "status": "exit status: 0",
      "files": {}
    },
    {
      "args": [
        "\"--faked-system-time=1671553073!\"",
        "\"--list-keys\"",
        "\"--with-secret\""
      ],
      "stderr": "gpg: WARNING: unsafe permissions on homedir '/HOMEDIR'\\ngpg: WARNING: running with faked system time: 2022-12-20 16:17:53\\n",
      "stdout": "/HOMEDIR/pubring.kbx\\n---------------------\\npub   ed25519 2022-12-20 [C]\\n      E412F86A95B8BB2F101AA0A6652183F0DA829AEB\\nuid           [ unknown] Alice Lovelace <alice@lovelace.name>\\nsub   ed25519 2022-12-20 [S]\\n\\n",
      "statusfd": "",
      "status": "exit status: 0",
      "files": {}
    },
    {
      "args": [
        "\"--faked-system-time=1671553073!\"",
        "\"--list-keys\"",
        "\"--with-secret\"",
        "\"--with-colons\""
      ],
      "stderr": "gpg: WARNING: unsafe permissions on homedir '/HOMEDIR'\\ngpg: WARNING: running with faked system time: 2022-12-20 16:17:53\\n",
      "stdout": "tru::1:1671553073:0:3:1:5\\npub:-:255:22:652183F0DA829AEB:1671553073:::-:::cSC:::::ed25519:::0:\\nfpr:::::::::E412F86A95B8BB2F101AA0A6652183F0DA829AEB:\\nuid:-::::1671553073::97A0BD8BBC59E076934333E17C8D55AD5252B82F::Alice Lovelace <alice@lovelace.name>::::::::::0:\\nsub:-:255:22:4E25D6452ABE6DC6:1671553073::::::s:::::ed25519::\\nfpr:::::::::38C1F18184FDC0A341C028324E25D6452ABE6DC6:\\n",
      "statusfd": "",
      "status": "exit status: 0",
      "files": {}
    },
    {
      "args": [
        "\"--faked-system-time=1671553073!\"",
        "\"--list-secret-keys\""
      ],
      "stderr": "gpg: WARNING: unsafe permissions on homedir '/HOMEDIR'\\ngpg: WARNING: running with faked system time: 2022-12-20 16:17:53\\n",
      "stdout": "",
      "statusfd": "",
      "status": "exit status: 0",
      "files": {}
    },
    {
      "args": [
        "\"--faked-system-time=1671553073!\"",
        "\"--list-secret-keys\"",
        "\"--with-colons\""
      ],
      "stderr": "gpg: WARNING: unsafe permissions on homedir '/HOMEDIR'\\ngpg: WARNING: running with faked system time: 2022-12-20 16:17:53\\n",
      "stdout": "",
      "statusfd": "",
      "status": "exit status: 0",
      "files": {}
    },
    {
      "args": [
        "\"--faked-system-time=1671553073!\"",
        "\"--batch\"",
        "\"--import\"",
        "\"/EXPERIMENT/cert\""
      ],
      "stderr": "gpg: WARNING: unsafe permissions on homedir '/HOMEDIR'\\ngpg: WARNING: running with faked system time: 2022-12-20 16:17:53\\ngpg: key 652183F0DA829AEB: \"Alice Lovelace <alice@lovelace.name>\" not changed\\ngpg: key 652183F0DA829AEB: secret key imported\\ngpg: Total number processed: 1\\ngpg:              unchanged: 1\\ngpg:       secret keys read: 1\\ngpg:   secret keys imported: 1\\n",
      "stdout": "",
      "statusfd": "[GNUPG:] IMPORT_OK 0 E412F86A95B8BB2F101AA0A6652183F0DA829AEB\\n[GNUPG:] KEY_CONSIDERED E412F86A95B8BB2F101AA0A6652183F0DA829AEB 0\\n[GNUPG:] IMPORT_OK 17 E412F86A95B8BB2F101AA0A6652183F0DA829AEB\\n[GNUPG:] IMPORT_RES 1 0 0 0 1 0 0 0 0 1 1 0 0 0 0\\n",
      "status": "exit status: 0",
      "files": {}
    },
    {
      "args": [
        "\"--faked-system-time=1671553073!\"",
        "\"--list-keys\""
      ],
      "stderr": "gpg: WARNING: unsafe permissions on homedir '/HOMEDIR'\\ngpg: WARNING: running with faked system time: 2022-12-20 16:17:53\\n",
      "stdout": "/HOMEDIR/pubring.kbx\\n---------------------\\npub   ed25519 2022-12-20 [C]\\n      E412F86A95B8BB2F101AA0A6652183F0DA829AEB\\nuid           [ unknown] Alice Lovelace <alice@lovelace.name>\\nsub   ed25519 2022-12-20 [S]\\n\\n",
      "statusfd": "",
      "status": "exit status: 0",
      "files": {}
    },
    {
      "args": [
        "\"--faked-system-time=1671553073!\"",
        "\"--list-keys\"",
        "\"--with-colons\""
      ],
      "stderr": "gpg: WARNING: unsafe permissions on homedir '/HOMEDIR'\\ngpg: WARNING: running with faked system time: 2022-12-20 16:17:53\\n",
      "stdout": "tru::1:1671553073:0:3:1:5\\npub:-:255:22:652183F0DA829AEB:1671553073:::-:::cSC:::::ed25519:::0:\\nfpr:::::::::E412F86A95B8BB2F101AA0A6652183F0DA829AEB:\\nuid:-::::1671553073::97A0BD8BBC59E076934333E17C8D55AD5252B82F::Alice Lovelace <alice@lovelace.name>::::::::::0:\\nsub:-:255:22:4E25D6452ABE6DC6:1671553073::::::s:::::ed25519::\\nfpr:::::::::38C1F18184FDC0A341C028324E25D6452ABE6DC6:\\n",
      "statusfd": "",
      "status": "exit status: 0",
      "files": {}
    },
    {
      "args": [
        "\"--faked-system-time=1671553073!\"",
        "\"--list-keys\"",
        "\"--with-secret\""
      ],
      "stderr": "gpg: WARNING: unsafe permissions on homedir '/HOMEDIR'\\ngpg: WARNING: running with faked system time: 2022-12-20 16:17:53\\n",
      "stdout": "/HOMEDIR/pubring.kbx\\n---------------------\\npub   ed25519 2022-12-20 [C]\\n      E412F86A95B8BB2F101AA0A6652183F0DA829AEB\\nuid           [ unknown] Alice Lovelace <alice@lovelace.name>\\nsub   ed25519 2022-12-20 [S]\\n\\n",
      "statusfd": "",
      "status": "exit status: 0",
      "files": {}
    },
    {
      "args": [
        "\"--faked-system-time=1671553073!\"",
        "\"--list-keys\"",
        "\"--with-secret\"",
        "\"--with-colons\""
      ],
      "stderr": "gpg: WARNING: unsafe permissions on homedir '/HOMEDIR'\\ngpg: WARNING: running with faked system time: 2022-12-20 16:17:53\\n",
      "stdout": "tru::1:1671553073:0:3:1:5\\npub:-:255:22:652183F0DA829AEB:1671553073:::-:::cSC:::+::ed25519:::0:\\nfpr:::::::::E412F86A95B8BB2F101AA0A6652183F0DA829AEB:\\ngrp:::::::::6092B67FEB91E78306E19D9B9C87E07675CB262C:\\nuid:-::::1671553073::97A0BD8BBC59E076934333E17C8D55AD5252B82F::Alice Lovelace <alice@lovelace.name>::::::::::0:\\nsub:-:255:22:4E25D6452ABE6DC6:1671553073::::::s:::+::ed25519::\\nfpr:::::::::38C1F18184FDC0A341C028324E25D6452ABE6DC6:\\ngrp:::::::::C19071E564DBFFFDF22026FBF6264836B9E6FB15:\\n",
      "statusfd": "",
      "status": "exit status: 0",
      "files": {}
    },
    {
      "args": [
        "\"--faked-system-time=1671553073!\"",
        "\"--list-secret-keys\""
      ],
      "stderr": "gpg: WARNING: unsafe permissions on homedir '/HOMEDIR'\\ngpg: WARNING: running with faked system time: 2022-12-20 16:17:53\\n",
      "stdout": "/HOMEDIR/pubring.kbx\\n---------------------\\nsec   ed25519 2022-12-20 [C]\\n      E412F86A95B8BB2F101AA0A6652183F0DA829AEB\\nuid           [ unknown] Alice Lovelace <alice@lovelace.name>\\nssb   ed25519 2022-12-20 [S]\\n\\n",
      "statusfd": "",
      "status": "exit status: 0",
      "files": {}
    },
    {
      "args": [
        "\"--faked-system-time=1671553073!\"",
        "\"--list-secret-keys\"",
        "\"--with-colons\""
      ],
      "stderr": "gpg: WARNING: unsafe permissions on homedir '/HOMEDIR'\\ngpg: WARNING: running with faked system time: 2022-12-20 16:17:53\\n",
      "stdout": "sec:-:255:22:652183F0DA829AEB:1671553073:::-:::cSC:::+::ed25519:::0:\\nfpr:::::::::E412F86A95B8BB2F101AA0A6652183F0DA829AEB:\\ngrp:::::::::6092B67FEB91E78306E19D9B9C87E07675CB262C:\\nuid:-::::1671553073::97A0BD8BBC59E076934333E17C8D55AD5252B82F::Alice Lovelace <alice@lovelace.name>::::::::::0:\\nssb:-:255:22:4E25D6452ABE6DC6:1671553073::::::s:::+::ed25519::\\nfpr:::::::::38C1F18184FDC0A341C028324E25D6452ABE6DC6:\\ngrp:::::::::C19071E564DBFFFDF22026FBF6264836B9E6FB15:\\n",
      "statusfd": "",
      "status": "exit status: 0",
      "files": {}
    }
  ],
  "artifacts": {
    "cert": "\\xC5X\\x04c\\xA1\\xE01\\x16\\t+\\x06\\x01\\x04\\x01\\xDAG\\x0F\\x01\\x01\\x07@\\xDB\\xCF\\xAA\\x9C\\x808\\x9E\\xBE\\x92\\xC1\\xCB\\x08\\x9E\\x03_n@[\\xBFv\\x10\\xD1\\xE8e\\x05\\x93\\xCD\\xF2\\xA1<\\xEA\\x1F\\x00\\x01\\x00\\x87%\\x80\\xFB\\x0Bb6i\\xA2s*&\\x8C\\xD4\\xF4%ӕX\\x7F\\xF5\\x1D\\xC7\\xC2\\xC8o\\xC4ijˇ\\xFA\\x11\\x06\\xC2\\xC0\\x0B\\x04\\x1F\\x16\\n\\x00}\\x05\\x82c\\xA1\\xE01\\x03\\x0B\\t\\x07\\t\\x10e!\\x83\\xF0\\xDA\\x82\\x9A\\xEBG\\x14\\x00\\x00\\x00\\x00\\x00\\x1E\\x00 salt@notations.sequoia-pgp.orgob\\x1D{\\xCD\\xC7\\xF7}\\xAFf\\xF3\\x9BDB\\xC2\\x12H\\x10\\xBDx\\xF1w\\xF4\\x8CO\\x18\\x80\\x88\\xED\\x02\\xF2:\\x03\\x15\\n\\x08\\x02\\x9B\\x01\\x02\\x1E\\x01\\x16!\\x04\\xE4\\x12\\xF8j\\x95\\xB8\\xBB/\\x10\\x1A\\xA0\\xA6e!\\x83\\xF0\\xDA\\x82\\x9A\\xEB\\x00\\x00\\xDA\\xFB\\x00\\xFFU\"7\\xEA\\xACdx\\xE7\\x1C\\x05\\xFC\\xFEK\\xBD\\x12f\\x91?j\\xC1Ξ\\xB3\\xA3HAi\\xD5\\x14G\\x15I\\x00\\xFD\\x10S\\xAF\\xB0\\xFF\\xD7\\xCEB\\xDA\\xEC\\x17&\\xF3\\xC8\\xD9\\xFC\\xE1\\xAFh\\x1A\\xBF\\x04\\xC3Q'\\x07z\\xE9\\xC1O\\x03\\x03\\xCD$Alice Lovelace <alice@lovelace.name>\\xC2\\xC0\\x0E\\x04\\x13\\x16\\n\\x00\\x80\\x05\\x82c\\xA1\\xE01\\x03\\x0B\\t\\x07\\t\\x10e!\\x83\\xF0\\xDA\\x82\\x9A\\xEBG\\x14\\x00\\x00\\x00\\x00\\x00\\x1E\\x00 salt@notations.sequoia-pgp.org\\xE5\\xC8%\\xE9\\xE8MNf\\x0B\\x84\\xC5\\xDA\\xF3\\x8F_ʤ\\x02\\x82\\x18B\\x83%\\xD7\\x1A\\n\\x05\\xB7*\\x07S\\x8D\\x03\\x15\\n\\x08\\x02\\x99\\x01\\x02\\x9B\\x01\\x02\\x1E\\x01\\x16!\\x04\\xE4\\x12\\xF8j\\x95\\xB8\\xBB/\\x10\\x1A\\xA0\\xA6e!\\x83\\xF0\\xDA\\x82\\x9A\\xEB\\x00\\x00\\xF3\\x8D\\x01\\x00\\xDB\\xCA\\xAA&X\\xF0\\x1A\\xEB\\xB4(\\xBA(\\xAE\\x9D\\x9D\\xCCd\\xD4l\\x99\\xBE\\x90n\\x9A,u\\xC2a\\xA6\\x8EkA\\x00\\xFFk\\x85\\x08\\xD4\\xD1\\xD6M\\n\\xD2[\\xF8\\r1 \\xB6\\xE4-\\xCB\\xDE\\x0F\\xF3\\x8F-\\x9A\\x98\\xDD\\xFC\\x80JZQ\\x06\\xC7X\\x04c\\xA1\\xE01\\x16\\t+\\x06\\x01\\x04\\x01\\xDAG\\x0F\\x01\\x01\\x07@\\x0F\\xE3\\xF0\\xA1\\x8C|YQD6&\\xE4\\x1B\\x83L\\xBF\\x86r>\\xEE\\xDEv\\xE8\\xA4|\\xE7e\\xBB\\xB0Bfw\\x00\\x00\\xFFlB^\\x9FuQ9\\xA5\\x90/\\xE8e?Z\\x8C\\xD3U\\xBA\\x13\\xC5Hz\\x03\\xCA.M\\xF7R\\xE3\\x7Fs\\xAB\\x10\\x0C\\xC2\\xC0\\xBF\\x04\\x18\\x16\\n\\x011\\x05\\x82c\\xA1\\xE01\\t\\x10e!\\x83\\xF0\\xDA\\x82\\x9A\\xEBG\\x14\\x00\\x00\\x00\\x00\\x00\\x1E\\x00 salt@notations.sequoia-pgp.org\\x1E\\x84\\xCCo\\xDC\\xE5\\xBCr-\\t\\xDEP\\xFE\\r&&\\xE2\\xC0L\"\\x02\\x07\\x0E\\xC9\\x1E\\x92\\x18\\xBE\\x82abT\\x02\\x9B\\x02\\xBE\\xA0\\x04\\x19\\x16\\n\\x00o\\x05\\x82c\\xA1\\xE01\\t\\x10N%\\xD6E*\\xBEm\\xC6G\\x14\\x00\\x00\\x00\\x00\\x00\\x1E\\x00 salt@notations.sequoia-pgp.orgUnc\\xE6\\xD2\\xE7K\\x03G\\x86X\\xAE\\x8E\\x8A\\xA3Cῥ\\xBF\\r\\x1FX#\\xB7J\\xE9}X\\xDB,4\\x16!\\x048\\xC1\\xF1\\x81\\x84\\xFD\\xC0\\xA3A\\xC0(2N%\\xD6E*\\xBEm\\xC6\\x00\\x00)\\xFA\\x01\\x00\\xE1\\x88\\xE9u\\x87\\x81\\xB9z:\\xF3q\\xD5\\x13\\x9Ew|Z\\t\\xB8\\xD8Q\\xACUt\\x8CYr\\xC60\\xF7T\\xED\\x01\\x00\\xD5\\xDF\\x8A\\x17\\xBB\\x94\\xFF\\xD03$\\x1E1\\xAF\\x8CY|p'\\xB4\\xFC\\x08\\x1DT\\xB9M\\xFF\\xC5'\\xB1a\"\\x07\\x16!\\x04\\xE4\\x12\\xF8j\\x95\\xB8\\xBB/\\x10\\x1A\\xA0\\xA6e!\\x83\\xF0\\xDA\\x82\\x9A\\xEB\\x00\\x00\\xF3y\\x01\\x00\\xB7$i\\xEAI\\xCB,\\xFE\\xF1Us\\xD2\\xD2\\x9D\\x9Bm\\x9E\\xFF\\xB2\\x1C\\x88\\xA7RФ1\\xBE\\xDDa\\r}\\xB3\\x01\\x00\\xAFt^\\xC9\\x00ev\\xF7\\xCE_͖A\\xA3<\\x07=\\x8B\\x15kO\\xA9\\xAE\\xFC\\x08y\\x93i7u\\x9A\\x02"
  },
  "dynamic_upper_bounds": [
    [
      0,
      86,
      0
    ],
    [
      0,
      0,
      0
    ],
    [
      1,
      0,
      0
    ],
    [
      1,
      0,
      0
    ],
    [
      1,
      0,
      0
    ],
    [
      0,
      0,
      0
    ],
    [
      0,
      0,
      0
    ],
    [
      0,
      0,
      0
    ],
    [
      1,
      0,
      0
    ],
    [
      1,
      0,
      0
    ],
    [
      0,
      0,
      0
    ],
    [
      0,
      0,
      0
    ],
    [
      1,
      0,
      0
    ],
    [
      1,
      0,
      0
    ],
    [
      0,
      0,
      0
    ],
    [
      0,
      0,
      0
    ],
    [
      1,
      0,
      0
    ],
    [
      1,
      0,
      0
    ],
    [
      1,
      0,
      0
    ],
    [
      0,
      0,
      0
    ],
    [
      1,
      0,
      0
    ],
    [
      0,
      0,
      0
    ],
    [
      0,
      0,
      0
    ],
    [
      0,
      0,
      0
    ],
    [
      0,
      0,
      67
    ],
    [
      1,
      0,
      0
    ],
    [
      0,
      0,
      0
    ],
    [
      1,
      0,
      0
    ],
    [
      0,
      0,
      0
    ],
    [
      1,
      0,
      0
    ],
    [
      0,
      0,
      0
    ]
  ]
}