{
  "outputs": [
    {
      "args": [
        "\"--faked-system-time=1671553073!\"",
        "\"--list-keys\""
      ],
      "stderr": "gpg: WARNING: unsafe permissions on homedir '/HOMEDIR'\\ngpg: WARNING: running with faked system time: 2022-12-20 16:17:53\\ngpg: keybox '/HOMEDIR/pubring.kbx' created\\ngpg: /HOMEDIR/trustdb.gpg: trustdb created\\n",
      "stdout": "",
      "statusfd": "",
      "status": "exit status: 0",
      "files": {}
    },
    {
      "args": [
        "\"--faked-system-time=1671553073!\"",
        "\"--verify\"",
        "\"/EXPERIMENT/sig\"",
        "\"/EXPERIMENT/msg\""
      ],
      "stderr": "gpg: WARNING: unsafe permissions on homedir '/HOMEDIR'\\ngpg: WARNING: running with faked system time: 2022-12-20 16:17:53\\ngpg: Signature made Tue Dec 20 19:17:53 2022 EAT\\ngpg:                using RSA key 7108E748FBED4AC95246593BEC06F80B416AEE24\\ngpg: Can't check signature: No public key\\n",
      "stdout": "",
      "statusfd": "[GNUPG:] NEWSIG\\n[GNUPG:] ERRSIG EC06F80B416AEE24 1 10 00 1671553073 9 7108E748FBED4AC95246593BEC06F80B416AEE24\\n[GNUPG:] NO_PUBKEY EC06F80B416AEE24\\n",
      "status": "exit status: 2",
      "files": {}
    },
    {
      "args": [
        "\"--faked-system-time=1671553073!\"",
        "\"--verify\"",
        "\"/EXPERIMENT/sig\"",
        "\"/EXPERIMENT/msg_bad\""
      ],
      "stderr": "gpg: WARNING: unsafe permissions on homedir '/HOMEDIR'\\ngpg: WARNING: running with faked system time: 2022-12-20 16:17:53\\ngpg: Signature made Tue Dec 20 19:17:53 2022 EAT\\ngpg:                using RSA key 7108E748FBED4AC95246593BEC06F80B416AEE24\\ngpg: Can't check signature: No public key\\n",
      "stdout": "",
      "statusfd": "[GNUPG:] NEWSIG\\n[GNUPG:] ERRSIG EC06F80B416AEE24 1 10 00 1671553073 9 7108E748FBED4AC95246593BEC06F80B416AEE24\\n[GNUPG:] NO_PUBKEY EC06F80B416AEE24\\n",
      "status": "exit status: 2",
      "files": {}
    },
    {
      "args": [
        "\"gpgv\"",
        "\"--keyring\"",
        "\"/EXPERIMENT/empty\"",
        "\"/EXPERIMENT/sig\"",
        "\"/EXPERIMENT/msg\""
      ],
      "stderr": "gpgv: Signature made Tue Dec 20 19:17:53 2022 EAT\\ngpgv:                using RSA key 7108E748FBED4AC95246593BEC06F80B416AEE24\\ngpgv: Can't check signature: No public key\\n",
      "stdout": "",
      "statusfd": "[GNUPG:] NEWSIG\\n[GNUPG:] ERRSIG EC06F80B416AEE24 1 10 00 1671553073 9 7108E748FBED4AC95246593BEC06F80B416AEE24\\n[GNUPG:] NO_PUBKEY EC06F80B416AEE24\\n",
      "status": "exit status: 2",
      "files": {}
    },
    {
      "args": [
        "\"gpgv\"",
        "\"--keyring\"",
        "\"/EXPERIMENT/empty\"",
        "\"/EXPERIMENT/sig\"",
        "\"/EXPERIMENT/msg_bad\""
      ],
      "stderr": "gpgv: Signature made Tue Dec 20 19:17:53 2022 EAT\\ngpgv:                using RSA key 7108E748FBED4AC95246593BEC06F80B416AEE24\\ngpgv: Can't check signature: No public key\\n",
      "stdout": "",
      "statusfd": "[GNUPG:] NEWSIG\\n[GNUPG:] ERRSIG EC06F80B416AEE24 1 10 00 1671553073 9 7108E748FBED4AC95246593BEC06F80B416AEE24\\n[GNUPG:] NO_PUBKEY EC06F80B416AEE24\\n",
      "status": "exit status: 2",
      "files": {}
    },
    {
      "args": [
        "\"--faked-system-time=1671553073!\"",
        "\"--import\"",
        "\"/EXPERIMENT/cert\""
      ],
      "stderr": "gpg: WARNING: unsafe permissions on homedir '/HOMEDIR'\\ngpg: WARNING: running with faked system time: 2022-12-20 16:17:53\\ngpg: key EC06F80B416AEE24: public key \"Alice Lovelace <alice@lovelace.name>\" imported\\ngpg: Total number processed: 1\\ngpg:               imported: 1\\n",
      "stdout": "",
      "statusfd": "[GNUPG:] KEY_CONSIDERED 7108E748FBED4AC95246593BEC06F80B416AEE24 0\\n[GNUPG:] IMPORTED EC06F80B416AEE24 Alice Lovelace <alice@lovelace.name>\\n[GNUPG:] IMPORT_OK 1 7108E748FBED4AC95246593BEC06F80B416AEE24\\n[GNUPG:] IMPORT_RES 1 0 1 0 0 0 0 0 0 0 0 0 0 0 0\\n",
      "status": "exit status: 0",
      "files": {}
    },
    {
      "args": [
        "\"--faked-system-time=1671553073!\"",
        "\"--verify\"",
        "\"/EXPERIMENT/sig\"",
        "\"/EXPERIMENT/msg\""
      ],
      "stderr": "gpg: WARNING: unsafe permissions on homedir '/HOMEDIR'\\ngpg: WARNING: running with faked system time: 2022-12-20 16:17:53\\ngpg: Signature made Tue Dec 20 19:17:53 2022 EAT\\ngpg:                using RSA key 7108E748FBED4AC95246593BEC06F80B416AEE24\\ngpg: bad data signature from key EC06F80B416AEE24: Wrong key usage (0x00, 0x4)\\ngpg: Can't check signature: Wrong key usage\\n",
      "stdout": "",
      "statusfd": "[GNUPG:] NEWSIG\\n[GNUPG:] KEY_CONSIDERED 7108E748FBED4AC95246593BEC06F80B416AEE24 0\\n[GNUPG:] ERRSIG EC06F80B416AEE24 1 10 00 1671553073 125 7108E748FBED4AC95246593BEC06F80B416AEE24\\n",
      "status": "exit status: 2",
      "files": {}
    },
    {
      "args": [
        "\"--faked-system-time=1671553073!\"",
        "\"--verify\"",
        "\"/EXPERIMENT/sig\"",
        "\"/EXPERIMENT/msg_bad\""
      ],
      "stderr": "gpg: WARNING: unsafe permissions on homedir '/HOMEDIR'\\ngpg: WARNING: running with faked system time: 2022-12-20 16:17:53\\ngpg: Signature made Tue Dec 20 19:17:53 2022 EAT\\ngpg:                using RSA key 7108E748FBED4AC95246593BEC06F80B416AEE24\\ngpg: bad data signature from key EC06F80B416AEE24: Wrong key usage (0x00, 0x4)\\ngpg: Can't check signature: Wrong key usage\\n",
      "stdout": "",
      "statusfd": "[GNUPG:] NEWSIG\\n[GNUPG:] KEY_CONSIDERED 7108E748FBED4AC95246593BEC06F80B416AEE24 0\\n[GNUPG:] ERRSIG EC06F80B416AEE24 1 10 00 1671553073 125 7108E748FBED4AC95246593BEC06F80B416AEE24\\n",
      "status": "exit status: 2",
      "files": {}
    },
    {
      "args": [
        "\"gpgv\"",
        "\"--keyring\"",
        "\"/EXPERIMENT/cert\"",
        "\"/EXPERIMENT/sig\"",
        "\"/EXPERIMENT/msg\""
      ],
      "stderr": "gpgv: Signature made Tue Dec 20 19:17:53 2022 EAT\\ngpgv:                using RSA key 7108E748FBED4AC95246593BEC06F80B416AEE24\\ngpgv: bad data signature from key EC06F80B416AEE24: Wrong key usage (0x00, 0x4)\\ngpgv: Can't check signature: Wrong key usage\\n",
      "stdout": "",
      "statusfd": "[GNUPG:] NEWSIG\\n[GNUPG:] KEY_CONSIDERED 7108E748FBED4AC95246593BEC06F80B416AEE24 0\\n[GNUPG:] ERRSIG EC06F80B416AEE24 1 10 00 1671553073 125 7108E748FBED4AC95246593BEC06F80B416AEE24\\n",
      "status": "exit status: 2",
      "files": {}
    },
    {
      "args": [
        "\"gpgv\"",
        "\"--keyring\"",
        "\"/EXPERIMENT/cert\"",
        "\"/EXPERIMENT/sig\"",
        "\"/EXPERIMENT/msg_bad\""
      ],
      "stderr": "gpgv: Signature made Tue Dec 20 19:17:53 2022 EAT\\ngpgv:                using RSA key 7108E748FBED4AC95246593BEC06F80B416AEE24\\ngpgv: bad data signature from key EC06F80B416AEE24: Wrong key usage (0x00, 0x4)\\ngpgv: Can't check signature: Wrong key usage\\n",
      "stdout": "",
      "statusfd": "[GNUPG:] NEWSIG\\n[GNUPG:] KEY_CONSIDERED 7108E748FBED4AC95246593BEC06F80B416AEE24 0\\n[GNUPG:] ERRSIG EC06F80B416AEE24 1 10 00 1671553073 125 7108E748FBED4AC95246593BEC06F80B416AEE24\\n",
      "status": "exit status: 2",
      "files": {}
    },
    {
      "args": [
        "\"--faked-system-time=1671553073!\"",
        "\"--verify\"",
        "\"/EXPERIMENT/sig\"",
        "\"/EXPERIMENT/msg\""
      ],
      "stderr": "gpg: WARNING: unsafe permissions on homedir '/HOMEDIR'\\ngpg: WARNING: running with faked system time: 2022-12-20 16:17:53\\ngpg: Signature made Tue Dec 20 19:17:53 2022 EAT\\ngpg:                using RSA key 57DFFDE4C65AA1D492A19D4812E2B64E271B08D6\\ngpg: bad data signature from key 12E2B64E271B08D6: Wrong key usage (0x00, 0x2)\\ngpg: Can't check signature: Wrong key usage\\n",
      "stdout": "",
      "statusfd": "[GNUPG:] NEWSIG\\n[GNUPG:] KEY_CONSIDERED 7108E748FBED4AC95246593BEC06F80B416AEE24 0\\n[GNUPG:] ERRSIG 12E2B64E271B08D6 1 10 00 1671553073 125 57DFFDE4C65AA1D492A19D4812E2B64E271B08D6\\n",
      "status": "exit status: 2",
      "files": {}
    },
    {
      "args": [
        "\"--faked-system-time=1671553073!\"",
        "\"--verify\"",
        "\"/EXPERIMENT/sig\"",
        "\"/EXPERIMENT/msg_bad\""
      ],
      "stderr": "gpg: WARNING: unsafe permissions on homedir '/HOMEDIR'\\ngpg: WARNING: running with faked system time: 2022-12-20 16:17:53\\ngpg: Signature made Tue Dec 20 19:17:53 2022 EAT\\ngpg:                using RSA key 57DFFDE4C65AA1D492A19D4812E2B64E271B08D6\\ngpg: bad data signature from key 12E2B64E271B08D6: Wrong key usage (0x00, 0x2)\\ngpg: Can't check signature: Wrong key usage\\n",
      "stdout": "",
      "statusfd": "[GNUPG:] NEWSIG\\n[GNUPG:] KEY_CONSIDERED 7108E748FBED4AC95246593BEC06F80B416AEE24 0\\n[GNUPG:] ERRSIG 12E2B64E271B08D6 1 10 00 1671553073 125 57DFFDE4C65AA1D492A19D4812E2B64E271B08D6\\n",
      "status": "exit status: 2",
      "files": {}
    },
    {
      "args": [
        "\"gpgv\"",
        "\"--keyring\"",
        "\"/EXPERIMENT/cert\"",
        "\"/EXPERIMENT/sig\"",
        "\"/EXPERIMENT/msg\""
      ],
      "stderr": "gpgv: Signature made Tue Dec 20 19:17:53 2022 EAT\\ngpgv:                using RSA key 57DFFDE4C65AA1D492A19D4812E2B64E271B08D6\\ngpgv: bad data signature from key 12E2B64E271B08D6: Wrong key usage (0x00, 0x2)\\ngpgv: Can't check signature: Wrong key usage\\n",
      "stdout": "",
      "statusfd": "[GNUPG:] NEWSIG\\n[GNUPG:] KEY_CONSIDERED 7108E748FBED4AC95246593BEC06F80B416AEE24 0\\n[GNUPG:] ERRSIG 12E2B64E271B08D6 1 10 00 1671553073 125 57DFFDE4C65AA1D492A19D4812E2B64E271B08D6\\n",
      "status": "exit status: 2",
      "files": {}
    },
    {
      "args": [
        "\"gpgv\"",
        "\"--keyring\"",
        "\"/EXPERIMENT/cert\"",
        "\"/EXPERIMENT/sig\"",
        "\"/EXPERIMENT/msg_bad\""
      ],
      "stderr": "gpgv: Signature made Tue Dec 20 19:17:53 2022 EAT\\ngpgv:                using RSA key 57DFFDE4C65AA1D492A19D4812E2B64E271B08D6\\ngpgv: bad data signature from key 12E2B64E271B08D6: Wrong key usage (0x00, 0x2)\\ngpgv: Can't check signature: Wrong key usage\\n",
      "stdout": "",
      "statusfd": "[GNUPG:] NEWSIG\\n[GNUPG:] KEY_CONSIDERED 7108E748FBED4AC95246593BEC06F80B416AEE24 0\\n[GNUPG:] ERRSIG 12E2B64E271B08D6 1 10 00 1671553073 125 57DFFDE4C65AA1D492A19D4812E2B64E271B08D6\\n",
      "status": "exit status: 2",
      "files": {}
    },
    {
      "args": [
        "\"--faked-system-time=1671553073!\"",
        "\"--verify\"",
        "\"/EXPERIMENT/sig\"",
        "\"/EXPERIMENT/msg\""
      ],
      "stderr": "gpg: WARNING: unsafe permissions on homedir '/HOMEDIR'\\ngpg: WARNING: running with faked system time: 2022-12-20 16:17:53\\ngpg: Signature made Tue Dec 20 19:17:53 2022 EAT\\ngpg:                using RSA key 61CF762355A089BB7EED836DEE7448AD6E41DAFC\\ngpg: bad data signature from key EE7448AD6E41DAFC: Wrong key usage (0x00, 0x2)\\ngpg: Can't check signature: Wrong key usage\\n",
      "stdout": "",
      "statusfd": "[GNUPG:] NEWSIG\\n[GNUPG:] KEY_CONSIDERED 7108E748FBED4AC95246593BEC06F80B416AEE24 0\\n[GNUPG:] ERRSIG EE7448AD6E41DAFC 1 10 00 1671553073 125 61CF762355A089BB7EED836DEE7448AD6E41DAFC\\n",
      "status": "exit status: 2",
      "files": {}
    },
    {
      "args": [
        "\"--faked-system-time=1671553073!\"",
        "\"--verify\"",
        "\"/EXPERIMENT/sig\"",
        "\"/EXPERIMENT/msg_bad\""
      ],
      "stderr": "gpg: WARNING: unsafe permissions on homedir '/HOMEDIR'\\ngpg: WARNING: running with faked system time: 2022-12-20 16:17:53\\ngpg: Signature made Tue Dec 20 19:17:53 2022 EAT\\ngpg:                using RSA key 61CF762355A089BB7EED836DEE7448AD6E41DAFC\\ngpg: bad data signature from key EE7448AD6E41DAFC: Wrong key usage (0x00, 0x2)\\ngpg: Can't check signature: Wrong key usage\\n",
      "stdout": "",
      "statusfd": "[GNUPG:] NEWSIG\\n[GNUPG:] KEY_CONSIDERED 7108E748FBED4AC95246593BEC06F80B416AEE24 0\\n[GNUPG:] ERRSIG EE7448AD6E41DAFC 1 10 00 1671553073 125 61CF762355A089BB7EED836DEE7448AD6E41DAFC\\n",
      "status": "exit status: 2",
      "files": {}
    },
    {
      "args": [
        "\"gpgv\"",
        "\"--keyring\"",
        "\"/EXPERIMENT/cert\"",
        "\"/EXPERIMENT/sig\"",
        "\"/EXPERIMENT/msg\""
      ],
      "stderr": "gpgv: Signature made Tue Dec 20 19:17:53 2022 EAT\\ngpgv:                using RSA key 61CF762355A089BB7EED836DEE7448AD6E41DAFC\\ngpgv: bad data signature from key EE7448AD6E41DAFC: Wrong key usage (0x00, 0x2)\\ngpgv: Can't check signature: Wrong key usage\\n",
      "stdout": "",
      "statusfd": "[GNUPG:] NEWSIG\\n[GNUPG:] KEY_CONSIDERED 7108E748FBED4AC95246593BEC06F80B416AEE24 0\\n[GNUPG:] ERRSIG EE7448AD6E41DAFC 1 10 00 1671553073 125 61CF762355A089BB7EED836DEE7448AD6E41DAFC\\n",
      "status": "exit status: 2",
      "files": {}
    },
    {
      "args": [
        "\"gpgv\"",
        "\"--keyring\"",
        "\"/EXPERIMENT/cert\"",
        "\"/EXPERIMENT/sig\"",
        "\"/EXPERIMENT/msg_bad\""
      ],
      "stderr": "gpgv: Signature made Tue Dec 20 19:17:53 2022 EAT\\ngpgv:                using RSA key 61CF762355A089BB7EED836DEE7448AD6E41DAFC\\ngpgv: bad data signature from key EE7448AD6E41DAFC: Wrong key usage (0x00, 0x2)\\ngpgv: Can't check signature: Wrong key usage\\n",
      "stdout": "",
      "statusfd": "[GNUPG:] NEWSIG\\n[GNUPG:] KEY_CONSIDERED 7108E748FBED4AC95246593BEC06F80B416AEE24 0\\n[GNUPG:] ERRSIG EE7448AD6E41DAFC 1 10 00 1671553073 125 61CF762355A089BB7EED836DEE7448AD6E41DAFC\\n",
      "status": "exit status: 2",
      "files": {}
    },
    {
      "args": [
        "\"--faked-system-time=1671553073!\"",
        "\"--verify\"",
        "\"/EXPERIMENT/sig\"",
        "\"/EXPERIMENT/msg\""
      ],
      "stderr": "gpg: WARNING: unsafe permissions on homedir '/HOMEDIR'\\ngpg: WARNING: running with faked system time: 2022-12-20 16:17:53\\ngpg: Signature made Tue Dec 20 19:17:53 2022 EAT\\ngpg:                using RSA key 8CA9BD86C1DC9FA4404E2CAE867C45AA88B307F6\\ngpg: Good signature from \"Alice Lovelace <alice@lovelace.name>\" [unknown]\\ngpg: WARNING: This key is not certified with a trusted signature!\\ngpg:          There is no indication that the signature belongs to the owner.\\nPrimary key fingerprint: 7108 E748 FBED 4AC9 5246  593B EC06 F80B 416A EE24\\n     Subkey fingerprint: 8CA9 BD86 C1DC 9FA4 404E  2CAE 867C 45AA 88B3 07F6\\n",
      "stdout": "",
      "statusfd": "[GNUPG:] NEWSIG\\n[GNUPG:] KEY_CONSIDERED 7108E748FBED4AC95246593BEC06F80B416AEE24 0\\n[GNUPG:] SIG_ID 4uYn2emUtBBeHbSmdku8Tw3hoGs 2022-12-20 1671553073\\n[GNUPG:] KEY_CONSIDERED 7108E748FBED4AC95246593BEC06F80B416AEE24 0\\n[GNUPG:] GOODSIG 867C45AA88B307F6 Alice Lovelace <alice@lovelace.name>\\n[GNUPG:] NOTATION_NAME salt@notations.sequoia-pgp.org\\n[GNUPG:] NOTATION_DATA #J%14%124\\xF1?\\xAC\\x89k%20:%17@I%0A\\xE7%1A\\xF9ML%1E1L%0C%06\\x94!:%0Fa%1A\\n[GNUPG:] VALIDSIG 8CA9BD86C1DC9FA4404E2CAE867C45AA88B307F6 2022-12-20 1671553073 0 4 0 1 10 00 7108E748FBED4AC95246593BEC06F80B416AEE24\\n[GNUPG:] KEY_CONSIDERED 7108E748FBED4AC95246593BEC06F80B416AEE24 0\\n[GNUPG:] KEY_CONSIDERED 7108E748FBED4AC95246593BEC06F80B416AEE24 0\\n[GNUPG:] TRUST_UNDEFINED 0 pgp\\n",
      "status": "exit status: 0",
      "files": {}
    },
    {
      "args": [
        "\"--faked-system-time=1671553073!\"",
        "\"--verify\"",
        "\"/EXPERIMENT/sig\"",
        "\"/EXPERIMENT/msg_bad\""
      ],
      "stderr": "gpg: WARNING: unsafe permissions on homedir '/HOMEDIR'\\ngpg: WARNING: running with faked system time: 2022-12-20 16:17:53\\ngpg: Signature made Tue Dec 20 19:17:53 2022 EAT\\ngpg:                using RSA key 8CA9BD86C1DC9FA4404E2CAE867C45AA88B307F6\\ngpg: BAD signature from \"Alice Lovelace <alice@lovelace.name>\" [unknown]\\n",
      "stdout": "",
      "statusfd": "[GNUPG:] NEWSIG\\n[GNUPG:] KEY_CONSIDERED 7108E748FBED4AC95246593BEC06F80B416AEE24 0\\n[GNUPG:] KEY_CONSIDERED 7108E748FBED4AC95246593BEC06F80B416AEE24 0\\n[GNUPG:] BADSIG 867C45AA88B307F6 Alice Lovelace <alice@lovelace.name>\\n",
      "status": "exit status: 1",
      "files": {}
    },
    {
      "args": [
        "\"gpgv\"",
        "\"--keyring\"",
        "\"/EXPERIMENT/cert\"",
        "\"/EXPERIMENT/sig\"",
        "\"/EXPERIMENT/msg\""
      ],
      "stderr": "gpgv: Signature made Tue Dec 20 19:17:53 2022 EAT\\ngpgv:                using RSA key 8CA9BD86C1DC9FA4404E2CAE867C45AA88B307F6\\ngpgv: Good signature from \"Alice Lovelace <alice@lovelace.name>\"\\n",
      "stdout": "",
      "statusfd": "[GNUPG:] NEWSIG\\n[GNUPG:] KEY_CONSIDERED 7108E748FBED4AC95246593BEC06F80B416AEE24 0\\n[GNUPG:] SIG_ID 4uYn2emUtBBeHbSmdku8Tw3hoGs 2022-12-20 1671553073\\n[GNUPG:] KEY_CONSIDERED 7108E748FBED4AC95246593BEC06F80B416AEE24 0\\n[GNUPG:] GOODSIG 867C45AA88B307F6 Alice Lovelace <alice@lovelace.name>\\n[GNUPG:] NOTATION_NAME salt@notations.sequoia-pgp.org\\n[GNUPG:] NOTATION_DATA #J%14%124\\xF1?\\xAC\\x89k%20:%17@I%0A\\xE7%1A\\xF9ML%1E1L%0C%06\\x94!:%0Fa%1A\\n[GNUPG:] VALIDSIG 8CA9BD86C1DC9FA4404E2CAE867C45AA88B307F6 2022-12-20 1671553073 0 4 0 1 10 00 7108E748FBED4AC95246593BEC06F80B416AEE24\\n",
      "status": "exit status: 0",
      "files": {}
    },
    {
      "args": [
        "\"gpgv\"",
        "\"--keyring\"",
        "\"/EXPERIMENT/cert\"",
        "\"/EXPERIMENT/sig\"",
        "\"/EXPERIMENT/msg_bad\""
      ],
      "stderr": "gpgv: Signature made Tue Dec 20 19:17:53 2022 EAT\\ngpgv:                using RSA key 8CA9BD86C1DC9FA4404E2CAE867C45AA88B307F6\\ngpgv: BAD signature from \"Alice Lovelace <alice@lovelace.name>\"\\n",
      "stdout": "",
      "statusfd": "[GNUPG:] NEWSIG\\n[GNUPG:] KEY_CONSIDERED 7108E748FBED4AC95246593BEC06F80B416AEE24 0\\n[GNUPG:] KEY_CONSIDERED 7108E748FBED4AC95246593BEC06F80B416AEE24 0\\n[GNUPG:] BADSIG 867C45AA88B307F6 Alice Lovelace <alice@lovelace.name>\\n",
      "status": "exit status: 1",
      "files": {}
    },
    {
      "args": [
        "\"--faked-system-time=1671553073!\"",
        "\"--verify\"",
        "\"/EXPERIMENT/sig\"",
        "\"/EXPERIMENT/msg\""
      ],
      "stderr": "gpg: WARNING: unsafe permissions on homedir '/HOMEDIR'\\ngpg: WARNING: running with faked system time: 2022-12-20 16:17:53\\ngpg: Signature made Tue Dec 20 19:17:53 2022 EAT\\ngpg:                using RSA key AB55E6BD69EC89DB3DAA2B4BDEF41F7DC0AB731B\\ngpg: bad data signature from key DEF41F7DC0AB731B: Wrong key usage (0x00, 0x8)\\ngpg: Can't check signature: Wrong key usage\\n",
      "stdout": "",
      "statusfd": "[GNUPG:] NEWSIG\\n[GNUPG:] KEY_CONSIDERED 7108E748FBED4AC95246593BEC06F80B416AEE24 0\\n[GNUPG:] ERRSIG DEF41F7DC0AB731B 1 10 00 1671553073 125 AB55E6BD69EC89DB3DAA2B4BDEF41F7DC0AB731B\\n",
      "status": "exit status: 2",
      "files": {}
    },
    {
      "args": [
        "\"--faked-system-time=1671553073!\"",
        "\"--verify\"",
        "\"/EXPERIMENT/sig\"",
        "\"/EXPERIMENT/msg_bad\""
      ],
      "stderr": "gpg: WARNING: unsafe permissions on homedir '/HOMEDIR'\\ngpg: WARNING: running with faked system time: 2022-12-20 16:17:53\\ngpg: Signature made Tue Dec 20 19:17:53 2022 EAT\\ngpg:                using RSA key AB55E6BD69EC89DB3DAA2B4BDEF41F7DC0AB731B\\ngpg: bad data signature from key DEF41F7DC0AB731B: Wrong key usage (0x00, 0x8)\\ngpg: Can't check signature: Wrong key usage\\n",
      "stdout": "",
      "statusfd": "[GNUPG:] NEWSIG\\n[GNUPG:] KEY_CONSIDERED 7108E748FBED4AC95246593BEC06F80B416AEE24 0\\n[GNUPG:] ERRSIG DEF41F7DC0AB731B 1 10 00 1671553073 125 AB55E6BD69EC89DB3DAA2B4BDEF41F7DC0AB731B\\n",
      "status": "exit status: 2",
      "files": {}
    },
    {
      "args": [
        "\"gpgv\"",
        "\"--keyring\"",
        "\"/EXPERIMENT/cert\"",
        "\"/EXPERIMENT/sig\"",
        "\"/EXPERIMENT/msg\""
      ],
      "stderr": "gpgv: Signature made Tue Dec 20 19:17:53 2022 EAT\\ngpgv:                using RSA key AB55E6BD69EC89DB3DAA2B4BDEF41F7DC0AB731B\\ngpgv: bad data signature from key DEF41F7DC0AB731B: Wrong key usage (0x00, 0x8)\\ngpgv: Can't check signature: Wrong key usage\\n",
      "stdout": "",
      "statusfd": "[GNUPG:] NEWSIG\\n[GNUPG:] KEY_CONSIDERED 7108E748FBED4AC95246593BEC06F80B416AEE24 0\\n[GNUPG:] ERRSIG DEF41F7DC0AB731B 1 10 00 1671553073 125 AB55E6BD69EC89DB3DAA2B4BDEF41F7DC0AB731B\\n",
      "status": "exit status: 2",
      "files": {}
    },
    {
      "args": [
        "\"gpgv\"",
        "\"--keyring\"",
        "\"/EXPERIMENT/cert\"",
        "\"/EXPERIMENT/sig\"",
        "\"/EXPERIMENT/msg_bad\""
      ],
      "stderr": "gpgv: Signature made Tue Dec 20 19:17:53 2022 EAT\\ngpgv:                using RSA key AB55E6BD69EC89DB3DAA2B4BDEF41F7DC0AB731B\\ngpgv: bad data signature from key DEF41F7DC0AB731B: Wrong key usage (0x00, 0x8)\\ngpgv: Can't check signature: Wrong key usage\\n",
      "stdout": "",
      "statusfd": "[GNUPG:] NEWSIG\\n[GNUPG:] KEY_CONSIDERED 7108E748FBED4AC95246593BEC06F80B416AEE24 0\\n[GNUPG:] ERRSIG DEF41F7DC0AB731B 1 10 00 1671553073 125 AB55E6BD69EC89DB3DAA2B4BDEF41F7DC0AB731B\\n",
      "status": "exit status: 2",
      "files": {}
    },
    {
      "args": [
        "\"--faked-system-time=1671553073!\"",
        "\"--verify\"",
        "\"/EXPERIMENT/sig\"",
        "\"/EXPERIMENT/msg\""
      ],
      "stderr": "gpg: WARNING: unsafe permissions on homedir '/HOMEDIR'\\ngpg: WARNING: running with faked system time: 2022-12-20 16:17:53\\ngpg: Signature made Tue Dec 20 19:17:53 2022 EAT\\ngpg:                using EDDSA key FA11604A4FB3BF8B091A8C2C3674B3743095DD22\\ngpg: Can't check signature: No public key\\n",
      "stdout": "",
      "statusfd": "[GNUPG:] NEWSIG\\n[GNUPG:] ERRSIG 3674B3743095DD22 22 10 00 1671553073 9 FA11604A4FB3BF8B091A8C2C3674B3743095DD22\\n[GNUPG:] NO_PUBKEY 3674B3743095DD22\\n",
      "status": "exit status: 2",
      "files": {}
    },
    {
      "args": [
        "\"--faked-system-time=1671553073!\"",
        "\"--verify\"",
        "\"/EXPERIMENT/sig\"",
        "\"/EXPERIMENT/msg_bad\""
      ],
      "stderr": "gpg: WARNING: unsafe permissions on homedir '/HOMEDIR'\\ngpg: WARNING: running with faked system time: 2022-12-20 16:17:53\\ngpg: Signature made Tue Dec 20 19:17:53 2022 EAT\\ngpg:                using EDDSA key FA11604A4FB3BF8B091A8C2C3674B3743095DD22\\ngpg: Can't check signature: No public key\\n",
      "stdout": "",
      "statusfd": "[GNUPG:] NEWSIG\\n[GNUPG:] ERRSIG 3674B3743095DD22 22 10 00 1671553073 9 FA11604A4FB3BF8B091A8C2C3674B3743095DD22\\n[GNUPG:] NO_PUBKEY 3674B3743095DD22\\n",
      "status": "exit status: 2",
      "files": {}
    },
    {
      "args": [
        "\"gpgv\"",
        "\"--keyring\"",
        "\"/EXPERIMENT/cert\"",
        "\"/EXPERIMENT/sig\"",
        "\"/EXPERIMENT/msg\""
      ],
      "stderr": "gpgv: Signature made Tue Dec 20 19:17:53 2022 EAT\\ngpgv:                using EDDSA key FA11604A4FB3BF8B091A8C2C3674B3743095DD22\\ngpgv: Can't check signature: No public key\\n",
      "stdout": "",
      "statusfd": "[GNUPG:] NEWSIG\\n[GNUPG:] ERRSIG 3674B3743095DD22 22 10 00 1671553073 9 FA11604A4FB3BF8B091A8C2C3674B3743095DD22\\n[GNUPG:] NO_PUBKEY 3674B3743095DD22\\n",
      "status": "exit status: 2",
      "files": {}
    },
    {
      "args": [
        "\"gpgv\"",
        "\"--keyring\"",
        "\"/EXPERIMENT/cert\"",
        "\"/EXPERIMENT/sig\"",
        "\"/EXPERIMENT/msg_bad\""
      ],
      "stderr": "gpgv: Signature made Tue Dec 20 19:17:53 2022 EAT\\ngpgv:                using EDDSA key FA11604A4FB3BF8B091A8C2C3674B3743095DD22\\ngpgv: Can't check signature: No public key\\n",
      "stdout": "",
      "statusfd": "[GNUPG:] NEWSIG\\n[GNUPG:] ERRSIG 3674B3743095DD22 22 10 00 1671553073 9 FA11604A4FB3BF8B091A8C2C3674B3743095DD22\\n[GNUPG:] NO_PUBKEY 3674B3743095DD22\\n",
      "status": "exit status: 2",
      "files": {}
    }
  ],
  "former_us_outputs": [
    {
      "args": [
        "\"--faked-system-time=1671553073!\"",
        "\"--list-keys\""
      ],
      "stderr": "gpg: WARNING: unsafe permissions on homedir '/HOMEDIR'\\ngpg: WARNING: running with faked system time: 2022-12-20 16:17:53\\n",
      "stdout": "",
      "statusfd": "",
      "status": "exit status: 0",
      "files": {}
    },
    {
      "args": [
        "\"--faked-system-time=1671553073!\"",
        "\"--verify\"",
        "\"/EXPERIMENT/sig\"",
        "\"/EXPERIMENT/msg\""
      ],
      "stderr": "gpg: WARNING: unsafe permissions on homedir '/HOMEDIR'\\ngpg: WARNING: running with faked system time: 2022-12-20 16:17:53\\ngpg: Signature made Tue Dec 20 19:17:53 2022 +03:00\\ngpg:                using RSA key 7108E748FBED4AC95246593BEC06F80B416AEE24\\ngpg: Can't check signature: No public key\\n",
      "stdout": "",
      "statusfd": "[GNUPG:] NEWSIG\\n[GNUPG:] ERRSIG EC06F80B416AEE24 1 10 00 1671553073 9 7108E748FBED4AC95246593BEC06F80B416AEE24\\n[GNUPG:] NO_PUBKEY EC06F80B416AEE24\\n",
      "status": "exit status: 2",
      "files": {}
    },
    {
      "args": [
        "\"--faked-system-time=1671553073!\"",
        "\"--verify\"",
        "\"/EXPERIMENT/sig\"",
        "\"/EXPERIMENT/msg_bad\""
      ],
      "stderr": "gpg: WARNING: unsafe permissions on homedir '/HOMEDIR'\\ngpg: WARNING: running with faked system time: 2022-12-20 16:17:53\\ngpg: Signature made Tue Dec 20 19:17:53 2022 +03:00\\ngpg:                using RSA key 7108E748FBED4AC95246593BEC06F80B416AEE24\\ngpg: Can't check signature: No public key\\n",
      "stdout": "",
      "statusfd": "[GNUPG:] NEWSIG\\n[GNUPG:] ERRSIG EC06F80B416AEE24 1 10 00 1671553073 9 7108E748FBED4AC95246593BEC06F80B416AEE24\\n[GNUPG:] NO_PUBKEY EC06F80B416AEE24\\n",
      "status": "exit status: 2",
      "files": {}
    },
    {
      "args": [
        "\"gpgv\"",
        "\"--keyring\"",
        "\"/EXPERIMENT/empty\"",
        "\"/EXPERIMENT/sig\"",
        "\"/EXPERIMENT/msg\""
      ],
      "stderr": "gpgv: Signature made Tue Dec 20 19:17:53 2022 +03:00\\ngpgv:                using RSA key 7108E748FBED4AC95246593BEC06F80B416AEE24\\ngpgv: Can't check signature: No public key\\n",
      "stdout": "",
      "statusfd": "[GNUPG:] NEWSIG\\n[GNUPG:] ERRSIG EC06F80B416AEE24 1 10 00 1671553073 9 7108E748FBED4AC95246593BEC06F80B416AEE24\\n[GNUPG:] NO_PUBKEY EC06F80B416AEE24\\n",
      "status": "exit status: 2",
      "files": {}
    },
    {
      "args": [
        "\"gpgv\"",
        "\"--keyring\"",
        "\"/EXPERIMENT/empty\"",
        "\"/EXPERIMENT/sig\"",
        "\"/EXPERIMENT/msg_bad\""
      ],
      "stderr": "gpgv: Signature made Tue Dec 20 19:17:53 2022 +03:00\\ngpgv:                using RSA key 7108E748FBED4AC95246593BEC06F80B416AEE24\\ngpgv: Can't check signature: No public key\\n",
      "stdout": "",
      "statusfd": "[GNUPG:] NEWSIG\\n[GNUPG:] ERRSIG EC06F80B416AEE24 1 10 00 1671553073 9 7108E748FBED4AC95246593BEC06F80B416AEE24\\n[GNUPG:] NO_PUBKEY EC06F80B416AEE24\\n",
      "status": "exit status: 2",
      "files": {}
    },
    {
      "args": [
        "\"--faked-system-time=1671553073!\"",
        "\"--import\"",
        "\"/EXPERIMENT/cert\""
      ],
      "stderr": "gpg: WARNING: unsafe permissions on homedir '/HOMEDIR'\\ngpg: WARNING: running with faked system time: 2022-12-20 16:17:53\\ngpg: key EC06F80B416AEE24: public key \"Alice Lovelace <alice@lovelace.name>\" imported\\ngpg: Total number processed: 1\\ngpg:               imported: 1\\n",
      "stdout": "",
      "statusfd": "[GNUPG:] KEY_CONSIDERED 7108E748FBED4AC95246593BEC06F80B416AEE24 0\\n[GNUPG:] IMPORTED EC06F80B416AEE24 Alice Lovelace <alice@lovelace.name>\\n[GNUPG:] IMPORT_OK 1 7108E748FBED4AC95246593BEC06F80B416AEE24\\n[GNUPG:] IMPORT_RES 1 0 1 0 0 0 0 0 0 0 0 0 0 0 0\\n",
      "status": "exit status: 0",
      "files": {}
    },
    {
      "args": [
        "\"--faked-system-time=1671553073!\"",
        "\"--verify\"",
        "\"/EXPERIMENT/sig\"",
        "\"/EXPERIMENT/msg\""
      ],
      "stderr": "gpg: WARNING: unsafe permissions on homedir '/HOMEDIR'\\ngpg: WARNING: running with faked system time: 2022-12-20 16:17:53\\ngpg: Signature made Tue Dec 20 19:17:53 2022 +03:00\\ngpg:                using RSA key 7108E748FBED4AC95246593BEC06F80B416AEE24\\ngpg: bad data signature from key EC06F80B416AEE24: Wrong key usage (0x00, 0x4)\\ngpg: Can't check signature: Wrong key usage\\n",
      "stdout": "",
      "statusfd": "[GNUPG:] NEWSIG\\n[GNUPG:] KEY_CONSIDERED 7108E748FBED4AC95246593BEC06F80B416AEE24 0\\n[GNUPG:] ERRSIG EC06F80B416AEE24 1 10 00 1671553073 125 7108E748FBED4AC95246593BEC06F80B416AEE24\\n",
      "status": "exit status: 2",
      "files": {}
    },
    {
      "args": [
        "\"--faked-system-time=1671553073!\"",
        "\"--verify\"",
        "\"/EXPERIMENT/sig\"",
        "\"/EXPERIMENT/msg_bad\""
      ],
      "stderr": "gpg: WARNING: unsafe permissions on homedir '/HOMEDIR'\\ngpg: WARNING: running with faked system time: 2022-12-20 16:17:53\\ngpg: Signature made Tue Dec 20 19:17:53 2022 +03:00\\ngpg:                using RSA key 7108E748FBED4AC95246593BEC06F80B416AEE24\\ngpg: bad data signature from key EC06F80B416AEE24: Wrong key usage (0x00, 0x4)\\ngpg: Can't check signature: Wrong key usage\\n",
      "stdout": "",
      "statusfd": "[GNUPG:] NEWSIG\\n[GNUPG:] KEY_CONSIDERED 7108E748FBED4AC95246593BEC06F80B416AEE24 0\\n[GNUPG:] ERRSIG EC06F80B416AEE24 1 10 00 1671553073 125 7108E748FBED4AC95246593BEC06F80B416AEE24\\n",
      "status": "exit status: 2",
      "files": {}
    },
    {
      "args": [
        "\"gpgv\"",
        "\"--keyring\"",
        "\"/EXPERIMENT/cert\"",
        "\"/EXPERIMENT/sig\"",
        "\"/EXPERIMENT/msg\""
      ],
      "stderr": "gpgv: Signature made Tue Dec 20 19:17:53 2022 +03:00\\ngpgv:                using RSA key 7108E748FBED4AC95246593BEC06F80B416AEE24\\ngpgv: bad data signature from key EC06F80B416AEE24: Wrong key usage (0x00, 0x4)\\ngpgv: Can't check signature: Wrong key usage\\n",
      "stdout": "",
      "statusfd": "[GNUPG:] NEWSIG\\n[GNUPG:] KEY_CONSIDERED 7108E748FBED4AC95246593BEC06F80B416AEE24 0\\n[GNUPG:] ERRSIG EC06F80B416AEE24 1 10 00 1671553073 125 7108E748FBED4AC95246593BEC06F80B416AEE24\\n",
      "status": "exit status: 2",
      "files": {}
    },
    {
      "args": [
        "\"gpgv\"",
        "\"--keyring\"",
        "\"/EXPERIMENT/cert\"",
        "\"/EXPERIMENT/sig\"",
        "\"/EXPERIMENT/msg_bad\""
      ],
      "stderr": "gpgv: Signature made Tue Dec 20 19:17:53 2022 +03:00\\ngpgv:                using RSA key 7108E748FBED4AC95246593BEC06F80B416AEE24\\ngpgv: bad data signature from key EC06F80B416AEE24: Wrong key usage (0x00, 0x4)\\ngpgv: Can't check signature: Wrong key usage\\n",
      "stdout": "",
      "statusfd": "[GNUPG:] NEWSIG\\n[GNUPG:] KEY_CONSIDERED 7108E748FBED4AC95246593BEC06F80B416AEE24 0\\n[GNUPG:] ERRSIG EC06F80B416AEE24 1 10 00 1671553073 125 7108E748FBED4AC95246593BEC06F80B416AEE24\\n",
      "status": "exit status: 2",
      "files": {}
    },
    {
      "args": [
        "\"--faked-system-time=1671553073!\"",
        "\"--verify\"",
        "\"/EXPERIMENT/sig\"",
        "\"/EXPERIMENT/msg\""
      ],
      "stderr": "gpg: WARNING: unsafe permissions on homedir '/HOMEDIR'\\ngpg: WARNING: running with faked system time: 2022-12-20 16:17:53\\ngpg: Signature made Tue Dec 20 19:17:53 2022 +03:00\\ngpg:                using RSA key 57DFFDE4C65AA1D492A19D4812E2B64E271B08D6\\ngpg: bad data signature from key 12E2B64E271B08D6: Wrong key usage (0x00, 0x2)\\ngpg: Can't check signature: Wrong key usage\\n",
      "stdout": "",
      "statusfd": "[GNUPG:] NEWSIG\\n[GNUPG:] KEY_CONSIDERED 7108E748FBED4AC95246593BEC06F80B416AEE24 0\\n[GNUPG:] ERRSIG 12E2B64E271B08D6 1 10 00 1671553073 125 57DFFDE4C65AA1D492A19D4812E2B64E271B08D6\\n",
      "status": "exit status: 2",
      "files": {}
    },
    {
      "args": [
        "\"--faked-system-time=1671553073!\"",
        "\"--verify\"",
        "\"/EXPERIMENT/sig\"",
        "\"/EXPERIMENT/msg_bad\""
      ],
      "stderr": "gpg: WARNING: unsafe permissions on homedir '/HOMEDIR'\\ngpg: WARNING: running with faked system time: 2022-12-20 16:17:53\\ngpg: Signature made Tue Dec 20 19:17:53 2022 +03:00\\ngpg:                using RSA key 57DFFDE4C65AA1D492A19D4812E2B64E271B08D6\\ngpg: bad data signature from key 12E2B64E271B08D6: Wrong key usage (0x00, 0x2)\\ngpg: Can't check signature: Wrong key usage\\n",
      "stdout": "",
      "statusfd": "[GNUPG:] NEWSIG\\n[GNUPG:] KEY_CONSIDERED 7108E748FBED4AC95246593BEC06F80B416AEE24 0\\n[GNUPG:] ERRSIG 12E2B64E271B08D6 1 10 00 1671553073 125 57DFFDE4C65AA1D492A19D4812E2B64E271B08D6\\n",
      "status": "exit status: 2",
      "files": {}
    },
    {
      "args": [
        "\"gpgv\"",
        "\"--keyring\"",
        "\"/EXPERIMENT/cert\"",
        "\"/EXPERIMENT/sig\"",
        "\"/EXPERIMENT/msg\""
      ],
      "stderr": "gpgv: Signature made Tue Dec 20 19:17:53 2022 +03:00\\ngpgv:                using RSA key 57DFFDE4C65AA1D492A19D4812E2B64E271B08D6\\ngpgv: bad data signature from key 12E2B64E271B08D6: Wrong key usage (0x00, 0x2)\\ngpgv: Can't check signature: Wrong key usage\\n",
      "stdout": "",
      "statusfd": "[GNUPG:] NEWSIG\\n[GNUPG:] KEY_CONSIDERED 7108E748FBED4AC95246593BEC06F80B416AEE24 0\\n[GNUPG:] ERRSIG 12E2B64E271B08D6 1 10 00 1671553073 125 57DFFDE4C65AA1D492A19D4812E2B64E271B08D6\\n",
      "status": "exit status: 2",
      "files": {}
    },
    {
      "args": [
        "\"gpgv\"",
        "\"--keyring\"",
        "\"/EXPERIMENT/cert\"",
        "\"/EXPERIMENT/sig\"",
        "\"/EXPERIMENT/msg_bad\""
      ],
      "stderr": "gpgv: Signature made Tue Dec 20 19:17:53 2022 +03:00\\ngpgv:                using RSA key 57DFFDE4C65AA1D492A19D4812E2B64E271B08D6\\ngpgv: bad data signature from key 12E2B64E271B08D6: Wrong key usage (0x00, 0x2)\\ngpgv: Can't check signature: Wrong key usage\\n",
      "stdout": "",
      "statusfd": "[GNUPG:] NEWSIG\\n[GNUPG:] KEY_CONSIDERED 7108E748FBED4AC95246593BEC06F80B416AEE24 0\\n[GNUPG:] ERRSIG 12E2B64E271B08D6 1 10 00 1671553073 125 57DFFDE4C65AA1D492A19D4812E2B64E271B08D6\\n",
      "status": "exit status: 2",
      "files": {}
    },
    {
      "args": [
        "\"--faked-system-time=1671553073!\"",
        "\"--verify\"",
        "\"/EXPERIMENT/sig\"",
        "\"/EXPERIMENT/msg\""
      ],
      "stderr": "gpg: WARNING: unsafe permissions on homedir '/HOMEDIR'\\ngpg: WARNING: running with faked system time: 2022-12-20 16:17:53\\ngpg: Signature made Tue Dec 20 19:17:53 2022 +03:00\\ngpg:                using RSA key 61CF762355A089BB7EED836DEE7448AD6E41DAFC\\ngpg: bad data signature from key EE7448AD6E41DAFC: Wrong key usage (0x00, 0x2)\\ngpg: Can't check signature: Wrong key usage\\n",
      "stdout": "",
      "statusfd": "[GNUPG:] NEWSIG\\n[GNUPG:] KEY_CONSIDERED 7108E748FBED4AC95246593BEC06F80B416AEE24 0\\n[GNUPG:] ERRSIG EE7448AD6E41DAFC 1 10 00 1671553073 125 61CF762355A089BB7EED836DEE7448AD6E41DAFC\\n",
      "status": "exit status: 2",
      "files": {}
    },
    {
      "args": [
        "\"--faked-system-time=1671553073!\"",
        "\"--verify\"",
        "\"/EXPERIMENT/sig\"",
        "\"/EXPERIMENT/msg_bad\""
      ],
      "stderr": "gpg: WARNING: unsafe permissions on homedir '/HOMEDIR'\\ngpg: WARNING: running with faked system time: 2022-12-20 16:17:53\\ngpg: Signature made Tue Dec 20 19:17:53 2022 +03:00\\ngpg:                using RSA key 61CF762355A089BB7EED836DEE7448AD6E41DAFC\\ngpg: bad data signature from key EE7448AD6E41DAFC: Wrong key usage (0x00, 0x2)\\ngpg: Can't check signature: Wrong key usage\\n",
      "stdout": "",
      "statusfd": "[GNUPG:] NEWSIG\\n[GNUPG:] KEY_CONSIDERED 7108E748FBED4AC95246593BEC06F80B416AEE24 0\\n[GNUPG:] ERRSIG EE7448AD6E41DAFC 1 10 00 1671553073 125 61CF762355A089BB7EED836DEE7448AD6E41DAFC\\n",
      "status": "exit status: 2",
      "files": {}
    },
    {
      "args": [
        "\"gpgv\"",
        "\"--keyring\"",
        "\"/EXPERIMENT/cert\"",
        "\"/EXPERIMENT/sig\"",
        "\"/EXPERIMENT/msg\""
      ],
      "stderr": "gpgv: Signature made Tue Dec 20 19:17:53 2022 +03:00\\ngpgv:                using RSA key 61CF762355A089BB7EED836DEE7448AD6E41DAFC\\ngpgv: bad data signature from key EE7448AD6E41DAFC: Wrong key usage (0x00, 0x2)\\ngpgv: Can't check signature: Wrong key usage\\n",
      "stdout": "",
      "statusfd": "[GNUPG:] NEWSIG\\n[GNUPG:] KEY_CONSIDERED 7108E748FBED4AC95246593BEC06F80B416AEE24 0\\n[GNUPG:] ERRSIG EE7448AD6E41DAFC 1 10 00 1671553073 125 61CF762355A089BB7EED836DEE7448AD6E41DAFC\\n",
      "status": "exit status: 2",
      "files": {}
    },
    {
      "args": [
        "\"gpgv\"",
        "\"--keyring\"",
        "\"/EXPERIMENT/cert\"",
        "\"/EXPERIMENT/sig\"",
        "\"/EXPERIMENT/msg_bad\""
      ],
      "stderr": "gpgv: Signature made Tue Dec 20 19:17:53 2022 +03:00\\ngpgv:                using RSA key 61CF762355A089BB7EED836DEE7448AD6E41DAFC\\ngpgv: bad data signature from key EE7448AD6E41DAFC: Wrong key usage (0x00, 0x2)\\ngpgv: Can't check signature: Wrong key usage\\n",
      "stdout": "",
      "statusfd": "[GNUPG:] NEWSIG\\n[GNUPG:] KEY_CONSIDERED 7108E748FBED4AC95246593BEC06F80B416AEE24 0\\n[GNUPG:] ERRSIG EE7448AD6E41DAFC 1 10 00 1671553073 125 61CF762355A089BB7EED836DEE7448AD6E41DAFC\\n",
      "status": "exit status: 2",
      "files": {}
    },
    {
      "args": [
        "\"--faked-system-time=1671553073!\"",
        "\"--verify\"",
        "\"/EXPERIMENT/sig\"",
        "\"/EXPERIMENT/msg\""
      ],
      "stderr": "gpg: WARNING: unsafe permissions on homedir '/HOMEDIR'\\ngpg: WARNING: running with faked system time: 2022-12-20 16:17:53\\ngpg: Signature made Tue Dec 20 19:17:53 2022 +03:00\\ngpg:                using RSA key 8CA9BD86C1DC9FA4404E2CAE867C45AA88B307F6\\ngpg: Good signature from \"Alice Lovelace <alice@lovelace.name>\" [unknown]\\ngpg: WARNING: This key is not certified with a trusted signature!\\ngpg:          There is no indication that the signature belongs to the owner.\\nPrimary key fingerprint: 7108 E748 FBED 4AC9 5246  593B EC06 F80B 416A EE24\\n     Subkey fingerprint: 8CA9 BD86 C1DC 9FA4 404E  2CAE 867C 45AA 88B3 07F6\\n",
      "stdout": "",
      "statusfd": "[GNUPG:] NEWSIG\\n[GNUPG:] KEY_CONSIDERED 7108E748FBED4AC95246593BEC06F80B416AEE24 0\\n[GNUPG:] SIG_ID 4uYn2emUtBBeHbSmdku8Tw3hoGs 2022-12-20 1671553073\\n[GNUPG:] KEY_CONSIDERED 7108E748FBED4AC95246593BEC06F80B416AEE24 0\\n[GNUPG:] GOODSIG 867C45AA88B307F6 Alice Lovelace <alice@lovelace.name>\\n[GNUPG:] NOTATION_NAME salt@notations.sequoia-pgp.org\\n[GNUPG:] NOTATION_DATA #J%14%124\\xF1?\\xAC\\x89k%20:%17@I%0A\\xE7%1A\\xF9ML%1E1L%0C%06\\x94!:%0Fa%1A\\n[GNUPG:] VALIDSIG 8CA9BD86C1DC9FA4404E2CAE867C45AA88B307F6 2022-12-20 1671553073 0 4 0 1 10 00 7108E748FBED4AC95246593BEC06F80B416AEE24\\n[GNUPG:] KEY_CONSIDERED 7108E748FBED4AC95246593BEC06F80B416AEE24 0\\n[GNUPG:] KEY_CONSIDERED 7108E748FBED4AC95246593BEC06F80B416AEE24 0\\n[GNUPG:] TRUST_UNDEFINED 0 pgp\\n",
      "status": "exit status: 0",
      "files": {}
    },
    {
      "args": [
        "\"--faked-system-time=1671553073!\"",
        "\"--verify\"",
        "\"/EXPERIMENT/sig\"",
        "\"/EXPERIMENT/msg_bad\""
      ],
      "stderr": "gpg: WARNING: unsafe permissions on homedir '/HOMEDIR'\\ngpg: WARNING: running with faked system time: 2022-12-20 16:17:53\\ngpg: Signature made Tue Dec 20 19:17:53 2022 +03:00\\ngpg:                using RSA key 8CA9BD86C1DC9FA4404E2CAE867C45AA88B307F6\\ngpg: BAD signature from \"Alice Lovelace <alice@lovelace.name>\" [unknown]\\n",
      "stdout": "",
      "statusfd": "[GNUPG:] NEWSIG\\n[GNUPG:] KEY_CONSIDERED 7108E748FBED4AC95246593BEC06F80B416AEE24 0\\n[GNUPG:] KEY_CONSIDERED 7108E748FBED4AC95246593BEC06F80B416AEE24 0\\n[GNUPG:] BADSIG 867C45AA88B307F6 Alice Lovelace <alice@lovelace.name>\\n",
      "status": "exit status: 1",
      "files": {}
    },
    {
      "args": [
        "\"gpgv\"",
        "\"--keyring\"",
        "\"/EXPERIMENT/cert\"",
        "\"/EXPERIMENT/sig\"",
        "\"/EXPERIMENT/msg\""
      ],
      "stderr": "gpgv: Signature made Tue Dec 20 19:17:53 2022 +03:00\\ngpgv:                using RSA key 8CA9BD86C1DC9FA4404E2CAE867C45AA88B307F6\\ngpgv: Good signature from \"Alice Lovelace <alice@lovelace.name>\"\\n",
      "stdout": "",
      "statusfd": "[GNUPG:] NEWSIG\\n[GNUPG:] KEY_CONSIDERED 7108E748FBED4AC95246593BEC06F80B416AEE24 0\\n[GNUPG:] SIG_ID 4uYn2emUtBBeHbSmdku8Tw3hoGs 2022-12-20 1671553073\\n[GNUPG:] KEY_CONSIDERED 7108E748FBED4AC95246593BEC06F80B416AEE24 0\\n[GNUPG:] GOODSIG 867C45AA88B307F6 Alice Lovelace <alice@lovelace.name>\\n[GNUPG:] NOTATION_NAME salt@notations.sequoia-pgp.org\\n[GNUPG:] NOTATION_DATA #J%14%124\\xF1?\\xAC\\x89k%20:%17@I%0A\\xE7%1A\\xF9ML%1E1L%0C%06\\x94!:%0Fa%1A\\n[GNUPG:] VALIDSIG 8CA9BD86C1DC9FA4404E2CAE867C45AA88B307F6 2022-12-20 1671553073 0 4 0 1 10 00 7108E748FBED4AC95246593BEC06F80B416AEE24\\n",
      "status": "exit status: 0",
      "files": {}
    },
    {
      "args": [
        "\"gpgv\"",
        "\"--keyring\"",
        "\"/EXPERIMENT/cert\"",
        "\"/EXPERIMENT/sig\"",
        "\"/EXPERIMENT/msg_bad\""
      ],
      "stderr": "gpgv: Signature made Tue Dec 20 19:17:53 2022 +03:00\\ngpgv:                using RSA key 8CA9BD86C1DC9FA4404E2CAE867C45AA88B307F6\\ngpgv: BAD signature from \"Alice Lovelace <alice@lovelace.name>\"\\n",
      "stdout": "",
      "statusfd": "[GNUPG:] NEWSIG\\n[GNUPG:] KEY_CONSIDERED 7108E748FBED4AC95246593BEC06F80B416AEE24 0\\n[GNUPG:] BADSIG 867C45AA88B307F6 Alice Lovelace <alice@lovelace.name>\\n",
      "status": "exit status: 1",
      "files": {}
    },
    {
      "args": [
        "\"--faked-system-time=1671553073!\"",
        "\"--verify\"",
        "\"/EXPERIMENT/sig\"",
        "\"/EXPERIMENT/msg\""
      ],
      "stderr": "gpg: WARNING: unsafe permissions on homedir '/HOMEDIR'\\ngpg: WARNING: running with faked system time: 2022-12-20 16:17:53\\ngpg: Signature made Tue Dec 20 19:17:53 2022 +03:00\\ngpg:                using RSA key AB55E6BD69EC89DB3DAA2B4BDEF41F7DC0AB731B\\ngpg: bad data signature from key DEF41F7DC0AB731B: Wrong key usage (0x00, 0x8)\\ngpg: Can't check signature: Wrong key usage\\n",
      "stdout": "",
      "statusfd": "[GNUPG:] NEWSIG\\n[GNUPG:] KEY_CONSIDERED 7108E748FBED4AC95246593BEC06F80B416AEE24 0\\n[GNUPG:] ERRSIG DEF41F7DC0AB731B 1 10 00 1671553073 125 AB55E6BD69EC89DB3DAA2B4BDEF41F7DC0AB731B\\n",
      "status": "exit status: 2",
      "files": {}
    },
    {
      "args": [
        "\"--faked-system-time=1671553073!\"",
        "\"--verify\"",
        "\"/EXPERIMENT/sig\"",
        "\"/EXPERIMENT/msg_bad\""
      ],
      "stderr": "gpg: WARNING: unsafe permissions on homedir '/HOMEDIR'\\ngpg: WARNING: running with faked system time: 2022-12-20 16:17:53\\ngpg: Signature made Tue Dec 20 19:17:53 2022 +03:00\\ngpg:                using RSA key AB55E6BD69EC89DB3DAA2B4BDEF41F7DC0AB731B\\ngpg: bad data signature from key DEF41F7DC0AB731B: Wrong key usage (0x00, 0x8)\\ngpg: Can't check signature: Wrong key usage\\n",
      "stdout": "",
      "statusfd": "[GNUPG:] NEWSIG\\n[GNUPG:] KEY_CONSIDERED 7108E748FBED4AC95246593BEC06F80B416AEE24 0\\n[GNUPG:] ERRSIG DEF41F7DC0AB731B 1 10 00 1671553073 125 AB55E6BD69EC89DB3DAA2B4BDEF41F7DC0AB731B\\n",
      "status": "exit status: 2",
      "files": {}
    },
    {
      "args": [
        "\"gpgv\"",
        "\"--keyring\"",
        "\"/EXPERIMENT/cert\"",
        "\"/EXPERIMENT/sig\"",
        "\"/EXPERIMENT/msg\""
      ],
      "stderr": "gpgv: Signature made Tue Dec 20 19:17:53 2022 +03:00\\ngpgv:                using RSA key AB55E6BD69EC89DB3DAA2B4BDEF41F7DC0AB731B\\ngpgv: bad data signature from key DEF41F7DC0AB731B: Wrong key usage (0x00, 0x8)\\ngpgv: Can't check signature: Wrong key usage\\n",
      "stdout": "",
      "statusfd": "[GNUPG:] NEWSIG\\n[GNUPG:] KEY_CONSIDERED 7108E748FBED4AC95246593BEC06F80B416AEE24 0\\n[GNUPG:] ERRSIG DEF41F7DC0AB731B 1 10 00 1671553073 125 AB55E6BD69EC89DB3DAA2B4BDEF41F7DC0AB731B\\n",
      "status": "exit status: 2",
      "files": {}
    },
    {
      "args": [
        "\"gpgv\"",
        "\"--keyring\"",
        "\"/EXPERIMENT/cert\"",
        "\"/EXPERIMENT/sig\"",
        "\"/EXPERIMENT/msg_bad\""
      ],
      "stderr": "gpgv: Signature made Tue Dec 20 19:17:53 2022 +03:00\\ngpgv:                using RSA key AB55E6BD69EC89DB3DAA2B4BDEF41F7DC0AB731B\\ngpgv: bad data signature from key DEF41F7DC0AB731B: Wrong key usage (0x00, 0x8)\\ngpgv: Can't check signature: Wrong key usage\\n",
      "stdout": "",
      "statusfd": "[GNUPG:] NEWSIG\\n[GNUPG:] KEY_CONSIDERED 7108E748FBED4AC95246593BEC06F80B416AEE24 0\\n[GNUPG:] ERRSIG DEF41F7DC0AB731B 1 10 00 1671553073 125 AB55E6BD69EC89DB3DAA2B4BDEF41F7DC0AB731B\\n",
      "status": "exit status: 2",
      "files": {}
    },
    {
      "args": [
        "\"--faked-system-time=1671553073!\"",
        "\"--verify\"",
        "\"/EXPERIMENT/sig\"",
        "\"/EXPERIMENT/msg\""
      ],
      "stderr": "gpg: WARNING: unsafe permissions on homedir '/HOMEDIR'\\ngpg: WARNING: running with faked system time: 2022-12-20 16:17:53\\ngpg: Signature made Tue Dec 20 19:17:53 2022 +03:00\\ngpg:                using EDDSA key FA11604A4FB3BF8B091A8C2C3674B3743095DD22\\ngpg: Can't check signature: No public key\\n",
      "stdout": "",
      "statusfd": "[GNUPG:] NEWSIG\\n[GNUPG:] ERRSIG 3674B3743095DD22 22 10 00 1671553073 9 FA11604A4FB3BF8B091A8C2C3674B3743095DD22\\n[GNUPG:] NO_PUBKEY 3674B3743095DD22\\n",
      "status": "exit status: 2",
      "files": {}
    },
    {
      "args": [
        "\"--faked-system-time=1671553073!\"",
        "\"--verify\"",
        "\"/EXPERIMENT/sig\"",
        "\"/EXPERIMENT/msg_bad\""
      ],
      "stderr": "gpg: WARNING: unsafe permissions on homedir '/HOMEDIR'\\ngpg: WARNING: running with faked system time: 2022-12-20 16:17:53\\ngpg: Signature made Tue Dec 20 19:17:53 2022 +03:00\\ngpg:                using EDDSA key FA11604A4FB3BF8B091A8C2C3674B3743095DD22\\ngpg: Can't check signature: No public key\\n",
      "stdout": "",
      "statusfd": "[GNUPG:] NEWSIG\\n[GNUPG:] ERRSIG 3674B3743095DD22 22 10 00 1671553073 9 FA11604A4FB3BF8B091A8C2C3674B3743095DD22\\n[GNUPG:] NO_PUBKEY 3674B3743095DD22\\n",
      "status": "exit status: 2",
      "files": {}
    },
    {
      "args": [
        "\"gpgv\"",
        "\"--keyring\"",
        "\"/EXPERIMENT/cert\"",
        "\"/EXPERIMENT/sig\"",
        "\"/EXPERIMENT/msg\""
      ],
      "stderr": "gpgv: Signature made Tue Dec 20 19:17:53 2022 +03:00\\ngpgv:                using EDDSA key FA11604A4FB3BF8B091A8C2C3674B3743095DD22\\ngpgv: Can't check signature: No public key\\n",
      "stdout": "",
      "statusfd": "[GNUPG:] NEWSIG\\n[GNUPG:] ERRSIG 3674B3743095DD22 22 10 00 1671553073 9 FA11604A4FB3BF8B091A8C2C3674B3743095DD22\\n[GNUPG:] NO_PUBKEY 3674B3743095DD22\\n",
      "status": "exit status: 2",
      "files": {}
    },
    {
      "args": [
        "\"gpgv\"",
        "\"--keyring\"",
        "\"/EXPERIMENT/cert\"",
        "\"/EXPERIMENT/sig\"",
        "\"/EXPERIMENT/msg_bad\""
      ],
      "stderr": "gpgv: Signature made Tue Dec 20 19:17:53 2022 +03:00\\ngpgv:                using EDDSA key FA11604A4FB3BF8B091A8C2C3674B3743095DD22\\ngpgv: Can't check signature: No public key\\n",
      "stdout": "",
      "statusfd": "[GNUPG:] NEWSIG\\n[GNUPG:] ERRSIG 3674B3743095DD22 22 10 00 1671553073 9 FA11604A4FB3BF8B091A8C2C3674B3743095DD22\\n[GNUPG:] NO_PUBKEY 3674B3743095DD22\\n",
      "status": "exit status: 2",
      "files": {}
    }
  ],
  "artifacts": {
    "cert": "\\xC5\\xC2\\xD8\\x04c\\xA1\\xD2!\\x01\\x08\\x00\\xBBM\\x0C\\x13\\xB7\\xB8\\xB1\\x10\\x00\\xDA\\xD3v\\x16X\\x0B\\xEF,\\x94@\\x9Ep\\xE1a\\xE9\\xDB<\\xD8\\x1D\\x8E\\x80i/b`\\xDC\\xE2\\x96\\xFD\"\\xD7_\\xFBhP \\xF9_煮\\x95\\xC27\\x87\\xFF\\x91t\\xCC\\xD7\\x86\\xB1șT\\t\\x94\\xF03M܆\\x1FTq\\x1D\\x8FL\\xC9D\\xE8.W\\x02\\x11\\x96˲\\x93\\x1A\\x06\\\\\\x98\\xF8\\x8E\\x87\\xAB=\\xAA\\xE4&\\xC0\\xF3\\xD5\\x03\\xB3\\xA7Fj\\n\\xD0.\\xFA\\x16\\xF2\\x06\\x0BQ\\xA2L1Xߞ\\x95\\x97\\x8Cj\\xF6\\xF4Q\\xDBx\\x0C\\xCF\\xD3z\\xDC\\xD0\\xA4,ko\\x9Bx\\xB0\\xF3\\x80\\x81d\\xB8\\x90\\x81\\xA4\\xDD\\xE31\\xAB\\x13r\\x8D\\x97\\xFA\\xB7\\xE2\\x9C\\xF4,\\xDF:\\x9C\\xDB)\\x8F^V\\xF8Tݒx\\xFA\\xF8-)tc۠\\xA1\\x97\\xA4\\xC3d\\xCDz\\x19\\x12\\x86e\\x17\\x1F\\xAF\\nB%\\x1A\\x92aS\\rR\\xCAA\\xC8'\\x11\\xF3\\xB1\\x02\\x10\\xFCF\\xFC \\x01\\xE9\\xF5%S\\xEB\\x82=R3ל\\x87M\\xE8Fӡ\\xC4\\xC0N(\\x06\\xBB\\xC6iO\\x9E\\xF5\\xC3\\x00\\x11\\x01\\x00\\x01\\x00\\x07\\xFFZ\\xF6l+\\x17J\\xA7\\x132\\x97\\x13\\xA3\\x81\\xEEx\\xBDKU$\\x9C\\xCE\\rgS\\xFF\\x99i\\x0Bѭ#hS\\xCA\\xDE\\xFB\\\\\\x80\\xCBn\\xF5\\xBAOJ\\xBA\\xF8\\xE1R\\xAF\\xF5#\\xF6\\x12\\xAA\\x05\\xC0J\\x8DA\\x0E\\xB5@\\xCA\\xD69a\\x0F֚\\xB5l\\x91c\\x04%6\\xF6\\xFF\\xB8kZ5\\xFFW3x\\xF1\\xDC\\xE7\\x02\\xB7\\xED\\xC2\\xA8\\xD5\\xD2\\xA0<bY?\\xD4+[\\x84\\xE0t\\x1E\\x03\\xEA_&.\\x06\\x94P\\xE2\\xF0\\x838d\\x05\\x16+hQ\\x80n\\x1E\\xB1t4\\x13\\x97=\\xC2C\\x98\\xA3zn\\xBA\\x10\\xF6\\xD9R\\x9E\\x87wcjk޻@Ne­\\x8D$n\\xB9죫j\\x99\\xB4\\x1AR\\x83$\\x86n.|o\\xCEK\\xF7\\xEE;\\x7F\\xEA\\x82c{\\x1F­\\x99\\x98\\xF6\\x03\\xA88&\\x91q\\xAB\\xAF\\xC4\\xD6C],\\x1F\\x00<\\x05\\xCF\\xE1\\x10\\x0C\\x8A\\x07\\xD9>\\x89w\\xB0w~\\xE0Rl~\\nëQ\"\\x9A$\\xBB\\xBC{%\\xCA\\xD9^?n\\xC5t\\x12F\\x1A\\xBA\\x99\\xF0\\xFF!\\x04\\x00\\xCD>\\x9B\"\\xD3o\\x93\\xABvF\\x0F\\xC8m\\xD0\\x18/CS\\x11\\x8B\\x98\\xFB\\xEB,\\xFA$/\\xB2d\\xE8.\\x90\\x0F\\xC8|\\xFDR6\\xC4\\x19\\xFB.\\x85C2ʃF\\xA7\\x8C\\xAE\\x87\\x80\\xDF\\x18\\xE9\\xA1=\\x99\\xA3\\x93g\\x9E\\xF7\\xF4\\x98\\x89\\xE1\\xF7\\xF9GR\\x8A\\r\\xBC\\x1B4M\\xBE2\\xA8\\xA1\\xB1\\x18\\xF2D\\xBC\\xE9u\\xEB5\\x0C\\x1F\\x91\\x16\\x9E\\xBC\\xCCPT/c\\x85=\\x1C\\xD8\\xD9.NC\\x86~h\\x81\\xFD\\xAB\\xF4vz\\x9A?\\x01'L\\x91\\x8C<\\x0F\\x04\\x00\\xE9\\x9E}\\x07\\x1D\\x18\\x14(\\x1E\\x12#\\xC7t\\xA7\\xA8\\x0E\\x1F\\xF75\\xFE\\xDCg\\xAAϞY\\x85\\xF8\\xA2\\xB9\\xC9\\x13~p\\xAA\\xEE\\xBDP\\xC0\\xB0\\xA3\\xFDޘ\\x80\\xA8y>\\x1C0\\x97c\\xB8c+\\xCF\\xC8!\\xBA]\\xD9_\\xF2\\x12\\x88ِ\\xD4-\\x8EF\\xF3\\x0B\\xE7\\xCA\\x95ht0\\xF4\\xD9\\xCA\\x16\\x02\\x9C\\xF9\\xAC\\x1F\\x16݌T\\xD9\\xFB\\xF0!I\\xDAN\\x83\\x9E\\xD2\\xF6$Ɣ\\x96\\x87\\xAEm\\x8DIZ\\x14\\rb\\xA5\\xF0\\xCB\\xF8gJ\\nV\\xC6\\xEC\\x87\\r\\x04\\x00\\xB7\\xB2\\xC4^!\\xB9h69\\xD1\\xF9\\xB5^Vױ5\\\\\\x15\\xBB\\xE0`\\x8A\\xD2#n\\xB6\\xFAq\\xA1\\x165\\xB3\\x06\\x13\"\\xF7V\\x04Y\\x91|\\xD1\\xE9\\xBB\\xBF\\xAF7r\\xDA\\xC3\\x13k\\xB9\\x83\\x9B2.1\\x90\\xA8\\x14ۑL5pf\\xBEQ\\x9A\\x9A;\\xA9\\x04\\x0E\\xB2r\\x10\\xF4%U\\x88\\xC6\\xC8\\xFE%\\x8C\\xC0\\xA3ɥ\\xB0\\xB9\\xB1\\xB7\\x0B\\x1CP\\xB0\\x08\\xF9:\\x1F\\xC1\\xBAJ\\xC1Q%\\x1D.b\\x82\\x03\\x1EP\\xE92\\xCBY\\xA2,\\xF5\\xF7>O\\xC2\\xC0\\xC9\\x04\\x1F\\x01\\n\\x00}\\x05\\x82c\\xA1\\xD2!\\x03\\x0B\\t\\x07\\t\\x10\\xEC\\x06\\xF8\\x0BAj\\xEE$G\\x14\\x00\\x00\\x00\\x00\\x00\\x1E\\x00 salt@notations.sequoia-pgp.orgzd\\xEC:\\xEC\\xFBxmSc\\x0FBOy\\xBEl\\x07>\\xA13\\xCFC\\xCE\\xEA\\x89?\\xB1\\xA2\\xAD\\x98\\xCDc\\x03\\x15\\n\\x08\\x02\\x9B\\x01\\x02\\x1E\\x01\\x16!\\x04q\\x08\\xE7H\\xFB\\xEDJ\\xC9RFY;\\xEC\\x06\\xF8\\x0BAj\\xEE$\\x00\\x00\\xD1d\\x07\\xFC\\x08\\xA4W\\xC6k\\xD9\\xFB\\x8C\\xAD\\xCCe\\x97HVQ\\xC3\\x02\\xB4\\x96q%\\x83\\x7Fs\\xF6eh\\x1C\\x12\\x02\\xEC\\xE8mV\\ru\\xED\\xF3=\\x84\\x8A\\xD3<\\x8C\\xB4\\x16\\xD3i}\\xA3\\xC2v\\xCA#\\x8B\\x13\\xCEk\\xB4\\xF9\\\\\\xCA=\\xEF\\xD8\\xF0=\\xC7M\\xA4\\xA86\\xCF\\xEC\\xBE\\x1D\\xE9\\xC8\\xDD,\\xBCc\\x91\\xF1Y\\xB8\\xC13\\xCD\\x13T\\xDAt\\xE3\\xABNJ\\xEB\\xCF\\xB1\\xA61\\xAF\\xADV\\x10\\xC1\\xBBG\\xEE\\xCE\\x9C\\xCFXģ\\x900\\x18\\x9Du\\xAB@\\x1Dt3-\\xAA`\\x95ڙ\\xFFR+\\x08\\xF0\\xDA\\xB3\\xC2'\\x16Y\\x14\\x1F\\xE9s\"R\\x1B7\\xC6s\\xF8\\x83\\xE0\\x08\\xA8*Y{\\xA5\\x95D-\\x06\\xA3\\x9Cx\\x06:\\r:\\xC2\\t+j\\x94ID\\xDD\\x0E\\x0Fa\\x8E\\xB4\\xE3z\\xF0\\xA4\\x8C/\\x9Dl\\x9C\\xAE\\xEB\\n^2\\x0C\\xBD\\xC7\\xD1M\\x99%\\x0F\\x04=\\x85=\\x9A\\xD1\\xE8\\xF8\\xC6%\\xF8\\xBA\\xB3\\xBA\\xCCS\\x8CB\\x96\\x19X\\xD9/\\xB0\\x8C\\xD8\\xF8\\xFD \\x0C\\xA2Ԭ\\x85KBF]\\x87B\\xED\\xE8;F9\\xCD$Alice Lovelace <alice@lovelace.name>\\xC2\\xC0\\xCC\\x04\\x13\\x01\\n\\x00\\x80\\x05\\x82c\\xA1\\xD2!\\x03\\x0B\\t\\x07\\t\\x10\\xEC\\x06\\xF8\\x0BAj\\xEE$G\\x14\\x00\\x00\\x00\\x00\\x00\\x1E\\x00 salt@notations.sequoia-pgp.org\\xB4z]\\x7F.:m\\xE7\\xF4\\x06(\\x0E\\xBD\\x1E\\x90l\\xE4\\xA2\"f\\xEA\\x1D\\x8A\\x84\\xE5p\\xEAQ\\xF4\\x9A\\xB7\\xB5\\x03\\x15\\n\\x08\\x02\\x99\\x01\\x02\\x9B\\x01\\x02\\x1E\\x01\\x16!\\x04q\\x08\\xE7H\\xFB\\xEDJ\\xC9RFY;\\xEC\\x06\\xF8\\x0BAj\\xEE$\\x00\\x00\\xB6\\x9F\\x07\\xFFf\\xB0\\xD1<߫\\x1E\\xFD8\\xF3[\\x90\\x0B\\x917\\xB1\\xB8\\xC4x\\xE2s\\x7F\\xE1\\xD6\\x1D\\xBB\\xB6\\xE5\\xCA\\xA6(O\\xCDz\\xAF\\x9B\\x1Ca\\xBA\\xD2qk\\x06bnv\\xBE\\xC5B6\\xFB\\x06\\xF7\\xF5\\xED^Q\\x16\\xF7[\\x00OȘ\\xEBHO\\xFF\\xB4\\x03gts\\xB7\\x82\\x7F\\xD0v\\xAA\\xCF\\x19O;n\\xFA\\x18\\x9B\\xD2[\\x1A\\xBBF\\xBA\\xB0J\\x03\\x0E.i\\xAEO\\x1C\\xD5\\xC8\\x1D\\xE7n\\xF8z\\x80\\x85܎\\x1C0\\xB8\\xA1/s\\xD06\\xA1o\\xC6(m\\x9DK\\xCFb\\xFF\\xAE\\x1BvI\\xF8ѫ\\xA1\\x9E;\\x97$\\x1E\\x85\\x08/\\x9D\\xF6\\xCE\\xF3]F\\x1B&\\xE2\\xECv\\x1C|P|\\xE50\\xD3\\xCB\\xC3@\\xD1a\\xA3\\x18\\xB4\\xB0\\xA5!\\xB0\\xF2\\x0E\\x1B5Qi\\xFDJ\\xB6؁\\xB0g\\x19\\x0F_]\\x98!\\x06\\xCC\\xF7`\\xA7;\\xCEl\\xFC\\x89\\x13\\xD7\\r\\xA39\\x8F\\xE7\\x17itRؙ\\x96\\x1A\\xCB\\xE8\\xB0\\x0Fb\\x85\\xD1\\xE4\\x07\\xFE\\x04\\x15\\x11\\xAA\\xC0\\xB0D\\x0F\\x85\\xE1\\x0FD\\x88\\xC9\\xD1\\x81\\x1F\\x80y\\x1E\\xF8լ\\x7F\\xB5\\xC7\\xC2\\xD8\\x04c\\xA1\\xD2!\\x01\\x08\\x00\\xC3\\xFC\\xE4bF3\\x8B47\\xCB\\xF41nI5\\x91\\xA8\\x89\\xB6h\\x98{\\xAC\\x1C:\\xF8\\x19\\xB8\\xC0\\\\>\\x9C\\xFF\\xAE\\x1C\\xEF\\xBD\\xED\\xCC\\xFEF\\xFB\\xC7\\xD80<esh\\xBB\\xA0\\xD4\\xE1X%\\x01\\xED\\xE2t\\xDF\\xE5)Z\\xF9\\xBBx\\xF9\\x8E\\x8C?\\x9A3w\\x99\\xEF\\x12.\\xFFc\\x05;\\xFE\\xFDf&\\xC2H\\x1A\\x10|\\xBB\\xC7:\\ts}\\xF4\\xD9\\x176:\\x97\\xC0\\xFC\\x08\\x087\\xCC\\xFD5\\xC4<l\\xBE\\x19\\x13\\x89\\x19ș\\x05\\x9B\\x03c\\xECn\\x05\\xB71\\xE7\\x1D\\x05Us\\xD2\\xEF\\x1E⋒\\xA5ڋ\\x07\\xBCk\\xA3ݔ\\xE2h\\x8DS2\\xC3!\\x82\\x93\\xAF\\xA3\\xBB\\xFE\\xBF\\xB8y#\\x9Cp\\x98\\xDA2\\xCD\\xEF\\x9A*\\xFCN\\x844\\xE4[z\\x9E\\xF5\\xCF%a\\xD6/\\x9F\\xC5\\xE9\\xA2&\\xD1A\\xEBpP\\xB5\\x91\\x1D\\xAB45\\xC6\\x0CXǈE\\x06M\\xBC\\xBA\\x7F\\x7F\\x8Bslq\\x8B}\\xAE\\xC2HE!\\x82\\xEF\\xDE%\\x18B\\xB2\\xA7}\\to\\xB5\\xFE|\\xA1n\\xD9\\xEE\\x02\\xBC\\x1C\\x1B\\x00\\x11\\x01\\x00\\x01\\x00\\x08\\x00\\x91jhB\\nx`\\x06ć\\x8D\\x8Dǘ\\x86(\\xA6\\xF6V\\xE3P\\x90\"igρ\\xB64\\xF3\\xBCy\\\\\\xB3\\xE1@x\\x99\\xA2\\x89\\xE0=\\x1CP\\xF6\\xDF \\xF3k<\\x92\\xDE\\xD8\\xA8B\\x8BX\\x8D\\xFD)N\\x94\\xE1\\xDE.}\\x99X\\x8F\\xE9\\xCF\\x91\\xB9\\x08mC\\x1B\\xB4\\xA8?\\x0C\\xC5_\\x1D\\x9Ah\\xDD\\xD5\\x1AJ\\xDA\\xE38\\x00.\\xCF}\\xBC\\x1Aq\\xBC\\xC1n\\x14MF\\xAD>\\xBF\\xAF\\xC0}\\xE8y.>\\xE0u<\\xF1\\xE7E9jj\\x0E/\\xBB>\\xF2\\xBC\\xD2\\x1C\\x13˥\\xAA\\xFF\\xA3n\\x1AZ54\\x93S\\x89;l|[\\x04\\xF8\\xC6\\x05\\xCA\\xC5v\\xEF\\x084\\x96\\xE9\\x1C\\xB7%\\x14%e\\x14h\\xF8\\xEAd\\x1F\\x82\\xE1I\\x10\\xC7\\xFB7\\xB5\\xDA\\xE2\\x00Y\\xC7\\xCE$\\x8EH.W\\x08z\\xBA\\x91\\x140\\x9F\\x03\\xDA\\x02'\\xFD\\xB9\\x01s@\\x17\\x1B\\xDD\\x14\\xA7_Rc\\x04\\xFD\\xF0\\x92\"\\xEA*\\xC2c\\x8B\\x8DQ\\xEB\\x02\\xFC\\x01\\xDDs\\xF1\\x7F\\x9E\\xF2|\\x18{p\\xEF\\xC6\\x951-\\x9Ao\\x04\\xC4\\xDB\\x8C\\x11\\x04\\x00\\xC4\\x017xfYo\\x94\\xE2\\x06\\x05\\xBF\\xE9\\xEA\\xC1\\xA7\\x06\\xA6\\xAC\\n\\x18\\x02Znˢ'\\x1F\\xF08\\x80o\\xE9\\xE2\\x8Eߋb\\x13\\xC9\\xDFű\\xD8\\xF4n\\x90'1 \\x91\\x85\\xE0WfA\\xBB\\xF3>\\xDA\\xF1\\x83\\xFD\\xA8\\xCFcZ\\xA8_28\\xE1\\xAB\\x16ܫ\\xC4tF-\\x8Dv\\xD7\\xD7<*\\x82G\\xE7#\\xCBK\\x837\\x18\\x84䘾W\\xCD?\\xC8vŌ\\x0C[\\x8F\\xAB\\x02\\xC1h\\x04\\x90O\\x82M'\\x00\\xE3p\\x82_\\xFA?\\x0F\\x8D\\x04\\x00\\xFF\\xFAZ\\x0Bl\\x90\\t\\xC4\\x01\\xD6N\\xCCq\\xDA\\xD4\\x07\\xEE\\xE3w\\x16]\\x9B\\x01\\xE3\\xCE\\x94\\xFF\\xB9J؛ \\xEBwa[\\xB6\\xFE\\x99q \\xB7#\\xD6m\\x19\\xEF\\xA5\\x07\\xA8}\\xF7\\x96\\xAD\\x9E\\xB2\\xD2A{\\xC4\\x1E\\xB7\\xA8?\\xF3\\x8B6\\xABbf\\x82\\xA0Y\\x139qsE\\x01\\x1CK\\xC4\\x12}\\x86\\xE7\\x80\\x19\\x9E\\xB9\\x04C\\x9870\\x8EC\\x08\\xA6\\x86_ \\xF0\\xEDD\\xF9\\x18?wr\\xE9B\\x9A\\xD8\\t\\x84>\\x0B\\xB9¡\\xCE\\xFAL\\xF3\\xB0\\xFCG\\x04\\x00\\xC2\\xC4cM\\xB9\\x08?\\xCA\\x1Btv\\xCBI4\\xABʹ\\x8C\\x81WH\\x85/\\xE0p\\xF1\\x1Dx\\xC1\\xC5\\xC6\\xE9\\xDC\\xC6J6\\x8DKM\\xA8{aH\\x967\\xD35(\\x8B\\xF7\\x95E:͛\\xB8\\x1EG\\xE6qI\\xD9\\xD2\\x18\\x94\\x90Y\\xDA3K^\\xE4\\xE9$\\x90\\x83\\x9E\\x93\\x1A\\xE1\\xC3Y\\xE9MA\\xB8\\xCF\\xCA\\x18\\xFA|\\x8F\\x91B/ne\\x08\\x83w\\xF1m\\x95\\x80~w&W\\xE2\\x12\\x96\\xF6Cb%\\xEEAM얰\\x9D\\x8A\\x1D\\x05\\xFE+|=\\x9D\\xC2\\xC0\\xBE\\x04\\x18\\x01\\n\\x00r\\x05\\x82c\\xA1\\xD2!\\t\\x10\\xEC\\x06\\xF8\\x0BAj\\xEE$G\\x14\\x00\\x00\\x00\\x00\\x00\\x1E\\x00 salt@notations.sequoia-pgp.org\\x01\\xA7٧\\xF6t+\\x9C\\x06\\xB1\\xE2~\\xA7\\xBCE\\x8B\\x0F\\xD1T\\x1D\\x95\\r\\x1C\\xA8\\x19\\xE8(\\xBD\\xB2J\\xC1|\\x02\\x9B\\x08\\x16!\\x04q\\x08\\xE7H\\xFB\\xEDJ\\xC9RFY;\\xEC\\x06\\xF8\\x0BAj\\xEE$\\x00\\x00\\xF1\\x18\\x07\\xFFq\\xF8\\xFD\\xA3\\x1D\\xCB3.R\\x90\\xB5\\xEA\\xEC\\x1B\\xD1)\\x1Fo\\x03U\\xB0]\\xD7\\xD7H\\xCDS\\xA9\\t\\x80Э\\x93\\xDC\\xE2\"\\x8Bs_\\xF8\\xA4\\x86*\\xCBBh\\xF7\\xDA\\xC0œ\\xEEe}\\xBE\\x98\\xF1d\\x1E\\x01\\xB4Y0Ğ\\xFA\\x8E\\t\\rv\\x03\\x12\\x04\\x87\\xA9\\xB3\\xE92\\x9066\\x12\\x9F\\xB7\\x13\\x85\\xC23,\\xC9}x\\n6Hp\\xF95\\x8F\\xCD={\\x1DϚ@\\xB9N0\\xD5\\xFE\\x0F.\\xB9/\\n\\xA8\\xE5G\\xE5l\\xD9kZ\\x82\\x98\\x85\\xBB\\x1E\\x14\\xA4\\xC6\\xC6\\xB7\\xCE}ԩK\\xFE\\xE9!\\x93\\x8F\\xF9\\x17Q\\x06\\xA6P\\x81۞\\x11\\xEC^\\x12\\xCB\\xCAV\\x83\\xFC|\\xC3*.Ϲ\\xE3\\xA2\\xC8I,]4g\\x8F\\x13\\x95\\n\\xD6{ǾeHb\\xAB\\xB3\\xB1\\xEB\\xECPՖ\\x0C\\xAC\\xC5=\\xF4;ӱ$\\x15\\xF8\\xA1\\xCC\\xD6\\xE4\\xC51\\x91:\\x84U\\xEAll\\xC9qd\\xCAU\\xA5\\xD2\\xDA\\x83\\xEDE Z\\x97\\xA9!\\xFFс\\xFDV\\xE9\\x14)g\\x84\\xF1\\xA0\\xE78R\\xAA\\xF2\\x9C\\xEE$\\xAA\\xC7\\xC2\\xD8\\x04c\\xA1\\xD2!\\x01\\x08\\x00\\xC8\\x02\\xCEt!\\xA6\\x1D\"~ç\\x07kJ\\xB7\\xB1\\x9D\\x1Al8GJ\\x7F\\xDA\\xD4\\xE4\\x03\\x17\\xA4\\x86'\\x8A\\x8E\\x89\\x1D\\x9B\\xE8\\xEA\\xC2\\xE5J\\xA1\\xED\\xFC\\xB5\\x1E\\xD5\\xCE\\xBFW\\x1A\\xF1\\x17\\xBBu\\xC7\\xCDY\\xC0\\xB5\\x87\\xC4\\xD2\\x97\\xBC\\x14\\x1CH\\x17/\\xFBҌO2z\\x91\\xC0\\xAF\\x8F\\xD7;.):\\xCC\\x11\\x87\\xE6W\\x8D\\x1EK\\x01\\x90\\x84\\xC5\\xD9\\x03\\xE0D\\xBC\\x86S\\xC2\\xD5\\x90\\xB7U\\xE9&ft\\xC37N\\x02 \\xA1|\\xF7L\\x95\"\\xC4:%(c\\xDCH[;\\x1FS\\xC2\\xD2\\xB8\\x0B\\xCA\\xD8\\x18z\\x07\\xDD\\xDB\\r\\xEE\\xFE>\\xC1\\x19|\\xA7ԫ\\xCC\\x17K\\x14\\xBE.!v]\\x9Awњ \\x81l\\x99\\x13l\\x11\\xA9!y\\xD1U\\x9C\\xABz\\xEC^^\\x83\\xA4\\xA6Is\\xBC\\xDCn\\x13/A\\x8A/n\\x11|\\xB9+z\\xF1\\xBC\\x13\\xDD\\xC8\\xCETk\\xB0Qӳ%\\xDB\\x1F\\x1F\\x8A\\xF7\\xF3\\r:\\x85\\x8F\\xE9\\xC2\\x1E\\\\\\xBDlo:>Y\\xA3EPK\\xCB\\xFAF\\x9B\\xD3l\\x1F\\x1E\\xA2*\\x10\\x95{\\x00\\x11\\x01\\x00\\x01\\x00\\x08\\x00\\xA9È\\x0C\\x96\\n\\xF2\\xAB\\xB6\\xC0\\xC6b˴\\x8D\\x9A\\x19\\xE8\\xB5vG<z\\xAC\\xF9\\t\\xD7~\\x17\\xCD.~\\xB2`\\xBBZ\\xFC%V\\xEB[\\x9Fyꆨ\\xF7}\\x16w\\x0E\\x8D\\x18A\\xAAľ\\r\\xB2=\\xE2Q3\\x16K3\\x1E\\x96)\\xE86l\\r_\\xA3N٫\\x9C\\xD8\\x10-Q\\x0E\\xF9\\xB3\\x00&Cb\\x88\\x8A\\xEF\\xCB\\x12)?\\xEC\\xE5\\x17T\\x00X[|\\x01\\xDDe_l\\x17\\x85\\xDB\\x11_=\\xBD\\x1C\\x895\\x12\\x8AT\\x03@^\\xC1\\xED\\xB72yS\\xCD\\x0Eo\\xEE\\x9C\\xDB\\x0E[e\\xA1K\\x8Df@\\xBE\\x94p\\xD7\\xEB\\x17i\\x9C\\xFB\\xAE\\x19z\\x8E\\x97\\x11\\xC1\\xED\\xCE\\xD1\\xCFH\\xC8\\x00T3!\\x03\\x9F\\x9CA!X\\xB2\\xD78\\x8F\\xA7\\xEA\\xFD\\xCFLG\\x8BR\\xC5lc\\x93\\x91l\\rKhd\\x12\\xF7\\xDC2e^\\x9C\\x825\\x97\\x00\\x91&\\x8E\\xE8\\x07k\\xE9\\xD6\\rf\\xC2\\x1FY\\xFBE\\x8CO\\x99\\n\\xAFR\\xC0~\\xC6\\xD0\\x92#3\\xEF\\xAB'ؚ'\\xF1\\xA96.m\\xF8\\xF6\\x0E\\x81%\\xD1\\x04\\x00\\xD2\\x02\\x8E\\xC0\\x88\\x17\\xEF\\x90\\x13g\\xB5\\xAA\\xC0\\x88\\xB8wu\\xEC7`\\xDBPA+\\x91\\xBFC@\\xCB\\xDC\\xA0V\\xEBi\\xF1p\\\\\\xF0\\xBB\\x05\\xF7O\\xB5\\xDB\\xDE\\x1CY\\xEA^\\x9B\\x8B\\x94\\xBB\\x86\\x85w\\xAB\\\\\\xE6+\\x15\\xEA\\xAF\\xC2W\\x8D\\xA7.\\xCEu\\x15\\xCA\\xE7\\x93jN\\xF1\\x90\\xD3\\x88E\\x06^\\x9F\\xF6\\xE83\\x03s/\\xB6|\\xA1\\xF5\\x01\\xC2u\\xB2\\x9Bp\\xAET23\\r\\xD3(\\xE4\\x17\\xDE\"\\x07\\x92H\\xCFX\\\\\\x1B\\x7F\\xAC\\xAD\\xFFL=\\x83\\xEB\\x1B\\x8D\\x04\\x00\\xF3\\xCF\\xB0\\x9CC&/=\\xABR\\xD3A\\x91x>(\\x10\\xDB\\xE6r<\\x84\\xF3F\\xA3\\x13ي\\xE5o\\xE8B\\xE8C\\xE1\\xBB\\xE0\\xD8\\xCCNS^\\xED\\x9C\\x033\\xE8\\xAE\\xD8\\xCDWeQ-\\xD4\\xF0k\\xF6Lh\\x9C1\\x8DNy>\\xE2\\x18q\\x9D\\xEA\\xF4+\\x18\\x81\\xE3\\x83\\x05\\x1D#\\x07\\xEC>\\xB1\\x91\\x1B\\xD0\\xD3?\\xB0\\x00\\xFC\\xB4R\\x8B\\xFCtG \\x05n\\xF5g\\xB8\\xD6V\\xA5\\xF5D\\xC2ir\\xEC\\xD6\\x1A\\x9CI\\x18J\\t#'\\x04\\x00\\xE46;\\xAB?\\x9A\\x83\\x0B\\x14ť2\\x04aK\\xF3B\\xEC\\xF2\\x8BolxD\\xA5\\x15.\\xF3\\xAA\\x1D\\xBF7\\xA7\\x08\\x9A\\xF0I\\xFA\\x9C\\x01\\xB0\\x18Y\\x83w4\\xDE0\\xDA\\xF3Q6\\xA7\\x18?dr\\x85\\x05\\x95\\x99\\xFE\\xF0\\x11'럊\\x86\\x05\\\\\\x12\\xCB\\xD0\\xF6\\xA0\\x02@\\xE5\\xF6\\x10\\x9F\\xE1^\\xC0A\\xAC\\xBA\\xB4VEOkN\\xDF\\x1B<n\\x94\\x0BO$\\x13r\\xAA#.zoISew\\xC5F\\xF3\\xDC\\xBB\\x90\\xEE\\x19\\x84h;Rnyk9\\xC1\\xC2\\xC0\\xBE\\x04\\x18\\x01\\n\\x00r\\x05\\x82c\\xA1\\xD2!\\t\\x10\\xEC\\x06\\xF8\\x0BAj\\xEE$G\\x14\\x00\\x00\\x00\\x00\\x00\\x1E\\x00 salt@notations.sequoia-pgp.org+%\\x16\\xC3\\xE9E\\xAB\\xF8\\x84\\xCF,\\x91\\xA7᧶\\xC9\\xF1\\x84\\xF1\\x88k`wv\\x94\\xACr\\x08\\x02W\\xDF\\x02\\x9B\\x04\\x16!\\x04q\\x08\\xE7H\\xFB\\xEDJ\\xC9RFY;\\xEC\\x06\\xF8\\x0BAj\\xEE$\\x00\\x00h\\xBB\\x07\\xFB\\x06\\x0BT\\x11\\xDC\\x06\\n\\xAB \\x1Dl\\x1Bh<\\xB2A;A\\x12\\xFD5\\xF3\\x8A=Qd\\x0F\\xBF\\x10W\\xDBb\\xAE\\xA8\\x1C \\x97\\x80\\xC6>pS\\xB8\\xBC\\x0B\\x16g\\x94\\x08\\xCA\\xF80\\xCAZ\\xDC&)\\xAD\\x9C?9\\xB1\\xBA\\x1Fj\\x12X\\xE8gV\\x14\\x84\\xCD\\x19\\xBC\\x00/\\xAE\\x9A>[j\\xE0e\\x84\\xBCKv/\\xA9\\x16\\xC7\\xDF\\xB4\\x9F\\xBA]NL\\xE3nb\\x8F\\x99$~\\x90\\xFD\\x92\\xF6!X\\xC7*\\x95\\t\\xC0\\xFA\\xA6\\\\\\xEE\\xC8\\xEB\\t\\xE5\\xC0\\xBC\\xDE\\xD5f\\xA1\\x80+\\xF7$A\\x92\\xE0\\xA5\\x07\\xF1\\xCA\\x00\\x90\\xA7\\xC8\\xD8\\x9DQ\\xB4\\xAAr\\xAA\\x94]\\r\\xAEkΪ!\\x9C\\xE2AN[\\xC3\\xDEԖ>\\x0C\\x8F\\xB3\\x17\\xC7\\xFE\\xD1\\x04R\\xC3\\xEDf\\xD5A\\xB8\\x83x\\x13:\\x9BwYt\\x9DuL\\xD3s\\x04\\xC7X}𷋣p<\\n\\x1C\\x18B}\\x92\\xE27\\x86\\xC0͂u\\x85WZ->&!h\\xC9\\xF5`6\\x86^\\xF5H1\\x10\\xA7<\\x7F\\x17\"2\\x10\\xEA\\x98\\x1C:7\\xC8e\\xEA9\\xC7\\xC2\\xD8\\x04c\\xA1\\xD2!\\x01\\x08\\x00\\xCB\\xE7\\xF5\\x9D\\xAAQJL\\x0Cy\\x1F\\x9E\\xBFm\\x1Cr\\xB3\\xF6sC\\xFE\\x0Ce\\x0E\\xF6\\xC2\\xCE\\x14F\\xFD$\\xA7֖\\x99L\\x00\\x07\\xB59e%OG/\\xF7\\xE6!\\x17QZ\\x7F#\\xB7w\\xE7b\\x7F\\xAD\\x9Dp\"\\xF9\\x00\\xD9\\\\\\xC1\\x84\\x1E\\xDA\\x02\\xBC\\xB3D\\t\\xCB<\\xB8\\xAB\\x0BO\\xB9\\xE2\\x94\\xCE\\xF1\\xE5\\x8A\\x9EH\\x868\\xF09\\xF4\\x96\\x83*Qg\\xC6@\\x17\\xF7\\xFEl\\x7F\\xA0\\x17\\x8AJz\\xBE\\xC4\\xE8\\xF5W\\xADU\\x8A\\x7F\\x1B{`p\\xA6\\xFB\\xC8\\xFA\\x8BqD\\x16]\\x906\\xEA\\xE2V\\nDq\\xF6m\\xAEۺ3~\\x18ۇ\\xB0\\xD8\\xF5\\xDC`\\x838\\x01e'\"\\x7F\\xF4\\xDF-\\x05\\xF9\\x05DH(\\xDB\\x00Q\\xCE\\xE56\\x13\\x9CAm\\xCE7\\xF1\\xD6\\xDB\\xD8\\n\\xD21\\xB42V\\\\~̸\\x17\\x88\\xE8\\xADdqC\\x0B\\x90B\\x9B\\xB3\\xD9\\xF6V\\xD6ANU\\xC4{\\x9Ee\\x1FmE%\\x96\\xD6c饵\\x819\\xF9\\x9EȢ4]>0[\\x9E{\\x93}\\x88\\x12Cy\\xB0\\x8E\\xF4L!\\x00\\x11\\x01\\x00\\x01\\x00\\x07\\xFC\\x08\\xE5.\\x9E\\xD9.@\\xAA~\\xA4\\xCE\\x0FSԃ\\xB81G\\xA0\\x11\\xA8D\\x8C(\\x11\\xF5\\xBF\\x9D\\xBC\\xD7\\x10AN(5\\xB9\\xCE\\n\\x88\\n_\\xF27\\xBA(J\\x8D<\\x86R\\xE3:Ʃ\\x1BN\\xF9\\xCA\\x0E\\x1D\\xDF%wme\\x0E\\x19\\xD7\\x14\\xADx\\x0F\\x19V\\xEF\\x82q<\\xB1!\\x861\\xDA\\xC3\\x99\\x1F\\x8E^\\xF4\\xB6\\xBF<>\\xA6\\x98\\x97\\xF4R\\xE5H<\\xAA\\xD1 \\xDDu\\x88?ȧ\\x1CƬ\\t\\xD5\\x0B\\xD6\\xEEU\\xDB\\xFB݌\\rQ\\xFC\\xC6\\xE1\\x12\\xB1.\\x1E@H\\xA0C\\x18^z(\\xB3\\xC0\\x18\\x82r=\\x98K\\x84\\x14l\\xD3\\x00_\\xF5\\xCCM<\\xD9\\x00\\x8F\\x9FP\\xF5Z\\xBD?\\xEEjhL\\x16E+|\\x99\\x14\\xAD\\x95\\x8C$p\\x16'i\\xDEw\\x1D\\x15^\\x07\\x896C9(q\\x93\\t\\x1D\\xE3|ӡ\\x93\\xE7\\x8B\\xD9\\x03l\\x92Ȁ\\xB6Ҹ\\xC9]\\xF6,\\r.ɧˀ\\x1F\\xED\\xAA5͊棤\\xA6\\xAFwT\\x11\\x88\\xACy\\x95\\r\\rԶ(\\xC4\\xE9>8Ǹ\\x01\\x04\\x00\\xDA\\xEA\\x16%\\xBE\\x90\\xF0-j\\x1A(\\xAD\\x1F\\x0Ft\\xA1\\xAE\\x15#x\\xCF\\xDB\\x06\\xF3\\xAD\\xFE\\xBE\\x11\\xB4\\x05~\\x0C\\x0E\\xE8\\xEF\\x95\\xE3K\\xBF\\xA7WO\\x8C\\x0Fe\\xFA\\xE8\\x0B\\xA5[\\xFC\\xB5\\x12\\xAD\\x1Eb\\xF8y\\xD4H\\x91v\\xA6P\\xFEt\\x0C\\xFAo\\x94\\xA8c\\x16\\x03\\x98\\x86\\xD9\\t\\xE9N%j\\x03\\t\\xEF\\xED<\\x89\\x84\\x94m)\\xC3g\\xDA\\x00\\xEF\\xA8\\xE4\\x8Bz+\\x92\\xB2\\xAF\\x9F\\xBA\\xF9\\xFCT\\xF5g჋\\x12c\\x8Dz\\x9FZ\\xEF\\xFFS\\x91\\xE2Ra\\x04\\x00\\xEEr\\xFD\\x82<R,1\\xEB_\\xFE(Ů\\xC5\\xFA\\xAD:\\xC4\\x1D\\xF2\\xEC\\xE4\\xA8Q\\xBD\\xFF-\\x86U;f1s\\xC8L\\xAEf&\\x08\\xE8\\xEB\\xD9\\x1FN\\xF0\\xC57ϓ\\x97;\\xCB\\xE8\\xC8\\xE1\\xE3\\x85,\\x9C]\\xAB\\xA3ט>\\xBD\\xD14l\\xEB-\\xB9Lٍ\\x7F\\r\\x03\\x0C/\\x7Fd\\xF6\\xC0\\x8AlZ\\xEC\\xE0\\xCF\\xC0\\x96<R\\xB6u\\xE8\\x8EP\\xCFw\\x00\\r\\xFEżk\\xA8\\xEEv|\\x97܄z\\xAAoU`\\xBF\\xA5\\xAD\\x1F\\x1C\\xF3\\xD1\\xC1\\x04\\x00\\xC2R\\x04H\\x9E\\xD7K_\\x18\\xAE\\xBD\\xDF\\x1B\\x1F\\x080\\x025\\x9F\\x80\\xCF\\n\\x80\\\\\\xB0!\\x9A4#\\\\E\\xA0g\\xEC\\xA6\\x19\\xA4\\xB8'\\xAE\\xB3\\xC9NW\\x0F-\\x81\\x11\\x05\\xE4[\\x04PU\\xC2\\xD5\\xBB\\x1D\\xB0B\\x9C\\x1FW\\xCD\\xD2\\x1E\\xE7\\xCF\\x11$\\x9E\\xFAQ\\xE9V\\xF4\\x19l\\xDCy\\x88t\\\\ܽ\\xE9\\x91\\xE2\\x8E\\xCBQ]3\\xE9\\x12\\x15\\xE2\\xB5T\\xBEg\\x11󸠋\\xEC\\xB1\\xD5\\x12\\xBCe\\xB2\\x0B\\x98%p\\xFF<\\x9A`\\xDD[QSr4\\xA3?\\xF1\\xC2\\xC2<\\x04\\x18\\x01\\n\\x01\\xF0\\x05\\x82c\\xA1\\xD2!\\t\\x10\\xEC\\x06\\xF8\\x0BAj\\xEE$G\\x14\\x00\\x00\\x00\\x00\\x00\\x1E\\x00 salt@notations.sequoia-pgp.orgb)\\x12\\r\\x96k\\x19\\xDEAaV\\x02^\"ih\\x07\\r/\\nW\\xD5\\x1Fl5\\xD8y\\x0E\\xDA\\xCD\\x89L\\x02\\x9B\\x02\\xC0\\xBC\\xA0\\x04\\x19\\x01\\n\\x00o\\x05\\x82c\\xA1\\xD2!\\t\\x10\\x86|E\\xAA\\x88\\xB3\\x07\\xF6G\\x14\\x00\\x00\\x00\\x00\\x00\\x1E\\x00 salt@notations.sequoia-pgp.org4\\xC0\\xD3x\\x8F\\xFB:\\x83\\x99\\xB1\\x83_\\x92v\\xE2Tf\\x90@\\x899\\xC7(\\xB3\\x8C\\xF4J\\xB8\\xF1\\xA3\\xA7\\xD7\\x16!\\x04\\x8C\\xA9\\xBD\\x86\\xC1ܟ\\xA4@N,\\xAE\\x86|E\\xAA\\x88\\xB3\\x07\\xF6\\x00\\x00\\xFC\\x1F\\x08\\x00\\xA8;\\xE4:'\\xD7\\xCB\\x8C\\xB6\\x1Dk\\x81v\\xBFL\\xFF\\xB2\\xBE\\x91E\\xE5|\\xC8\\x17e}\\xCA\\x05C\\x80\\xEB)\\x98\\xF63W\\x93\\xF5i&p\\xA9\\xBD\\xF0\\tm\\x8B\\xFB8\\xA8q\\x1C\\xF4\\x81\\xE4\\xCF\\xD4\\xF3\\xF8\\x81o0\\xC8E\\\\\\xEA_s\\xAD\\x94h\\r{\\xFF\\xB5x\\xF6\\x03L\\x04\\x16?\\xC5\\x11\\x83\\x86\\xF4\\xF1F\\x840g\\x17\\x1C\\x1D]\\xF1\\xF6\\x1C\\x12T\\xC0\\x08\\xA7\\xB5`\\xC1\\x9E\\xC1\"2\\x9A\\xCE\\xF61S4\\xD3\\xF2jʕ1\\xA5'\\xBE3*`'\\x81\\n\\x0E\\x91|)\\x8A\\xA4<U\\xC2\\x00\\x97\\xF3g}\\x8Aӿ\\xDDg\\xE1\\xE0l\\xD4&\\xE7\\x06jU=\\xA5\\x7F\\xF6Fq\\x96\\x90\\x89\\xA1\\xBE\\xC6\\xDFzM!B醡\\xA1\\x17\\x90-?2b^d[N@\\xA8Ý3\\xEELJ\\x80\\x9E\\x88m*\\xFD\\x00\\x86SD\\xBFO\\xB4ٝ\\x84\\xD4*\\x0B\\x82\"Q<\\x86\\xB5\\xAA\\xA3\\x1A\\xEF\\xDB@\\xB6ȑ@1\\xAA\\x8AՈTx%Y\\x97\\x88zԕ\\x93\\xC7\\xED\\x95\\xA9\\x06\\x9A\\x89\\x16!\\x04q\\x08\\xE7H\\xFB\\xEDJ\\xC9RFY;\\xEC\\x06\\xF8\\x0BAj\\xEE$\\x00\\x00\\x02\\xD5\\x08\\x00\\x90\\r\\xBB\\xC0\\xED\\xA7\\xF8\\xE7\\xA6\\xE5[\\\\5\\xE7Wx\\x15\\x1A\\xF6^\\xAD\\x840n\\xAC\\x0E)|\\xB5\\xBA\\x8B\\xCA\\xF1#\\x14YNW?;\\xFD1\\xA6\\x14\\x84BV\\xC5!P\\x83\\xA6\\xDD]\\xE5\\xD4\\xFF!\\xE1g`c\\xC8\\xDFE\\xD5@ߺH\\x81\\x1A\\xEDb\\x97\\xA8\\xA3֍\\xEA4\\x8F\\xC77\\xC88w\\xBE\\x12\\xA4D6\\xA5\\xB5v\\xA0a\"\\xE2cD\\x14\\x88\\x82\\xEC\\xE5y\\x92c\\x81k\\xCA5\\x88~l\\x0Eu\\x91\\xEAj\\xAD0\\xDD)\\x95\\xF0,\\x1ES\\xA2\\x9F\\xC7\\x0B\\xAF\\x11\\xA0ΐ.'[\\xA6\\xB5\\xABׅ\\xD8\\xDF\\x93\\x9E\\xFE0\\xEE\\xD4\\x1E\\x12T\\xD1\\x1C\\xB8\\xDB\\xEB\\xCAd)\\xF5\\x01S\\x98\\xCCN\\xB6\\x0Bt#\\x8CJ\\xFCj\\x1A\\xCF\\xE5N+\\x80\\xA2\\xD3w,-\\xB1\\xF1F\\xD4\\xDA\\xA4\\r/\\xBCZ\\xCCd\\x11\\xA6fԸu\\x863r\\xE8\\xDDT;v\\x96\\x04:\\xD1+\\xD5}RX\\x17\\xC0\\xE3.\\xCD\\x0359&,4.\\xEBr\\x87\\x99\\x14cQu\\xCE\\xCF\\xD5c\\x14\\xE6Q_\\x0B\\x1C\\xC7\\xC2\\xD8\\x04c\\xA1\\xD2!\\x01\\x08\\x00\\xE8a\\xCA6Z\\xD1\\xD7\\xC5\\x12\\xF0\\xE4,\\xBE^x\\x85\\xAF\\x98\\x18\\xD7\\x1F\\xB4j\\xC8\\xD4\\x80\\x07\\xB5\\xC1\\xAA\\xFA\\xEA\\xB2=5d'?\\xB6\\xB82i\\xF3\\xEC\\xD1FR{\\x02\\x10\\x1Cf\\\\\\xB6?+4\\x88\\xC8\\xC0vq=\\xD1\\xD0\\xFC`\\xFEEl\"\\xE4\\xFC\\x93\\x88\\x8B\\xD4\\x1F\\xBA\\xD7whN\\xA7\\xEF\\x1B\\x14GN\\xCF\\xF8@\\xC0\\x06K\\x18~IB\\x9D\\xA8\\xADdr\\xA8$0\\xAC4\\xB7,]\\xBE\\xAC\\xB64\\x9E17\\\\\\x17\\xF9b>\\xAE\\x8Cj*\\xF5\\xE8\\x1C?J\\xF4\\xB1\\xAB\\xB1\\xBF\\x03\\x15bחR\\x988R\\xE7\\xD5\\x9D\\x87\\xB3\\r\\xAEʔ\\xBC&\\x7F\\x1E\\xB3\\x9A\\xA2я\\xBF\\xFB\\xA7\\xCE\\x7F\\xDC\\xCC\\xBEE\\x17\\xEA>G\\xEE\\x98\\x0C\\x8E\\x89\\xC0\\xE2\\xE9KM)!9ؽA\\xBC\\x05\\x9B\\xDAuP\\x12\\x1B\\xF9\\xDC~\\xFAmh{\\xC6\\xC6\\xDB\\xF0\\x90(\\x8A\\x04\\xF6\\x13\\xD6\\x1C\\xAF,\\xC3\\xF4\\xA5~\\xFF\\xCEP\\xA3\\x0F\\x88\\xEA\\xCBi\\x03~\\x1D\\xA3\\xE0:\\x98\\xFF\\xE5\\x00+\\xCFy\\xCE\"-\\xB5\\xF1-\\r\\x00\\x11\\x01\\x00\\x01\\x00\\x08\\x00\\xA4\\xC8\\xDB\\x84\\xC9\\xC8.\\x12\\xA0\\xC8\\xD3t\\xEB\\x15\\xC0\\xAFD\\x02=\\xF3&\\x97`u\\xC3Bz\\xB5'}`j\\xD73\\xD2M\\x90\\x0B}=\\x86\\xFA]/\\x9C\\x83\\x1Ap\\x01\\xD9|\\xDA\\x15zb\\xB6\\xF7\\x8Cۖ\\xA7&\\xCC(\\xA1\\xE2\\xA5\\xC1\\tg\\x92#\\x00\\xFCy\\x82vL}\\xC8\\xD6\\xF2\\xCF|\\x04q\\x16c.\\x7F\\tR\\x99\\x18\\x9D]\\xE4\\x07}F\\xA1[;t\\x96\\xC8\\xFA\\xFE\\xD2n\\xE5\\xF6 \\x05\\x07;\\xAE\\xC5\\xC5\\xB4\\xF7\\x87/d\\xB5\\x8F\\xFA\\xA3\\xDC\\x1E\"ĴdV\\x99\\x81\\xD3\\xF0ެ8)\\x1D><c\\x0C\\xA9ॠ\\xB0:\\xC4 \\xFF\\xB8\\x1DGk\\x12\\x89\\xEF\\xF4\\x11\\x9A\\rA\\x92\\x10&r2\\xEE,\\xC8M\\xB9D[\\x96\\xDD\\x05\\xCE\\xFA\\xAC\\xCB\\x17\\x81^\\xA0\\x04\\xC9\\xEFa\\x9D\\xEF\\x83F\\x16b'\\xE5|\\xF8\\xAE\\x8C\\xE1$^6\\xF0\\xCD\\x90\\xA5_\\x8D\\x13\\xB4\\x9Cci\\x81\\x0CP\\xE7\\xF3\\x918\\x07\\xA3\\x8E\\xE8\\xF8\\x1C\\xF4\\x9A\\x81\\x844\\xFB>\\xCFQ\\xD4\\x07\\xF4\\xCA4\\xB9G\\xF4`\\xB4]\\x04\\x00\\xEC,\\x94lu\\xED\\xEDJW\\xF1\\x0B&\\xA4\\xA3}\\xD6\\xF7\\x89\\xFB\\xE1G\\xC9~!\\x89\\xF7ֽ\\xD1jt\\x8C\\x14I\\x05\\x86\\x0B\\xA0c\\x9Dr2¥\\xF1\\xD8w\\xF9'\\xFDx\\x1D\\x15L\\xBA\\x8F\\xAA1\\xFDk\\x083\\xFD\\xFA\\x7Fk,\\x05\\xA3\\xBC\\x17qˈ\\xADU\\xC1\\x17\\x1C\\x932\\x97\\x9EH\\xEEd\\xD8x\\x91\\xF3\\xCC\\xAD \\xB4s\\xA5B\\x1D\\xE0\\x14\\xA9s\\xBDR\\xDD\\xF8\\x04Y\\xBD\\xA7vS\\x8FvF\\xE0\\xD9M\\x0F\\x10\\xF3\\xB3'@G\\xAA|{\\x04\\x00\\xFB\\xE3\\xB7[\\xA1\\x96M\\xD8\\xFD;\\x01\\xC3\\x13u\\xEC\\xD8?5uL\\xEAZ\\xA5˖1\\x84-.\\x9A\\xE5nU\\xDE!\\xF3$Z\\x91k\\x81\\xA0\"jȏ\\x8C\\rF\\xFE\\xB1\\xD9\\xEF9n\\xD5#\\xE4\\x15\\xAE<w\\x8F\\x18U,6\\xE2v\\xAA\\x98\\xE9O\\xAE\\x02+\\x04\\xEA!\\xEBE\\xB4\\xF9\\xF1Egq \\x1E\\x14\\xAA\\x07\\x9By{Eɇ@\\x0E\\xEAn\\x1D\\x80\\xA7\\x82\\x12o\\x14Z8>\\xF4\\x8A2\\tE\\xB5b\\x0Cq\\x16\\\\\\x7FBښ\\x17\\x04\\x00̗\\xF4\\xDF\\x97U\\x0B\\x98\\xD7W\\x8BqU\\xF8\\xC0\\xFE93\\x97\\xA2\\t5\\x82\\x9C\\xBC\\xF6\\x7F\\xEB\\xCF\\xB9\\xEA\\x9E\\x16\\x07K\\xE2\\xDEW\\xEDP\\xD9\\xC7A\\xB9\\x96\\\\J\\x18\\x9F\\x86\\x98\\x8F\\xA6;\\x82\\xC1\\\\\\xF5\\x8C_\\x07\\xB2n\\x1DH\\x8F\\xB9\\x00\\xC4={\\xA8\\x1C\\x83\\xB6p\\xE8\\xCC\\x05m\\x17\\xB4\\x12\\xB6/\\xFD\\x8E\\xEF?\\xA8\\x17\"\\xAF\\x96\\xB1\\xE5\\x05\\x9A5\\xF8ۘ\\x16\\xA1\\neK0\\x07\\xC3\\xE1\\x19\\x06\\xB0ҕ\\xA6\\x06;k\\xC2Y%\\x9Ds\\xED\\xDCF@\\xEB\\xC2\\xC0\\xBE\\x04\\x18\\x01\\n\\x00r\\x05\\x82c\\xA1\\xD2!\\t\\x10\\xEC\\x06\\xF8\\x0BAj\\xEE$G\\x14\\x00\\x00\\x00\\x00\\x00\\x1E\\x00 salt@notations.sequoia-pgp.org\\xFD\\x06)Ty\\x02\\xAD\\xED\\xDB\\xA5&\\xF5\\xC5\\xF58\\xF3\\x90\\x85\\xEF[\\xD9\\xF9\\x9E\\x86\\xBD\\x05\\xEB\\x8F\\x13U\\xB0\\t\\x02\\x9B \\x16!\\x04q\\x08\\xE7H\\xFB\\xEDJ\\xC9RFY;\\xEC\\x06\\xF8\\x0BAj\\xEE$\\x00\\x00\\xAC\\x94\\x08\\x00\\xB5\\xD55\\xB5t\\xC4,\\xFD\\xE0\\xC8\\xA6A\\n\\xA1\\x1D)\\xB0\\xAA\\x17\\x93A\\x1BT\\x86\\x16\\x0C\\x88\\xEB+\\xEE\\t@\\xBB\\xF0\\x17\\xB2\\r\\xDAF\\r\\x95k\\x077\\x85\\xAE\\xCFS\\x969>\\x8C\\x02\\xD4-\\xE7$\\x1D[\\xF1\\xB470\\xCA \\x8F6\\x9B\\xE0}\\xEBY\\xC2\\xC0\\x9BV\\xE8\\xA2\\xF5\\xBD\\xD3\\\\\\x08\\xC2\\x07\\xE0Ot\\x8C\\xF6\\x06&:\\xB9\\xA9H\\xCDk\\xF3\\x0C\\xA8f\\xE1\\xE9\\xC1ǂ\\xE7l\\x9E\\x06\\xFA\\x16\\xC8\\x1A\\x02k\\xA1\\xF3R\\xCF\"WG\\xDE\\xFA\\xB7\\xCB\\x1F\\x97.\\xC3\\xDCg\\x00\\xA7\\xCA{\\xA2\\xA5)\\xA5ƍ\\xB5\\xE6\\xEA\\xC2D\\xAC\\x1C\\xE0-\\x88\\xDFG\\xED)\\xCC{$\\xEB\\x13^\\xB2|\\x18\\xFE\\x0F\\x1Ew\\x1BR\\x10\\x95\\xA8\\x08\\xE9Q\\xD3\\xE8\\x11\\xDFz\\xF4\\xC2[\\x1A_\\xF0\\xE8\\xEEQ\\xB8\\xE3'L!\\xF6m\\xA3\\x19\\x1D\\x9D\\xD1i\\xCA(\\xAA7\\x82\\x01˔db\\xAF1np\\x98\\xF4\\x9BV\\x91$\\xA6\\xA7\\xEA\\xB2\\xE3R\\xE9J\\xFE\\x8DN\\xFC`\\xE8\\xD5\\xD3\\xED\\xF5\\xD1p\\xA9\\n\\x9Bc\\xE6\\xB5\\x1D?\\xEC\\xBC",
    "sig.0": "\\xC2\\xC0\\xBB\\x04\\x00\\x01\\n\\x00o\\x05\\x82c\\xA1\\xE01\\t\\x10\\xEC\\x06\\xF8\\x0BAj\\xEE$G\\x14\\x00\\x00\\x00\\x00\\x00\\x1E\\x00 salt@notations.sequoia-pgp.org\\x1A\\xB1\\x8D\\xCCod\\x95^i\\xF0\\xA6\\x02\\xAF\\x8E\\xC1pz{$`sՉ\\xB2\\xF3\\xFE2\\xA0B^\\x16!\\x04q\\x08\\xE7H\\xFB\\xEDJ\\xC9RFY;\\xEC\\x06\\xF8\\x0BAj\\xEE$\\x00\\x00\\xB80\\x08\\x00\\x86YX\\x1F<\\x1D١\\x0F\\xFB\\xF8\\x8D\\xFE\\x1D7\\x82\\xE9\\xC2B\\x8D\\x13?\\xBE\\x85\\xB0\\xCF)X\\x89\\xB1\\xF6\\xDB`\\x07f\\x8A\\x11\\xD2\\x03\\xBEB#Pu\\xFA\\x14\\x17\\x00퍉\\xCD\\xFC\\x86g\\xCD\\x14z\\xD9\\xF5\\xA5gg\\xE0\\xFBi/\\xCE9\\x08\\x12\\xE3\\x96\\x00\\xA7\\xC9\\xCA\\xFBS\\xA6g\\x0Fb\\x84\\x9Fw\\x88\\x818\\xAFx\\x10\\x0C\\xDDQUD\\xB0-\\x0F\\x8A\\xB7\\x08\\xBB\\xE1\\xE8\\xAB\\xEFz\\x82dh\\xC9kp9\\xFE\\x9E/\\x87\\xF5\\xF4\\t\\xBB\\xC7\\xED\\x08\\xB8\\xD7\\xF4\\xF6\\xC2\\x01\\x85`x]<&\\xB8x\\x03,\\x0B\\xFB\\x92Җ4]\\x03yz\\xB7\"r\\xD77q\\x99\\t\\x90\\xB9\\x12.D/\\xE8>)\\xCF\\x0B\\x15\\xF4\\x9B\"\\t\\xC6\\xD0J\\x0C\\x19U\\xB6\\x01I\\xD1'E\\xB7\\x0F\\xD5R!\\x86\\xCE\\xDC\\x97\\xE5\\xADr\\xA8\\xC6\\xDE\\xB06\\x88%Г\\x14\\x9Dڔ\\xD2\\xD42\\x80\\x8D\\x9Ee\\xFF\\xBFYq\\xB71\\xED\\xB5\\xE2p\\xE4\\xE6\\x85I\\x1F\\x89\\xF9\\xEE\\xCC\\xBD-\\x1EEQc\\xB7\\xF1\\x0C<\\rp\\xA2\\xA5\\x8Eh",
    "sig.1": "\\xC2\\xC0\\xBB\\x04\\x00\\x01\\n\\x00o\\x05\\x82c\\xA1\\xE01\\t\\x10\\x12\\xE2\\xB6N'\\x1B\\x08\\xD6G\\x14\\x00\\x00\\x00\\x00\\x00\\x1E\\x00 salt@notations.sequoia-pgp.org\\x1F:z|\\xE6\\xD6W,\\x8BRm\\xB3\\x05\\xF8|\\xD9\\x0C\\x82\\r\\x88\\x0Ev˪3\\x80\\xFC\\xEC\\xE0\\x1F\\xB1\\x19\\x16!\\x04W\\xDF\\xFD\\xE4\\xC6Z\\xA1Ԓ\\xA1\\x9DH\\x12\\xE2\\xB6N'\\x1B\\x08\\xD6\\x00\\x00\\xFF\\x1C\\x07\\xFFDω̠Z\\xB6Ǝ\\x9Bk\\xB8M\\x06݆`\\x88\\x94\\xAC\\xF8\\x14*PT\\xFF\\x16\\\\\\x85\\xAA|!\\xD9\\\\\\x18q\\xF8L\\x84(76:x\\x15L\\xFEA\\x9Fq\\xFC\\x93u\\x1B\\x14[\\xB4%\\xCEog\\xF7-\\x8B\\x939\\xE9*\\x0E7jp,\"\\xB7cQ<\\xDE/O\\xE0\\xE3ʾJ\\xA6\\x0B\\x9D`<\\xE8c\\x1E\\xC5\\xCC\\x87F|iM\\xFC\\xC6\\xF8*\\xF3\\xB9px\\xBC\\xBD\\xBB.\\xD6\\xE7G]\\x8A?\\xE1j\\xD2\\xCD_%\\xB9\"\\x07\\xFD%\\x1C\\xD8\\xFF\\x1DY\\xC2\\xF2ܟ\\x8E>\\xB4\\x06\\xFCB텷\\xF7\\xD3\\x08\\xF0\\xC7\\xC6\\x1Ca\\x88(\\x82MSs\\xE0BX\\xC1sl8\\xC4[>x\\xB8\\xA1[U$WF\\x8E\\xB4\\x1A{\\x9D\\x83\\x1BD\\x99\\x10\\xC47\\xEC\\xBDM\\xB7\\xED\\x18\\x94j\\t9\\xA4\\xEEN\\xD4\\x1B\\xA5\\x8C\\xB3\\x9D}\\x1D!\\xCC-%z&\\xCA\\xE6\\x0FɺN.p\\xF6n\\x85\\xD0[\\x86,\\x06\\xDE03'\\x01\\xB8\\xBB%u\\x92\\x9F\\xEFp\\xE2\\x1Bv}\\x10\\x12\\xE6\\xFD",
    "sig.2": "\\xC2\\xC0\\xBB\\x04\\x00\\x01\\n\\x00o\\x05\\x82c\\xA1\\xE01\\t\\x10\\xEEtH\\xADnA\\xDA\\xFCG\\x14\\x00\\x00\\x00\\x00\\x00\\x1E\\x00 salt@notations.sequoia-pgp.org\\xA9\\xD7,\\x97\\x02\\xAA^'I\\xE4\\xE2w\\xCC\\xEB\\x1C\\xAE\\xDAp\\xBB\\xBE\\x03I\\x05\\xB1\\xF9\\x07\\xFE\\xCAUb\\xAD~\\x16!\\x04a\\xCFv#U\\xA0\\x89\\xBB~\\xED\\x83m\\xEEtH\\xADnA\\xDA\\xFC\\x00\\x00\\xBC\\xFA\\x07\\xFFZ_\\xF4)\\x99\\x05Xq\\x81\\xBFV\\xA2p\\x9E\\xBE\\xA8\\x12\\x07nr՜\\x16\\xFC}\\xF2\\x06[\\x1FY\\x84D\\xAE\\xF4O{\\xAE\\xFC\\x85\\xB9pUy\\xB1c\\x7Fdz;C\\x83:\\xEC,\\xB9\\xE4a\\xFD\\xE4Y/jH\\xA2\\x0E\\xB9\\t\\xD1F=\\xCE\\r\\x87+\\x04\\xE4E\\xBE\\xCC\\xF4B\\x17\\xB4\\xDC`F\\xECf̾\\x16\\xB2z\\x7F\\x89\\xAA\\xF6,\\x1B\\xC9\\xFF\\xE7\\xA6]J\\xE3\\xF4g\\x92;\\x0C\\xC7>Ib$\\x0E\\x02/\\xE0Z\\xB3\\x0F(\\xBB\\xA0\\x03\\x08\\xD6\\x1ENxMO\\x86ક(\\x9E\\xFFuD$0\\xFBk\\xCAzf\\xA5@\\xEA\\xAB\\x07\\xAA\\x19\\x90\\xE3Z\\xD8\\x0C9B\\xB2\\t\\x18\\xE2\\x88\\xFD\\x99\\xB6\\xF0U\\n\\x1A x8\\xA0\\xA3u\\xEA`^^\\xA2I\\xFAԷM\\x08m\\x00\\x83\\xDC\\x15\\x02x\\x84ʆ\\xFE^\\xB5t̮\\xBE\\x0C9\\xEE4\\xFD\\xD1B\\x80=3X\\\\\\xACd\\x85u\\x1C^\\x19]\\xC2\\xDEm\\xEAi\\xE90\\x89-\\xF9jd\\x94\\xE3l\\x1E\\x0ECoU\\x19\\t\\xDDu\\xF6\\x8E",
    "sig.3": "\\xC2\\xC0\\xBB\\x04\\x00\\x01\\n\\x00o\\x05\\x82c\\xA1\\xE01\\t\\x10\\x86|E\\xAA\\x88\\xB3\\x07\\xF6G\\x14\\x00\\x00\\x00\\x00\\x00\\x1E\\x00 salt@notations.sequoia-pgp.org#J\\x14\\x124\\xF1?\\xAC\\x89k :\\x17@I\\n\\xE7\\x1A\\xF9ML\\x1E1L\\x0C\\x06\\x94!:\\x0Fa\\x1A\\x16!\\x04\\x8C\\xA9\\xBD\\x86\\xC1ܟ\\xA4@N,\\xAE\\x86|E\\xAA\\x88\\xB3\\x07\\xF6\\x00\\x00\\x19\\t\\x07\\xFB\\x05\\x82\\xA8\\xBF\\xF2A!\\x08\\x14\\x91\\x9B\\xB7\\x1E\\x00\\xB5`\\xC2A\\xB5\\n\\x13\\x83k\\xB0J\\xBF\\xBE\\xEC3)\\xFAv\\x02n|[2\\xB6\\x9E\\x82\\xA3\\xAA\\x19\\xE1&\\xCDR\\xEEr7\\xC5H\\x81\\x0Fۙ\\xDF\\xD8\\xBEt>\\xAEnH\"\\xDC\\xD7϶\\x9F\\xE9h\\xE9\\xDB5wt\\xE3\\x16(M[\\xA1\"\\xDBh\\xC4\\xC3\\x85\\x81\\xB3,\\xE5\\xB4N+\\xCAz\\xDEG\\xCB\\xD55\\xA3\\xC2\\xDFm\\x80\\xC9!\\xAA\\xC53Xꪓ\\xDC\\xF3\\xC4a\\xB5\\xAEF\\xA7\\xB3\\xEC&\\x08\\x7F\\x8C\\x05T:\\xF5r\\xA2\\xED\\x95s\\xBA\\xABo\\x18h`\\xF8\\x1A\\x88\\x8B\\x12\\x10\\xA7\\x06\\xE5\\xF3l&\\xD4\\xDF\\x15\\xF27\\xA3\\xFD\\xEFsr2\\xF3g\\xBE?\\xA1@\\xC1\\x03Q\\xDA\\xC3\\x90gʗĲ5\\xF7zL'\\x1C\\x07\"\\x1A\\x9A\\xB2c\\x89\\xD3%o.\\x0B\\xA6\\xCBb\\xBE]\\x88\\xC8\\x15:x\\xA2\\x9Cݑ\\t\\x9A\\x8EJ\\x90T؉%\\xD5\\x19)\\rН\\xF1\\xE8\\x00G\\xBCc\\x0F\\x9F\\x0E9\\x8E\\x01\\xE8^_2\\x81,5\\xDE>\\xBE4",
    "sig.4": "\\xC2\\xC0\\xBB\\x04\\x00\\x01\\n\\x00o\\x05\\x82c\\xA1\\xE01\\t\\x10\\xDE\\xF4\\x1F}\\xC0\\xABs\\x1BG\\x14\\x00\\x00\\x00\\x00\\x00\\x1E\\x00 salt@notations.sequoia-pgp.org\\x84<'\\xBA\\xE6\\x19\\xF8\\xEDg!P\\xD4F\\x05\\xADG\\xC3\\xF2\\x99\\xB9\\xD5\\xD2\\xD8B\\xA8\\x8D\\xD6\\x03\\xC7\\xE29\\x96\\x16!\\x04\\xABU\\xE6\\xBDi\\xEC\\x89\\xDB=\\xAA+K\\xDE\\xF4\\x1F}\\xC0\\xABs\\x1B\\x00\\x00\\x15\\xB4\\x08\\x00\\xCB(\\xF8\\x92\\x02\\x85\\x8Da\\x971t^%7\\x8DO\\x0F\"\\x80\\x94\\xCF\\xCD\\xE5w\\x9FPSL\\xAFo1\\xE7\\xB2\\x17%\\x82\\x97\\x0Co\\x8Aǁ\\xEB\\x81\\xCB\\xC1\\xABKO\\xF3O\\xE9\\xB8T\\xF8\\x9D\\xDF\\xEEw\\xCCM\\x9C\\x10\\xD8rT\\x8E\\xDFf4\\xF8\\xC3\\xD6E\\xEB]\\xD5Qw\\xE0b\\xEB\\xCF\\xFA\\xCB\\xDF\\xFF\\x0F\\xEA\\xEBh\\xCB\\xDD:\\xBD͆U͑hM\\xFB+\\x8F?5\\x87I\\r\\xE3(\\x91\\xB2\\xDC\\xC0\\xAA\\xF5F䈀\\x98\\x97\\xD6\\xE4\\x9FM\\xBBT\\xE1\\xD1\\x94\\x9A{5rn\\xDD\\xED'\\x89\\x1AV\\xA6E{\\x10\\xA5\\xC0\\xD3\\xFA\\x19\\x17AYz`\\xC4;&4G\\xC0'^mv\\x17\\xF9t\\xC8\\x0B\\xA8ܬ\\xAA\\x15\\x85S̏\\x91\\xF5\\x10\\xEA\\xED\\xDB\\t\\xE4g\\xAD\\x07\\x8F\\x9F\\xE1&\\xDA\\xC5f\\xFD!7\\xEBM\\xE2\\xED\\x87ٯ\\x9D-\\x08\\x88gC>Yxw\\xF3\\x1F\\xE7xՕ\\x11Y\\xD2\\xD6$԰t筄4\\x16\\xFA>\\xFCȖF\\xAA\\xAC\\x03\\x8E}\\xE9c\\x12I",
    "sig.5": "½\\x04\\x00\\x16\\n\\x00o\\x05\\x82c\\xA1\\xE01\\t\\x106t\\xB3t0\\x95\\xDD\"G\\x14\\x00\\x00\\x00\\x00\\x00\\x1E\\x00 salt@notations.sequoia-pgp.org\\x82wm\\xE5\\xBF\\xF8mD\\x8D\\x16(Ԩ\\xD6N2`\\x00؀p\\xDB_}\\x03\\xD3V\\x02\\xE7\\x06\\x05R\\x16!\\x04\\xFA\\x11`JO\\xB3\\xBF\\x8B\\t\\x1A\\x8C,6t\\xB3t0\\x95\\xDD\"\\x00\\x00S\\xA2\\x00\\xFF]\\x01#]\\x1CEV\\x19\\xCD\\xF6\\xF8\\xB7\\xFE\\x05\\xAB\\xE9\\xE9\\xBC\\x8Di\\xE3r\\x8C\\x86g\\xBD\\x85\\x1FZ7a\\x01\\x00\\xFFz\\xEFmȃ4Җ\\x0FeK[\\x8F\\xF9Z\\x16\\xA9V\\x1B\\xEE)\\xDF64\\xF7ߓ]r\\x03.\\x01",
    "standalone": "\\x04c\\xBE\\x94\\x9B\\x16\\t+\\x06\\x01\\x04\\x01\\xDAG\\x0F\\x01\\x01\\x07@\\x9D\\x10\\xF7\\xF5y\\xD6\\xEA\\xA8\\xD6\\t\\xFC\\xF1D\\xCFs\\xBF?\\xF1!&\\x8Ci\\xA4q\\xEA\\xF1'E -\\x0B\\x85\\x00\\x00\\xFFo\\xB2\\xC2\\x1F\\xCB\\x17z\\xC0\\xB1\\xC7\\xFF\\x9Aٓ\\x91\\x102q\\x96Z\\xAE\\x93\\x8ED\\xFC\\x95^0\\xA2\\x91\\xCC\\x08\\x12\\x07"
  },
  "dynamic_upper_bounds": [
    [
      0,
      86,
      0
    ],
    [
      0,
      6,
      0
    ],
    [
      0,
      6,
      0
    ],
    [
      0,
      6,
      0
    ],
    [
      0,
      6,
      0
    ],
    [
      0,
      0,
      0
    ],
    [
      0,
      6,
      0
    ],
    [
      0,
      6,
      0
    ],
    [
      0,
      6,
      0
    ],
    [
      0,
      6,
      0
    ],
    [
      0,
      6,
      0
    ],
    [
      0,
      6,
      0
    ],
    [
      0,
      6,
      0
    ],
    [
      0,
      6,
      0
    ],
    [
      0,
      6,
      0
    ],
    [
      0,
      6,
      0
    ],
    [
      0,
      6,
      0
    ],
    [
      0,
      6,
      0
    ],
    [
      0,
      6,
      0
    ],
    [
      0,
      6,
      0
    ],
    [
      0,
      6,
      0
    ],
    [
      0,
      6,
      67
    ],
    [
      0,
      6,
      0
    ],
    [
      0,
      6,
      0
    ],
    [
      0,
      6,
      0
    ],
    [
      0,
      6,
      0
    ],
    [
      0,
      6,
      0
    ],
    [
      0,
      6,
      0
    ],
    [
      0,
      6,
      0
    ],
    [
      0,
      6,
      0
    ]
  ]
}